data/vertical/measurement6.csv

X,CH1,CH2,Start,Increment,
Sequence,Volt,Volt,-1.156000e-02,8.000000e-07
0,6.40e-01,2.56e-02,
1,6.40e-01,2.72e-02,
2,6.40e-01,2.32e-02,
3,6.40e-01,2.32e-02,
4,6.40e-01,2.48e-02,
5,6.40e-01,2.48e-02,
6,6.40e-01,2.32e-02,
7,6.40e-01,2.48e-02,
8,6.40e-01,2.32e-02,
9,6.40e-01,2.32e-02,
10,6.40e-01,2.32e-02,
11,6.40e-01,2.56e-02,
12,6.40e-01,2.48e-02,
13,6.40e-01,2.32e-02,
14,6.40e-01,2.32e-02,
15,6.40e-01,2.32e-02,
16,6.40e-01,2.24e-02,
17,6.40e-01,2.48e-02,
18,6.40e-01,2.48e-02,
19,6.40e-01,2.48e-02,
20,6.40e-01,2.32e-02,
21,6.40e-01,2.32e-02,
22,6.40e-01,2.32e-02,
23,6.40e-01,2.32e-02,
24,6.40e-01,2.48e-02,
25,6.40e-01,2.48e-02,
26,6.40e-01,2.48e-02,
27,6.40e-01,2.32e-02,
28,6.40e-01,2.24e-02,
29,6.40e-01,2.32e-02,
30,6.40e-01,2.32e-02,
31,6.40e-01,2.32e-02,
32,6.40e-01,2.48e-02,
33,6.40e-01,2.56e-02,
34,6.40e-01,2.24e-02,
35,6.40e-01,2.32e-02,
36,6.40e-01,2.32e-02,
37,6.40e-01,2.32e-02,
38,6.40e-01,2.32e-02,
39,6.40e-01,2.48e-02,
40,6.40e-01,2.32e-02,
41,6.40e-01,2.32e-02,
42,6.40e-01,2.24e-02,
43,6.40e-01,2.32e-02,
44,6.40e-01,2.32e-02,
45,6.40e-01,2.32e-02,
46,6.40e-01,2.24e-02,
47,6.40e-01,2.32e-02,
48,6.40e-01,2.08e-02,
49,6.40e-01,2.24e-02,
50,6.40e-01,2.48e-02,
51,6.40e-01,2.48e-02,
52,6.40e-01,2.24e-02,
53,6.40e-01,2.24e-02,
54,6.40e-01,2.32e-02,
55,6.40e-01,2.24e-02,
56,5.60e-01,2.32e-02,
57,6.40e-01,2.32e-02,
58,6.40e-01,2.32e-02,
59,6.40e-01,2.24e-02,
60,5.60e-01,2.24e-02,
61,6.40e-01,2.08e-02,
62,6.40e-01,2.24e-02,
63,5.60e-01,2.24e-02,
64,6.40e-01,2.24e-02,
65,6.40e-01,2.24e-02,
66,5.60e-01,2.24e-02,
67,5.60e-01,2.00e-02,
68,5.60e-01,2.08e-02,
69,5.60e-01,2.08e-02,
70,5.60e-01,2.24e-02,
71,5.60e-01,2.08e-02,
72,5.60e-01,2.24e-02,
73,5.60e-01,2.08e-02,
74,5.60e-01,2.08e-02,
75,5.60e-01,2.00e-02,
76,5.60e-01,2.24e-02,
77,5.60e-01,2.24e-02,
78,5.60e-01,2.08e-02,
79,5.60e-01,2.08e-02,
80,5.60e-01,2.08e-02,
81,5.60e-01,2.00e-02,
82,5.60e-01,2.08e-02,
83,5.60e-01,2.08e-02,
84,5.60e-01,2.24e-02,
85,5.60e-01,2.08e-02,
86,5.60e-01,2.00e-02,
87,5.60e-01,2.00e-02,
88,5.60e-01,2.08e-02,
89,5.60e-01,2.24e-02,
90,5.60e-01,2.00e-02,
91,5.60e-01,2.24e-02,
92,5.60e-01,2.08e-02,
93,5.60e-01,2.00e-02,
94,5.60e-01,2.00e-02,
95,5.60e-01,2.08e-02,
96,5.60e-01,2.08e-02,
97,5.60e-01,2.08e-02,
98,5.60e-01,2.24e-02,
99,5.60e-01,2.08e-02,
100,5.60e-01,2.08e-02,
101,5.60e-01,2.00e-02,
102,5.60e-01,2.08e-02,
103,5.60e-01,2.24e-02,
104,5.60e-01,2.24e-02,
105,5.60e-01,2.08e-02,
106,5.60e-01,2.32e-02,
107,5.60e-01,2.08e-02,
108,5.60e-01,2.08e-02,
109,5.60e-01,2.24e-02,
110,5.60e-01,2.32e-02,
111,5.60e-01,2.24e-02,
112,5.60e-01,2.08e-02,
113,5.60e-01,2.08e-02,
114,5.60e-01,2.00e-02,
115,5.60e-01,2.00e-02,
116,5.60e-01,2.00e-02,
117,5.60e-01,2.24e-02,
118,5.60e-01,2.00e-02,
119,5.60e-01,2.00e-02,
120,5.60e-01,1.84e-02,
121,5.60e-01,2.24e-02,
122,5.60e-01,1.84e-02,
123,5.60e-01,2.00e-02,
124,5.60e-01,2.08e-02,
125,5.60e-01,2.00e-02,
126,5.60e-01,1.84e-02,
127,5.60e-01,1.84e-02,
128,5.60e-01,1.84e-02,
129,5.60e-01,2.00e-02,
130,5.60e-01,2.00e-02,
131,5.60e-01,1.84e-02,
132,5.60e-01,2.00e-02,
133,5.60e-01,1.84e-02,
134,5.60e-01,2.00e-02,
135,5.60e-01,2.00e-02,
136,5.60e-01,2.08e-02,
137,5.60e-01,2.00e-02,
138,5.60e-01,2.00e-02,
139,5.60e-01,1.84e-02,
140,5.60e-01,1.84e-02,
141,5.60e-01,2.00e-02,
142,5.60e-01,1.84e-02,
143,5.60e-01,2.00e-02,
144,5.60e-01,2.08e-02,
145,5.60e-01,1.84e-02,
146,5.60e-01,1.84e-02,
147,5.60e-01,2.00e-02,
148,5.60e-01,1.84e-02,
149,5.60e-01,1.84e-02,
150,5.60e-01,1.84e-02,
151,5.60e-01,2.00e-02,
152,5.60e-01,1.76e-02,
153,4.00e-01,1.76e-02,
154,4.00e-01,1.84e-02,
155,4.00e-01,1.84e-02,
156,5.60e-01,1.84e-02,
157,4.00e-01,1.84e-02,
158,4.00e-01,1.84e-02,
159,4.00e-01,1.84e-02,
160,4.00e-01,1.76e-02,
161,4.00e-01,1.84e-02,
162,4.00e-01,1.84e-02,
163,4.00e-01,2.00e-02,
164,4.00e-01,2.00e-02,
165,4.00e-01,1.76e-02,
166,4.00e-01,1.84e-02,
167,4.00e-01,1.76e-02,
168,4.00e-01,2.00e-02,
169,4.00e-01,2.00e-02,
170,4.00e-01,1.84e-02,
171,4.00e-01,1.76e-02,
172,4.00e-01,1.84e-02,
173,4.00e-01,1.84e-02,
174,4.00e-01,1.84e-02,
175,4.00e-01,2.00e-02,
176,4.00e-01,2.00e-02,
177,4.00e-01,1.76e-02,
178,4.00e-01,1.76e-02,
179,4.00e-01,1.76e-02,
180,4.00e-01,1.76e-02,
181,4.00e-01,1.76e-02,
182,4.00e-01,1.76e-02,
183,4.00e-01,1.76e-02,
184,4.00e-01,1.76e-02,
185,4.00e-01,1.52e-02,
186,4.00e-01,1.60e-02,
187,4.00e-01,1.76e-02,
188,4.00e-01,1.76e-02,
189,4.00e-01,1.76e-02,
190,4.00e-01,1.60e-02,
191,4.00e-01,1.76e-02,
192,4.00e-01,1.52e-02,
193,4.00e-01,1.60e-02,
194,4.00e-01,1.84e-02,
195,4.00e-01,1.84e-02,
196,4.00e-01,1.60e-02,
197,4.00e-01,1.60e-02,
198,4.00e-01,1.60e-02,
199,4.00e-01,1.60e-02,
200,4.00e-01,1.60e-02,
201,4.00e-01,1.76e-02,
202,4.00e-01,2.00e-02,
203,4.00e-01,1.60e-02,
204,4.00e-01,1.60e-02,
205,4.00e-01,1.60e-02,
206,4.00e-01,1.60e-02,
207,4.00e-01,1.76e-02,
208,4.00e-01,1.60e-02,
209,4.00e-01,1.76e-02,
210,4.00e-01,1.60e-02,
211,4.00e-01,1.52e-02,
212,4.00e-01,1.60e-02,
213,4.00e-01,1.60e-02,
214,4.00e-01,1.76e-02,
215,4.00e-01,1.60e-02,
216,4.00e-01,1.52e-02,
217,4.00e-01,1.52e-02,
218,4.00e-01,1.52e-02,
219,4.00e-01,1.60e-02,
220,4.00e-01,1.52e-02,
221,4.00e-01,1.60e-02,
222,4.00e-01,1.60e-02,
223,4.00e-01,1.60e-02,
224,4.00e-01,1.52e-02,
225,4.00e-01,1.52e-02,
226,4.00e-01,1.60e-02,
227,4.00e-01,1.60e-02,
228,4.00e-01,1.76e-02,
229,4.00e-01,1.76e-02,
230,4.00e-01,1.60e-02,
231,4.00e-01,1.52e-02,
232,4.00e-01,1.52e-02,
233,4.00e-01,1.60e-02,
234,3.20e-01,1.60e-02,
235,4.00e-01,1.60e-02,
236,3.20e-01,1.76e-02,
237,4.00e-01,1.36e-02,
238,3.20e-01,1.52e-02,
239,3.20e-01,1.52e-02,
240,3.20e-01,1.36e-02,
241,3.20e-01,1.52e-02,
242,3.20e-01,1.52e-02,
243,3.20e-01,1.52e-02,
244,3.20e-01,1.36e-02,
245,3.20e-01,1.36e-02,
246,3.20e-01,1.52e-02,
247,3.20e-01,1.36e-02,
248,3.20e-01,1.52e-02,
249,3.20e-01,1.36e-02,
250,3.20e-01,1.36e-02,
251,3.20e-01,1.36e-02,
252,3.20e-01,1.36e-02,
253,3.20e-01,1.36e-02,
254,3.20e-01,1.60e-02,
255,3.20e-01,1.52e-02,
256,3.20e-01,1.36e-02,
257,3.20e-01,1.52e-02,
258,3.20e-01,1.36e-02,
259,3.20e-01,1.36e-02,
260,3.20e-01,1.52e-02,
261,3.20e-01,1.36e-02,
262,3.20e-01,1.52e-02,
263,3.20e-01,1.36e-02,
264,3.20e-01,1.36e-02,
265,3.20e-01,1.52e-02,
266,3.20e-01,1.36e-02,
267,3.20e-01,1.52e-02,
268,3.20e-01,1.36e-02,
269,3.20e-01,1.28e-02,
270,3.20e-01,1.28e-02,
271,3.20e-01,1.36e-02,
272,3.20e-01,1.36e-02,
273,3.20e-01,1.28e-02,
274,3.20e-01,1.36e-02,
275,3.20e-01,1.36e-02,
276,3.20e-01,1.28e-02,
277,3.20e-01,1.36e-02,
278,3.20e-01,1.28e-02,
279,3.20e-01,1.36e-02,
280,3.20e-01,1.36e-02,
281,3.20e-01,1.28e-02,
282,3.20e-01,1.36e-02,
283,3.20e-01,1.36e-02,
284,3.20e-01,1.28e-02,
285,3.20e-01,1.28e-02,
286,3.20e-01,1.52e-02,
287,3.20e-01,1.36e-02,
288,3.20e-01,1.28e-02,
289,3.20e-01,1.36e-02,
290,3.20e-01,1.28e-02,
291,3.20e-01,1.36e-02,
292,3.20e-01,1.36e-02,
293,3.20e-01,1.52e-02,
294,3.20e-01,1.60e-02,
295,3.20e-01,1.28e-02,
296,3.20e-01,1.28e-02,
297,3.20e-01,1.28e-02,
298,3.20e-01,1.36e-02,
299,3.20e-01,1.36e-02,
300,3.20e-01,1.28e-02,
301,3.20e-01,1.36e-02,
302,3.20e-01,1.36e-02,
303,3.20e-01,1.28e-02,
304,3.20e-01,1.12e-02,
305,3.20e-01,1.28e-02,
306,3.20e-01,1.28e-02,
307,3.20e-01,1.28e-02,
308,3.20e-01,1.28e-02,
309,3.20e-01,1.36e-02,
310,3.20e-01,1.12e-02,
311,3.20e-01,1.28e-02,
312,3.20e-01,1.28e-02,
313,3.20e-01,1.36e-02,
314,3.20e-01,1.28e-02,
315,3.20e-01,1.12e-02,
316,3.20e-01,1.28e-02,
317,3.20e-01,1.04e-02,
318,3.20e-01,1.12e-02,
319,3.20e-01,1.28e-02,
320,3.20e-01,1.28e-02,
321,1.60e-01,1.12e-02,
322,3.20e-01,1.12e-02,
323,1.60e-01,8.80e-03,
324,3.20e-01,1.04e-02,
325,3.20e-01,1.04e-02,
326,3.20e-01,1.12e-02,
327,3.20e-01,1.12e-02,
328,3.20e-01,1.04e-02,
329,1.60e-01,1.04e-02,
330,1.60e-01,1.04e-02,
331,1.60e-01,8.80e-03,
332,1.60e-01,1.04e-02,
333,1.60e-01,1.12e-02,
334,1.60e-01,1.04e-02,
335,1.60e-01,8.80e-03,
336,1.60e-01,1.04e-02,
337,1.60e-01,1.04e-02,
338,1.60e-01,1.04e-02,
339,1.60e-01,1.12e-02,
340,1.60e-01,1.04e-02,
341,1.60e-01,1.12e-02,
342,1.60e-01,8.80e-03,
343,1.60e-01,1.04e-02,
344,1.60e-01,1.04e-02,
345,1.60e-01,1.04e-02,
346,1.60e-01,1.12e-02,
347,1.60e-01,1.04e-02,
348,1.60e-01,1.04e-02,
349,1.60e-01,8.80e-03,
350,1.60e-01,8.80e-03,
351,1.60e-01,8.80e-03,
352,1.60e-01,1.04e-02,
353,1.60e-01,1.12e-02,
354,1.60e-01,1.04e-02,
355,1.60e-01,1.04e-02,
356,1.60e-01,1.04e-02,
357,1.60e-01,8.80e-03,
358,1.60e-01,8.00e-03,
359,1.60e-01,1.04e-02,
360,1.60e-01,1.04e-02,
361,1.60e-01,8.80e-03,
362,1.60e-01,1.04e-02,
363,1.60e-01,1.04e-02,
364,1.60e-01,1.04e-02,
365,1.60e-01,1.04e-02,
366,1.60e-01,1.04e-02,
367,1.60e-01,1.12e-02,
368,1.60e-01,1.04e-02,
369,1.60e-01,8.80e-03,
370,1.60e-01,1.04e-02,
371,1.60e-01,1.04e-02,
372,1.60e-01,1.04e-02,
373,1.60e-01,1.12e-02,
374,1.60e-01,1.04e-02,
375,1.60e-01,1.04e-02,
376,1.60e-01,8.80e-03,
377,1.60e-01,8.80e-03,
378,1.60e-01,8.00e-03,
379,1.60e-01,1.04e-02,
380,1.60e-01,8.80e-03,
381,1.60e-01,8.00e-03,
382,1.60e-01,8.00e-03,
383,1.60e-01,8.00e-03,
384,1.60e-01,6.40e-03,
385,1.60e-01,8.00e-03,
386,1.60e-01,8.80e-03,
387,1.60e-01,8.80e-03,
388,1.60e-01,8.00e-03,
389,1.60e-01,8.00e-03,
390,1.60e-01,8.80e-03,
391,1.60e-01,8.80e-03,
392,1.60e-01,8.80e-03,
393,1.60e-01,8.00e-03,
394,1.60e-01,1.04e-02,
395,1.60e-01,8.80e-03,
396,1.60e-01,8.00e-03,
397,1.60e-01,8.80e-03,
398,1.60e-01,1.04e-02,
399,1.60e-01,8.00e-03,
400,1.60e-01,8.80e-03,
401,1.60e-01,8.80e-03,
402,1.60e-01,8.00e-03,
403,1.60e-01,6.40e-03,
404,8.00e-02,8.00e-03,
405,1.60e-01,8.80e-03,
406,8.00e-02,8.00e-03,
407,1.60e-01,8.00e-03,
408,8.00e-02,8.00e-03,
409,8.00e-02,8.00e-03,
410,8.00e-02,5.60e-03,
411,8.00e-02,6.40e-03,
412,8.00e-02,8.00e-03,
413,8.00e-02,8.00e-03,
414,8.00e-02,5.60e-03,
415,8.00e-02,8.00e-03,
416,8.00e-02,6.40e-03,
417,8.00e-02,5.60e-03,
418,8.00e-02,8.00e-03,
419,8.00e-02,8.00e-03,
420,8.00e-02,8.00e-03,
421,8.00e-02,6.40e-03,
422,8.00e-02,8.00e-03,
423,8.00e-02,8.00e-03,
424,8.00e-02,6.40e-03,
425,8.00e-02,8.00e-03,
426,8.00e-02,8.80e-03,
427,8.00e-02,8.00e-03,
428,8.00e-02,8.00e-03,
429,8.00e-02,6.40e-03,
430,8.00e-02,8.00e-03,
431,8.00e-02,6.40e-03,
432,8.00e-02,8.80e-03,
433,8.00e-02,6.40e-03,
434,8.00e-02,8.00e-03,
435,8.00e-02,5.60e-03,
436,8.00e-02,4.00e-03,
437,8.00e-02,6.40e-03,
438,8.00e-02,5.60e-03,
439,8.00e-02,5.60e-03,
440,8.00e-02,6.40e-03,
441,8.00e-02,5.60e-03,
442,8.00e-02,4.00e-03,
443,8.00e-02,5.60e-03,
444,8.00e-02,6.40e-03,
445,8.00e-02,6.40e-03,
446,8.00e-02,5.60e-03,
447,8.00e-02,6.40e-03,
448,8.00e-02,4.00e-03,
449,8.00e-02,4.00e-03,
450,8.00e-02,5.60e-03,
451,8.00e-02,6.40e-03,
452,8.00e-02,6.40e-03,
453,8.00e-02,6.40e-03,
454,8.00e-02,6.40e-03,
455,8.00e-02,5.60e-03,
456,8.00e-02,5.60e-03,
457,8.00e-02,6.40e-03,
458,8.00e-02,6.40e-03,
459,8.00e-02,6.40e-03,
460,8.00e-02,6.40e-03,
461,8.00e-02,5.60e-03,
462,8.00e-02,5.60e-03,
463,8.00e-02,4.00e-03,
464,8.00e-02,6.40e-03,
465,8.00e-02,5.60e-03,
466,8.00e-02,5.60e-03,
467,8.00e-02,5.60e-03,
468,8.00e-02,4.00e-03,
469,8.00e-02,3.20e-03,
470,8.00e-02,3.20e-03,
471,8.00e-02,6.40e-03,
472,8.00e-02,4.00e-03,
473,8.00e-02,5.60e-03,
474,8.00e-02,5.60e-03,
475,8.00e-02,4.00e-03,
476,8.00e-02,3.20e-03,
477,8.00e-02,4.00e-03,
478,8.00e-02,5.60e-03,
479,8.00e-02,5.60e-03,
480,8.00e-02,4.00e-03,
481,8.00e-02,5.60e-03,
482,8.00e-02,5.60e-03,
483,8.00e-02,4.00e-03,
484,8.00e-02,5.60e-03,
485,8.00e-02,4.00e-03,
486,8.00e-02,5.60e-03,
487,8.00e-02,4.00e-03,
488,8.00e-02,3.20e-03,
489,8.00e-02,4.00e-03,
490,8.00e-02,5.60e-03,
491,8.00e-02,5.60e-03,
492,-8.00e-02,4.00e-03,
493,-8.00e-02,4.00e-03,
494,8.00e-02,4.00e-03,
495,8.00e-02,1.60e-03,
496,-8.00e-02,3.20e-03,
497,-8.00e-02,5.60e-03,
498,8.00e-02,4.00e-03,
499,-8.00e-02,3.20e-03,
500,-8.00e-02,5.60e-03,
501,-8.00e-02,4.00e-03,
502,-8.00e-02,3.20e-03,
503,-8.00e-02,4.00e-03,
504,-8.00e-02,5.60e-03,
505,-8.00e-02,4.00e-03,
506,-8.00e-02,3.20e-03,
507,-8.00e-02,4.00e-03,
508,-8.00e-02,3.20e-03,
509,-8.00e-02,3.20e-03,
510,-8.00e-02,3.20e-03,
511,-8.00e-02,4.00e-03,
512,-8.00e-02,4.00e-03,
513,-8.00e-02,3.20e-03,
514,-8.00e-02,4.00e-03,
515,-8.00e-02,3.20e-03,
516,-8.00e-02,3.20e-03,
517,-8.00e-02,4.00e-03,
518,-8.00e-02,4.00e-03,
519,-8.00e-02,3.20e-03,
520,-8.00e-02,1.60e-03,
521,-8.00e-02,3.20e-03,
522,-8.00e-02,1.60e-03,
523,-8.00e-02,3.20e-03,
524,-8.00e-02,3.20e-03,
525,-8.00e-02,1.60e-03,
526,-8.00e-02,1.60e-03,
527,-8.00e-02,8.00e-04,
528,-8.00e-02,1.60e-03,
529,-8.00e-02,3.20e-03,
530,-8.00e-02,3.20e-03,
531,-8.00e-02,1.60e-03,
532,-8.00e-02,1.60e-03,
533,-8.00e-02,1.60e-03,
534,-8.00e-02,-8.00e-04,
535,-8.00e-02,1.60e-03,
536,-8.00e-02,3.20e-03,
537,-8.00e-02,1.60e-03,
538,-8.00e-02,1.60e-03,
539,-8.00e-02,1.60e-03,
540,-8.00e-02,1.60e-03,
541,-8.00e-02,8.00e-04,
542,-8.00e-02,3.20e-03,
543,-8.00e-02,3.20e-03,
544,-8.00e-02,1.60e-03,
545,-8.00e-02,1.60e-03,
546,-8.00e-02,1.60e-03,
547,-8.00e-02,1.60e-03,
548,-8.00e-02,8.00e-04,
549,-8.00e-02,1.60e-03,
550,-8.00e-02,1.60e-03,
551,-8.00e-02,1.60e-03,
552,-8.00e-02,8.00e-04,
553,-8.00e-02,-8.00e-04,
554,-8.00e-02,1.60e-03,
555,-8.00e-02,1.60e-03,
556,-8.00e-02,8.00e-04,
557,-8.00e-02,1.60e-03,
558,-8.00e-02,1.60e-03,
559,-8.00e-02,-8.00e-04,
560,-8.00e-02,-8.00e-04,
561,-8.00e-02,8.00e-04,
562,-8.00e-02,8.00e-04,
563,-8.00e-02,1.60e-03,
564,-8.00e-02,1.60e-03,
565,-8.00e-02,8.00e-04,
566,-8.00e-02,1.60e-03,
567,-8.00e-02,8.00e-04,
568,-8.00e-02,8.00e-04,
569,-8.00e-02,1.60e-03,
570,-8.00e-02,8.00e-04,
571,-8.00e-02,-1.60e-03,
572,-8.00e-02,-8.00e-04,
573,-8.00e-02,8.00e-04,
574,-8.00e-02,8.00e-04,
575,-1.60e-01,8.00e-04,
576,-1.60e-01,8.00e-04,
577,-1.60e-01,-8.00e-04,
578,-1.60e-01,8.00e-04,
579,-8.00e-02,-1.60e-03,
580,-1.60e-01,8.00e-04,
581,-1.60e-01,8.00e-04,
582,-1.60e-01,-8.00e-04,
583,-1.60e-01,-8.00e-04,
584,-1.60e-01,-8.00e-04,
585,-1.60e-01,-8.00e-04,
586,-1.60e-01,-1.60e-03,
587,-1.60e-01,8.00e-04,
588,-1.60e-01,-8.00e-04,
589,-1.60e-01,-8.00e-04,
590,-1.60e-01,-8.00e-04,
591,-1.60e-01,-1.60e-03,
592,-1.60e-01,-1.60e-03,
593,-1.60e-01,-1.60e-03,
594,-1.60e-01,8.00e-04,
595,-1.60e-01,8.00e-04,
596,-1.60e-01,8.00e-04,
597,-1.60e-01,-8.00e-04,
598,-1.60e-01,-1.60e-03,
599,-1.60e-01,-8.00e-04,
600,-1.60e-01,-8.00e-04,
601,-1.60e-01,8.00e-04,
602,-1.60e-01,-8.00e-04,
603,-1.60e-01,-8.00e-04,
604,-1.60e-01,-1.60e-03,
605,-1.60e-01,-1.60e-03,
606,-1.60e-01,-8.00e-04,
607,-1.60e-01,-8.00e-04,
608,-1.60e-01,-8.00e-04,
609,-1.60e-01,-1.60e-03,
610,-1.60e-01,-1.60e-03,
611,-1.60e-01,-1.60e-03,
612,-1.60e-01,-1.60e-03,
613,-1.60e-01,-8.00e-04,
614,-1.60e-01,-1.60e-03,
615,-1.60e-01,-1.60e-03,
616,-1.60e-01,-4.00e-03,
617,-1.60e-01,-1.60e-03,
618,-1.60e-01,-1.60e-03,
619,-1.60e-01,-2.40e-03,
620,-1.60e-01,-8.00e-04,
621,-1.60e-01,-1.60e-03,
622,-1.60e-01,-2.40e-03,
623,-1.60e-01,-2.40e-03,
624,-1.60e-01,-2.40e-03,
625,-1.60e-01,-1.60e-03,
626,-1.60e-01,-1.60e-03,
627,-1.60e-01,-1.60e-03,
628,-1.60e-01,-1.60e-03,
629,-1.60e-01,-1.60e-03,
630,-1.60e-01,-2.40e-03,
631,-1.60e-01,-4.00e-03,
632,-1.60e-01,-1.60e-03,
633,-1.60e-01,-1.60e-03,
634,-1.60e-01,-2.40e-03,
635,-1.60e-01,-2.40e-03,
636,-1.60e-01,-2.40e-03,
637,-1.60e-01,-4.00e-03,
638,-1.60e-01,-1.60e-03,
639,-1.60e-01,-1.60e-03,
640,-1.60e-01,-2.40e-03,
641,-1.60e-01,-1.60e-03,
642,-1.60e-01,-4.00e-03,
643,-1.60e-01,-4.00e-03,
644,-1.60e-01,-2.40e-03,
645,-1.60e-01,-1.60e-03,
646,-1.60e-01,-2.40e-03,
647,-1.60e-01,-2.40e-03,
648,-1.60e-01,-2.40e-03,
649,-1.60e-01,-4.80e-03,
650,-1.60e-01,-4.00e-03,
651,-1.60e-01,-2.40e-03,
652,-1.60e-01,-1.60e-03,
653,-1.60e-01,-4.00e-03,
654,-1.60e-01,-4.00e-03,
655,-1.60e-01,-1.60e-03,
656,-3.20e-01,-4.00e-03,
657,-1.60e-01,-2.40e-03,
658,-1.60e-01,-2.40e-03,
659,-1.60e-01,-2.40e-03,
660,-1.60e-01,-2.40e-03,
661,-3.20e-01,-4.00e-03,
662,-3.20e-01,-4.00e-03,
663,-3.20e-01,-2.40e-03,
664,-3.20e-01,-2.40e-03,
665,-3.20e-01,-2.40e-03,
666,-3.20e-01,-2.40e-03,
667,-3.20e-01,-4.00e-03,
668,-3.20e-01,-4.00e-03,
669,-3.20e-01,-4.80e-03,
670,-3.20e-01,-2.40e-03,
671,-3.20e-01,-2.40e-03,
672,-3.20e-01,-4.00e-03,
673,-3.20e-01,-4.00e-03,
674,-3.20e-01,-4.00e-03,
675,-3.20e-01,-4.00e-03,
676,-3.20e-01,-4.80e-03,
677,-3.20e-01,-4.80e-03,
678,-3.20e-01,-4.00e-03,
679,-3.20e-01,-2.40e-03,
680,-3.20e-01,-4.80e-03,
681,-3.20e-01,-4.80e-03,
682,-3.20e-01,-4.00e-03,
683,-3.20e-01,-4.00e-03,
684,-3.20e-01,-4.00e-03,
685,-3.20e-01,-4.80e-03,
686,-3.20e-01,-4.00e-03,
687,-3.20e-01,-4.80e-03,
688,-3.20e-01,-4.80e-03,
689,-3.20e-01,-4.80e-03,
690,-3.20e-01,-4.00e-03,
691,-3.20e-01,-4.00e-03,
692,-3.20e-01,-4.00e-03,
693,-3.20e-01,-4.80e-03,
694,-3.20e-01,-4.80e-03,
695,-3.20e-01,-4.80e-03,
696,-3.20e-01,-4.00e-03,
697,-3.20e-01,-4.00e-03,
698,-3.20e-01,-4.80e-03,
699,-3.20e-01,-4.00e-03,
700,-3.20e-01,-4.80e-03,
701,-3.20e-01,-4.80e-03,
702,-3.20e-01,-4.80e-03,
703,-3.20e-01,-4.00e-03,
704,-3.20e-01,-6.40e-03,
705,-3.20e-01,-6.40e-03,
706,-3.20e-01,-6.40e-03,
707,-3.20e-01,-6.40e-03,
708,-3.20e-01,-7.20e-03,
709,-3.20e-01,-6.40e-03,
710,-3.20e-01,-4.80e-03,
711,-3.20e-01,-4.80e-03,
712,-3.20e-01,-6.40e-03,
713,-3.20e-01,-7.20e-03,
714,-3.20e-01,-6.40e-03,
715,-3.20e-01,-7.20e-03,
716,-3.20e-01,-6.40e-03,
717,-3.20e-01,-4.80e-03,
718,-3.20e-01,-6.40e-03,
719,-3.20e-01,-7.20e-03,
720,-3.20e-01,-6.40e-03,
721,-3.20e-01,-7.20e-03,
722,-3.20e-01,-4.80e-03,
723,-3.20e-01,-6.40e-03,
724,-3.20e-01,-4.80e-03,
725,-3.20e-01,-6.40e-03,
726,-3.20e-01,-6.40e-03,
727,-3.20e-01,-6.40e-03,
728,-3.20e-01,-4.80e-03,
729,-3.20e-01,-4.80e-03,
730,-3.20e-01,-4.00e-03,
731,-3.20e-01,-7.20e-03,
732,-3.20e-01,-6.40e-03,
733,-3.20e-01,-7.20e-03,
734,-3.20e-01,-7.20e-03,
735,-3.20e-01,-6.40e-03,
736,-3.20e-01,-4.80e-03,
737,-3.20e-01,-7.20e-03,
738,-3.20e-01,-7.20e-03,
739,-3.20e-01,-4.80e-03,
740,-3.20e-01,-8.80e-03,
741,-3.20e-01,-8.80e-03,
742,-3.20e-01,-6.40e-03,
743,-3.20e-01,-6.40e-03,
744,-3.20e-01,-8.80e-03,
745,-3.20e-01,-7.20e-03,
746,-3.20e-01,-7.20e-03,
747,-4.00e-01,-7.20e-03,
748,-4.00e-01,-7.20e-03,
749,-3.20e-01,-6.40e-03,
750,-4.00e-01,-6.40e-03,
751,-4.00e-01,-7.20e-03,
752,-4.00e-01,-8.80e-03,
753,-4.00e-01,-8.80e-03,
754,-4.00e-01,-8.80e-03,
755,-4.00e-01,-7.20e-03,
756,-4.00e-01,-6.40e-03,
757,-4.00e-01,-7.20e-03,
758,-4.00e-01,-6.40e-03,
759,-4.00e-01,-7.20e-03,
760,-4.00e-01,-7.20e-03,
761,-4.00e-01,-6.40e-03,
762,-4.00e-01,-7.20e-03,
763,-4.00e-01,-7.20e-03,
764,-4.00e-01,-8.80e-03,
765,-4.00e-01,-7.20e-03,
766,-4.00e-01,-7.20e-03,
767,-4.00e-01,-7.20e-03,
768,-4.00e-01,-7.20e-03,
769,-4.00e-01,-7.20e-03,
770,-4.00e-01,-8.80e-03,
771,-4.00e-01,-8.80e-03,
772,-4.00e-01,-7.20e-03,
773,-4.00e-01,-7.20e-03,
774,-4.00e-01,-7.20e-03,
775,-4.00e-01,-7.20e-03,
776,-4.00e-01,-7.20e-03,
777,-4.00e-01,-8.80e-03,
778,-4.00e-01,-8.80e-03,
779,-4.00e-01,-9.60e-03,
780,-4.00e-01,-7.20e-03,
781,-4.00e-01,-9.60e-03,
782,-4.00e-01,-8.80e-03,
783,-4.00e-01,-8.80e-03,
784,-4.00e-01,-8.80e-03,
785,-4.00e-01,-9.60e-03,
786,-4.00e-01,-9.60e-03,
787,-4.00e-01,-8.80e-03,
788,-4.00e-01,-8.80e-03,
789,-4.00e-01,-9.60e-03,
790,-4.00e-01,-1.12e-02,
791,-4.00e-01,-8.80e-03,
792,-4.00e-01,-1.12e-02,
793,-4.00e-01,-9.60e-03,
794,-4.00e-01,-8.80e-03,
795,-4.00e-01,-7.20e-03,
796,-4.00e-01,-7.20e-03,
797,-4.00e-01,-8.80e-03,
798,-4.00e-01,-8.80e-03,
799,-4.00e-01,-7.20e-03,
800,-4.00e-01,-8.80e-03,
801,-4.00e-01,-8.80e-03,
802,-4.00e-01,-7.20e-03,
803,-4.00e-01,-8.80e-03,
804,-4.00e-01,-9.60e-03,
805,-4.00e-01,-9.60e-03,
806,-4.00e-01,-8.80e-03,
807,-4.00e-01,-8.80e-03,
808,-4.00e-01,-9.60e-03,
809,-4.00e-01,-8.80e-03,
810,-4.00e-01,-1.20e-02,
811,-4.00e-01,-9.60e-03,
812,-4.00e-01,-1.12e-02,
813,-4.00e-01,-1.12e-02,
814,-4.00e-01,-1.12e-02,
815,-4.00e-01,-9.60e-03,
816,-4.00e-01,-1.12e-02,
817,-4.00e-01,-1.12e-02,
818,-4.00e-01,-1.12e-02,
819,-4.00e-01,-1.12e-02,
820,-4.00e-01,-9.60e-03,
821,-4.00e-01,-1.12e-02,
822,-4.00e-01,-9.60e-03,
823,-4.00e-01,-9.60e-03,
824,-4.00e-01,-1.20e-02,
825,-4.00e-01,-9.60e-03,
826,-4.00e-01,-9.60e-03,
827,-4.00e-01,-8.80e-03,
828,-4.00e-01,-8.80e-03,
829,-4.00e-01,-1.12e-02,
830,-5.60e-01,-1.12e-02,
831,-4.00e-01,-1.12e-02,
832,-4.00e-01,-1.12e-02,
833,-5.60e-01,-1.12e-02,
834,-4.00e-01,-8.80e-03,
835,-5.60e-01,-1.12e-02,
836,-5.60e-01,-1.12e-02,
837,-5.60e-01,-1.12e-02,
838,-5.60e-01,-1.12e-02,
839,-5.60e-01,-1.12e-02,
840,-5.60e-01,-1.12e-02,
841,-5.60e-01,-9.60e-03,
842,-5.60e-01,-1.12e-02,
843,-5.60e-01,-1.20e-02,
