data/vertical/measurement8.csv

X,CH1,CH2,Start,Increment,
Sequence,Volt,Volt,-1.156000e-02,8.000000e-07
0,6.40e-01,8.80e-03,
1,6.40e-01,8.80e-03,
2,6.40e-01,8.80e-03,
3,6.40e-01,8.80e-03,
4,6.40e-01,8.80e-03,
5,6.40e-01,8.00e-03,
6,6.40e-01,8.80e-03,
7,6.40e-01,8.80e-03,
8,6.40e-01,6.40e-03,
9,6.40e-01,8.00e-03,
10,6.40e-01,8.00e-03,
11,6.40e-01,1.04e-02,
12,6.40e-01,8.00e-03,
13,6.40e-01,6.40e-03,
14,6.40e-01,8.00e-03,
15,6.40e-01,6.40e-03,
16,6.40e-01,8.00e-03,
17,6.40e-01,6.40e-03,
18,6.40e-01,6.40e-03,
19,6.40e-01,8.00e-03,
20,6.40e-01,8.00e-03,
21,6.40e-01,6.40e-03,
22,6.40e-01,6.40e-03,
23,6.40e-01,6.40e-03,
24,6.40e-01,8.80e-03,
25,6.40e-01,6.40e-03,
26,6.40e-01,5.60e-03,
27,6.40e-01,8.80e-03,
28,6.40e-01,8.00e-03,
29,6.40e-01,8.00e-03,
30,6.40e-01,6.40e-03,
31,6.40e-01,8.00e-03,
32,6.40e-01,8.00e-03,
33,6.40e-01,8.00e-03,
34,6.40e-01,8.00e-03,
35,6.40e-01,8.80e-03,
36,6.40e-01,8.00e-03,
37,6.40e-01,6.40e-03,
38,6.40e-01,6.40e-03,
39,6.40e-01,6.40e-03,
40,6.40e-01,6.40e-03,
41,6.40e-01,5.60e-03,
42,6.40e-01,6.40e-03,
43,6.40e-01,5.60e-03,
44,6.40e-01,4.00e-03,
45,6.40e-01,5.60e-03,
46,6.40e-01,5.60e-03,
47,6.40e-01,8.00e-03,
48,6.40e-01,6.40e-03,
49,6.40e-01,8.00e-03,
50,6.40e-01,8.00e-03,
51,6.40e-01,6.40e-03,
52,6.40e-01,6.40e-03,
53,6.40e-01,6.40e-03,
54,6.40e-01,6.40e-03,
55,6.40e-01,5.60e-03,
56,6.40e-01,5.60e-03,
57,6.40e-01,5.60e-03,
58,6.40e-01,6.40e-03,
59,6.40e-01,6.40e-03,
60,6.40e-01,8.00e-03,
61,6.40e-01,8.00e-03,
62,6.40e-01,5.60e-03,
63,6.40e-01,5.60e-03,
64,6.40e-01,5.60e-03,
65,6.40e-01,6.40e-03,
66,6.40e-01,5.60e-03,
67,6.40e-01,5.60e-03,
68,6.40e-01,5.60e-03,
69,6.40e-01,5.60e-03,
70,6.40e-01,5.60e-03,
71,6.40e-01,4.00e-03,
72,5.60e-01,8.00e-03,
73,5.60e-01,5.60e-03,
74,5.60e-01,4.00e-03,
75,5.60e-01,5.60e-03,
76,5.60e-01,5.60e-03,
77,5.60e-01,5.60e-03,
78,5.60e-01,5.60e-03,
79,5.60e-01,4.00e-03,
80,5.60e-01,5.60e-03,
81,5.60e-01,4.00e-03,
82,5.60e-01,5.60e-03,
83,5.60e-01,6.40e-03,
84,5.60e-01,5.60e-03,
85,5.60e-01,4.00e-03,
86,5.60e-01,6.40e-03,
87,5.60e-01,5.60e-03,
88,5.60e-01,4.00e-03,
89,5.60e-01,4.00e-03,
90,5.60e-01,4.00e-03,
91,5.60e-01,4.00e-03,
92,5.60e-01,1.60e-03,
93,5.60e-01,4.00e-03,
94,5.60e-01,4.00e-03,
95,5.60e-01,3.20e-03,
96,5.60e-01,4.00e-03,
97,5.60e-01,4.00e-03,
98,5.60e-01,4.00e-03,
99,5.60e-01,3.20e-03,
100,5.60e-01,3.20e-03,
101,5.60e-01,4.00e-03,
102,5.60e-01,6.40e-03,
103,5.60e-01,4.00e-03,
104,5.60e-01,4.00e-03,
105,5.60e-01,4.00e-03,
106,5.60e-01,4.00e-03,
107,5.60e-01,5.60e-03,
108,5.60e-01,4.00e-03,
109,5.60e-01,4.00e-03,
110,5.60e-01,4.00e-03,
111,5.60e-01,4.00e-03,
112,5.60e-01,4.00e-03,
113,5.60e-01,1.60e-03,
114,5.60e-01,4.00e-03,
115,5.60e-01,5.60e-03,
116,5.60e-01,3.20e-03,
117,5.60e-01,1.60e-03,
118,5.60e-01,1.60e-03,
119,5.60e-01,4.00e-03,
120,5.60e-01,3.20e-03,
121,5.60e-01,1.60e-03,
122,5.60e-01,1.60e-03,
123,5.60e-01,3.20e-03,
124,5.60e-01,3.20e-03,
125,5.60e-01,4.00e-03,
126,5.60e-01,3.20e-03,
127,5.60e-01,1.60e-03,
128,5.60e-01,4.00e-03,
129,5.60e-01,3.20e-03,
130,5.60e-01,1.60e-03,
131,5.60e-01,1.60e-03,
132,5.60e-01,3.20e-03,
133,5.60e-01,4.00e-03,
134,5.60e-01,3.20e-03,
135,5.60e-01,3.20e-03,
136,5.60e-01,1.60e-03,
137,5.60e-01,4.00e-03,
138,5.60e-01,4.00e-03,
139,5.60e-01,1.60e-03,
140,5.60e-01,4.00e-03,
141,5.60e-01,3.20e-03,
142,5.60e-01,4.00e-03,
143,5.60e-01,3.20e-03,
144,5.60e-01,1.60e-03,
145,5.60e-01,3.20e-03,
146,5.60e-01,3.20e-03,
147,5.60e-01,1.60e-03,
148,5.60e-01,3.20e-03,
149,5.60e-01,1.60e-03,
150,5.60e-01,3.20e-03,
151,5.60e-01,4.00e-03,
152,5.60e-01,1.60e-03,
153,5.60e-01,3.20e-03,
154,5.60e-01,1.60e-03,
155,5.60e-01,3.20e-03,
156,4.00e-01,3.20e-03,
157,5.60e-01,8.00e-04,
158,5.60e-01,3.20e-03,
159,5.60e-01,1.60e-03,
160,5.60e-01,1.60e-03,
161,4.00e-01,8.00e-04,
162,4.00e-01,1.60e-03,
163,4.00e-01,3.20e-03,
164,4.00e-01,3.20e-03,
165,4.00e-01,3.20e-03,
166,4.00e-01,4.00e-03,
167,4.00e-01,4.00e-03,
168,4.00e-01,1.60e-03,
169,4.00e-01,1.60e-03,
170,4.00e-01,1.60e-03,
171,4.00e-01,1.60e-03,
172,4.00e-01,3.20e-03,
173,4.00e-01,8.00e-04,
174,4.00e-01,3.20e-03,
175,4.00e-01,3.20e-03,
176,4.00e-01,1.60e-03,
177,4.00e-01,3.20e-03,
178,4.00e-01,1.60e-03,
179,4.00e-01,3.20e-03,
180,4.00e-01,3.20e-03,
181,4.00e-01,-8.00e-04,
182,4.00e-01,8.00e-04,
183,4.00e-01,8.00e-04,
184,4.00e-01,1.60e-03,
185,4.00e-01,-8.00e-04,
186,4.00e-01,8.00e-04,
187,4.00e-01,1.60e-03,
188,4.00e-01,8.00e-04,
189,4.00e-01,8.00e-04,
190,4.00e-01,1.60e-03,
191,4.00e-01,4.00e-03,
192,4.00e-01,8.00e-04,
193,4.00e-01,1.60e-03,
194,4.00e-01,1.60e-03,
195,4.00e-01,8.00e-04,
196,4.00e-01,8.00e-04,
197,4.00e-01,1.60e-03,
198,4.00e-01,3.20e-03,
199,4.00e-01,8.00e-04,
200,4.00e-01,8.00e-04,
201,4.00e-01,8.00e-04,
202,4.00e-01,8.00e-04,
203,4.00e-01,8.00e-04,
204,4.00e-01,-8.00e-04,
205,4.00e-01,3.20e-03,
206,4.00e-01,8.00e-04,
207,4.00e-01,-8.00e-04,
208,4.00e-01,1.60e-03,
209,4.00e-01,8.00e-04,
210,4.00e-01,8.00e-04,
211,4.00e-01,-8.00e-04,
212,4.00e-01,1.60e-03,
213,4.00e-01,1.60e-03,
214,4.00e-01,8.00e-04,
215,4.00e-01,-8.00e-04,
216,4.00e-01,1.60e-03,
217,4.00e-01,1.60e-03,
218,4.00e-01,-8.00e-04,
219,4.00e-01,8.00e-04,
220,4.00e-01,8.00e-04,
221,4.00e-01,1.60e-03,
222,4.00e-01,-8.00e-04,
223,4.00e-01,1.60e-03,
224,4.00e-01,3.20e-03,
225,4.00e-01,-8.00e-04,
226,4.00e-01,8.00e-04,
227,4.00e-01,8.00e-04,
228,4.00e-01,8.00e-04,
229,4.00e-01,-1.60e-03,
230,4.00e-01,-8.00e-04,
231,4.00e-01,8.00e-04,
232,4.00e-01,-8.00e-04,
233,4.00e-01,-8.00e-04,
234,4.00e-01,-8.00e-04,
235,4.00e-01,8.00e-04,
236,4.00e-01,-1.60e-03,
237,4.00e-01,-8.00e-04,
238,4.00e-01,-8.00e-04,
239,4.00e-01,8.00e-04,
240,4.00e-01,-1.60e-03,
241,4.00e-01,-2.40e-03,
242,4.00e-01,-8.00e-04,
243,3.20e-01,8.00e-04,
244,4.00e-01,-1.60e-03,
245,4.00e-01,-8.00e-04,
246,4.00e-01,-8.00e-04,
247,4.00e-01,8.00e-04,
248,3.20e-01,-2.40e-03,
249,3.20e-01,-1.60e-03,
250,3.20e-01,-1.60e-03,
251,3.20e-01,-1.60e-03,
252,3.20e-01,-8.00e-04,
253,3.20e-01,-1.60e-03,
254,3.20e-01,-8.00e-04,
255,3.20e-01,-8.00e-04,
256,3.20e-01,8.00e-04,
257,3.20e-01,-1.60e-03,
258,3.20e-01,8.00e-04,
259,3.20e-01,8.00e-04,
260,3.20e-01,-1.60e-03,
261,3.20e-01,-1.60e-03,
262,3.20e-01,-1.60e-03,
263,3.20e-01,-2.40e-03,
264,3.20e-01,-2.40e-03,
265,3.20e-01,-1.60e-03,
266,3.20e-01,-8.00e-04,
267,3.20e-01,-2.40e-03,
268,3.20e-01,-1.60e-03,
269,3.20e-01,-1.60e-03,
270,3.20e-01,-8.00e-04,
271,3.20e-01,-2.40e-03,
272,3.20e-01,-1.60e-03,
273,3.20e-01,-2.40e-03,
274,3.20e-01,-1.60e-03,
275,3.20e-01,-2.40e-03,
276,3.20e-01,-2.40e-03,
277,3.20e-01,-1.60e-03,
278,3.20e-01,-1.60e-03,
279,3.20e-01,-1.60e-03,
280,3.20e-01,-4.00e-03,
281,3.20e-01,-8.00e-04,
282,3.20e-01,-1.60e-03,
283,3.20e-01,-4.00e-03,
284,3.20e-01,-8.00e-04,
285,3.20e-01,-1.60e-03,
286,3.20e-01,-2.40e-03,
287,3.20e-01,-2.40e-03,
288,3.20e-01,-1.60e-03,
289,3.20e-01,-2.40e-03,
290,3.20e-01,-4.00e-03,
291,3.20e-01,-2.40e-03,
292,3.20e-01,-2.40e-03,
293,3.20e-01,-2.40e-03,
294,3.20e-01,-4.00e-03,
295,3.20e-01,-4.00e-03,
296,3.20e-01,-2.40e-03,
297,3.20e-01,-2.40e-03,
298,3.20e-01,-1.60e-03,
299,3.20e-01,-2.40e-03,
300,3.20e-01,-1.60e-03,
301,3.20e-01,-1.60e-03,
302,3.20e-01,-4.80e-03,
303,3.20e-01,-1.60e-03,
304,3.20e-01,-2.40e-03,
305,3.20e-01,-4.00e-03,
306,3.20e-01,-4.00e-03,
307,3.20e-01,-1.60e-03,
308,3.20e-01,-4.00e-03,
309,3.20e-01,-4.80e-03,
310,3.20e-01,-4.00e-03,
311,3.20e-01,-2.40e-03,
312,3.20e-01,-4.00e-03,
313,3.20e-01,-6.40e-03,
314,3.20e-01,-2.40e-03,
315,3.20e-01,-4.00e-03,
316,3.20e-01,-4.80e-03,
317,3.20e-01,-4.00e-03,
318,3.20e-01,-4.00e-03,
319,3.20e-01,-2.40e-03,
320,3.20e-01,-4.00e-03,
321,3.20e-01,-4.00e-03,
322,3.20e-01,-1.60e-03,
323,3.20e-01,-2.40e-03,
324,3.20e-01,-4.00e-03,
325,3.20e-01,-4.00e-03,
326,3.20e-01,-2.40e-03,
327,3.20e-01,-4.00e-03,
328,3.20e-01,-4.80e-03,
329,1.60e-01,-2.40e-03,
330,1.60e-01,-4.00e-03,
331,1.60e-01,-2.40e-03,
332,1.60e-01,-4.00e-03,
333,1.60e-01,-2.40e-03,
334,1.60e-01,-4.80e-03,
335,1.60e-01,-4.00e-03,
336,1.60e-01,-4.80e-03,
337,1.60e-01,-4.80e-03,
338,1.60e-01,-2.40e-03,
339,1.60e-01,-4.00e-03,
340,1.60e-01,-4.00e-03,
341,1.60e-01,-4.00e-03,
342,1.60e-01,-4.00e-03,
343,1.60e-01,-4.80e-03,
344,1.60e-01,-4.80e-03,
345,1.60e-01,-4.00e-03,
346,1.60e-01,-4.00e-03,
347,1.60e-01,-4.80e-03,
348,1.60e-01,-6.40e-03,
349,1.60e-01,-4.00e-03,
350,1.60e-01,-6.40e-03,
351,1.60e-01,-6.40e-03,
352,1.60e-01,-4.80e-03,
353,1.60e-01,-6.40e-03,
354,1.60e-01,-6.40e-03,
355,1.60e-01,-7.20e-03,
356,1.60e-01,-4.80e-03,
357,1.60e-01,-4.80e-03,
358,1.60e-01,-7.20e-03,
359,1.60e-01,-4.80e-03,
360,1.60e-01,-4.80e-03,
361,1.60e-01,-4.80e-03,
362,1.60e-01,-6.40e-03,
363,1.60e-01,-4.80e-03,
364,1.60e-01,-2.40e-03,
365,1.60e-01,-4.80e-03,
366,1.60e-01,-4.80e-03,
367,1.60e-01,-4.80e-03,
368,1.60e-01,-4.80e-03,
369,1.60e-01,-6.40e-03,
370,1.60e-01,-4.80e-03,
371,1.60e-01,-4.00e-03,
372,1.60e-01,-6.40e-03,
373,1.60e-01,-6.40e-03,
374,1.60e-01,-4.80e-03,
375,1.60e-01,-4.80e-03,
376,1.60e-01,-7.20e-03,
377,1.60e-01,-6.40e-03,
378,1.60e-01,-4.80e-03,
379,1.60e-01,-7.20e-03,
380,1.60e-01,-6.40e-03,
381,1.60e-01,-8.80e-03,
382,1.60e-01,-4.80e-03,
383,1.60e-01,-6.40e-03,
384,1.60e-01,-7.20e-03,
385,1.60e-01,-4.80e-03,
386,1.60e-01,-6.40e-03,
387,1.60e-01,-6.40e-03,
388,1.60e-01,-6.40e-03,
389,1.60e-01,-4.80e-03,
390,1.60e-01,-4.80e-03,
391,1.60e-01,-7.20e-03,
392,1.60e-01,-6.40e-03,
393,1.60e-01,-7.20e-03,
394,1.60e-01,-6.40e-03,
395,1.60e-01,-6.40e-03,
396,1.60e-01,-7.20e-03,
397,1.60e-01,-4.80e-03,
398,1.60e-01,-6.40e-03,
399,1.60e-01,-6.40e-03,
400,1.60e-01,-7.20e-03,
401,1.60e-01,-6.40e-03,
402,1.60e-01,-4.80e-03,
403,1.60e-01,-7.20e-03,
404,1.60e-01,-6.40e-03,
405,1.60e-01,-4.00e-03,
406,1.60e-01,-7.20e-03,
407,1.60e-01,-8.80e-03,
408,1.60e-01,-8.80e-03,
409,1.60e-01,-7.20e-03,
410,1.60e-01,-8.80e-03,
411,1.60e-01,-8.80e-03,
412,1.60e-01,-8.80e-03,
413,1.60e-01,-7.20e-03,
414,1.60e-01,-8.80e-03,
415,1.60e-01,-7.20e-03,
416,1.60e-01,-4.80e-03,
417,8.00e-02,-6.40e-03,
418,8.00e-02,-7.20e-03,
419,8.00e-02,-6.40e-03,
420,1.60e-01,-8.80e-03,
421,8.00e-02,-8.80e-03,
422,8.00e-02,-8.80e-03,
423,8.00e-02,-4.80e-03,
424,8.00e-02,-7.20e-03,
425,8.00e-02,-8.80e-03,
426,8.00e-02,-7.20e-03,
427,8.00e-02,-8.80e-03,
428,8.00e-02,-7.20e-03,
429,8.00e-02,-8.80e-03,
430,8.00e-02,-7.20e-03,
431,8.00e-02,-8.80e-03,
432,8.00e-02,-9.60e-03,
433,8.00e-02,-7.20e-03,
434,8.00e-02,-7.20e-03,
435,8.00e-02,-7.20e-03,
436,8.00e-02,-8.80e-03,
437,8.00e-02,-8.80e-03,
438,8.00e-02,-7.20e-03,
439,8.00e-02,-1.12e-02,
440,8.00e-02,-9.60e-03,
441,8.00e-02,-7.20e-03,
442,8.00e-02,-9.60e-03,
443,8.00e-02,-9.60e-03,
444,8.00e-02,-9.60e-03,
445,8.00e-02,-7.20e-03,
446,8.00e-02,-8.80e-03,
447,8.00e-02,-9.60e-03,
448,8.00e-02,-7.20e-03,
449,8.00e-02,-7.20e-03,
450,8.00e-02,-8.80e-03,
451,8.00e-02,-1.20e-02,
452,8.00e-02,-8.80e-03,
453,8.00e-02,-8.80e-03,
454,8.00e-02,-9.60e-03,
455,8.00e-02,-7.20e-03,
456,8.00e-02,-7.20e-03,
457,8.00e-02,-8.80e-03,
458,8.00e-02,-9.60e-03,
459,8.00e-02,-8.80e-03,
460,8.00e-02,-9.60e-03,
461,8.00e-02,-9.60e-03,
462,8.00e-02,-8.80e-03,
463,8.00e-02,-8.80e-03,
464,8.00e-02,-8.80e-03,
465,8.00e-02,-9.60e-03,
466,8.00e-02,-9.60e-03,
467,8.00e-02,-8.80e-03,
468,8.00e-02,-9.60e-03,
469,8.00e-02,-9.60e-03,
470,8.00e-02,-9.60e-03,
471,8.00e-02,-9.60e-03,
472,8.00e-02,-1.12e-02,
473,8.00e-02,-1.12e-02,
474,8.00e-02,-6.40e-03,
475,8.00e-02,-1.12e-02,
476,8.00e-02,-9.60e-03,
477,8.00e-02,-9.60e-03,
478,8.00e-02,-8.80e-03,
479,8.00e-02,-9.60e-03,
480,8.00e-02,-9.60e-03,
481,8.00e-02,-8.80e-03,
482,8.00e-02,-9.60e-03,
483,8.00e-02,-1.12e-02,
484,8.00e-02,-9.60e-03,
485,8.00e-02,-1.12e-02,
486,8.00e-02,-1.12e-02,
487,8.00e-02,-1.12e-02,
488,8.00e-02,-9.60e-03,
489,8.00e-02,-1.12e-02,
490,8.00e-02,-1.12e-02,
491,8.00e-02,-1.12e-02,
492,8.00e-02,-9.60e-03,
493,8.00e-02,-9.60e-03,
494,8.00e-02,-1.12e-02,
495,8.00e-02,-9.60e-03,
496,8.00e-02,-9.60e-03,
497,8.00e-02,-1.20e-02,
498,8.00e-02,-1.20e-02,
499,8.00e-02,-1.12e-02,
500,8.00e-02,-1.12e-02,
501,-8.00e-02,-1.20e-02,
502,-8.00e-02,-1.12e-02,
503,-8.00e-02,-1.20e-02,
504,-8.00e-02,-1.12e-02,
505,-8.00e-02,-1.12e-02,
506,-8.00e-02,-1.20e-02,
507,-8.00e-02,-9.60e-03,
508,-8.00e-02,-1.12e-02,
509,-8.00e-02,-1.20e-02,
510,-8.00e-02,-1.12e-02,
511,-8.00e-02,-1.20e-02,
512,-8.00e-02,-1.12e-02,
513,-8.00e-02,-1.20e-02,
514,-8.00e-02,-9.60e-03,
515,-8.00e-02,-9.60e-03,
516,-8.00e-02,-1.20e-02,
517,-8.00e-02,-1.20e-02,
518,-8.00e-02,-1.12e-02,
519,-8.00e-02,-9.60e-03,
520,-8.00e-02,-1.20e-02,
521,-8.00e-02,-1.12e-02,
522,-8.00e-02,-1.20e-02,
523,-8.00e-02,-1.20e-02,
524,-8.00e-02,-1.20e-02,
525,-8.00e-02,-1.20e-02,
526,-8.00e-02,-1.12e-02,
527,-8.00e-02,-1.20e-02,
528,-8.00e-02,-1.12e-02,
529,-8.00e-02,-1.12e-02,
530,-8.00e-02,-1.36e-02,
531,-8.00e-02,-1.20e-02,
532,-8.00e-02,-1.36e-02,
533,-8.00e-02,-1.20e-02,
534,-8.00e-02,-1.20e-02,
535,-8.00e-02,-1.12e-02,
536,-8.00e-02,-1.20e-02,
537,-8.00e-02,-1.20e-02,
538,-8.00e-02,-1.20e-02,
539,-8.00e-02,-1.20e-02,
540,-8.00e-02,-1.20e-02,
541,-8.00e-02,-1.20e-02,
542,-8.00e-02,-1.20e-02,
543,-8.00e-02,-1.36e-02,
544,-8.00e-02,-1.20e-02,
545,-8.00e-02,-1.36e-02,
546,-8.00e-02,-1.20e-02,
547,-8.00e-02,-1.12e-02,
548,-8.00e-02,-1.36e-02,
549,-8.00e-02,-1.20e-02,
550,-8.00e-02,-1.36e-02,
551,-8.00e-02,-1.36e-02,
552,-8.00e-02,-1.44e-02,
553,-8.00e-02,-1.36e-02,
554,-8.00e-02,-1.36e-02,
555,-8.00e-02,-1.36e-02,
556,-8.00e-02,-1.36e-02,
557,-8.00e-02,-1.36e-02,
558,-8.00e-02,-1.20e-02,
559,-8.00e-02,-1.44e-02,
560,-8.00e-02,-1.20e-02,
561,-8.00e-02,-1.12e-02,
562,-8.00e-02,-1.36e-02,
563,-8.00e-02,-1.20e-02,
564,-8.00e-02,-1.20e-02,
565,-8.00e-02,-1.36e-02,
566,-8.00e-02,-1.36e-02,
567,-8.00e-02,-1.44e-02,
568,-8.00e-02,-1.36e-02,
569,-8.00e-02,-1.36e-02,
570,-8.00e-02,-1.44e-02,
571,-8.00e-02,-1.44e-02,
572,-8.00e-02,-1.36e-02,
573,-8.00e-02,-1.36e-02,
574,-8.00e-02,-1.20e-02,
575,-8.00e-02,-1.36e-02,
576,-8.00e-02,-1.20e-02,
577,-8.00e-02,-1.36e-02,
578,-8.00e-02,-1.60e-02,
579,-8.00e-02,-1.20e-02,
580,-8.00e-02,-1.44e-02,
581,-1.60e-01,-1.44e-02,
582,-8.00e-02,-1.44e-02,
583,-8.00e-02,-1.36e-02,
584,-1.60e-01,-1.60e-02,
585,-1.60e-01,-1.44e-02,
586,-8.00e-02,-1.36e-02,
587,-8.00e-02,-1.20e-02,
588,-1.60e-01,-1.20e-02,
589,-1.60e-01,-1.60e-02,
590,-1.60e-01,-1.36e-02,
591,-1.60e-01,-1.36e-02,
592,-1.60e-01,-1.60e-02,
593,-1.60e-01,-1.44e-02,
594,-1.60e-01,-1.36e-02,
595,-1.60e-01,-1.44e-02,
596,-1.60e-01,-1.60e-02,
597,-1.60e-01,-1.44e-02,
598,-1.60e-01,-1.44e-02,
599,-1.60e-01,-1.36e-02,
600,-1.60e-01,-1.44e-02,
601,-1.60e-01,-1.36e-02,
602,-1.60e-01,-1.36e-02,
603,-1.60e-01,-1.60e-02,
604,-1.60e-01,-1.60e-02,
605,-1.60e-01,-1.60e-02,
606,-1.60e-01,-1.60e-02,
607,-1.60e-01,-1.60e-02,
608,-1.60e-01,-1.60e-02,
609,-1.60e-01,-1.44e-02,
610,-1.60e-01,-1.44e-02,
611,-1.60e-01,-1.60e-02,
612,-1.60e-01,-1.44e-02,
613,-1.60e-01,-1.36e-02,
614,-1.60e-01,-1.60e-02,
615,-1.60e-01,-1.36e-02,
616,-1.60e-01,-1.44e-02,
617,-1.60e-01,-1.60e-02,
618,-1.60e-01,-1.68e-02,
619,-1.60e-01,-1.60e-02,
620,-1.60e-01,-1.60e-02,
621,-1.60e-01,-1.60e-02,
622,-1.60e-01,-1.60e-02,
623,-1.60e-01,-1.44e-02,
624,-1.60e-01,-1.36e-02,
625,-1.60e-01,-1.60e-02,
626,-1.60e-01,-1.44e-02,
627,-1.60e-01,-1.44e-02,
628,-1.60e-01,-1.60e-02,
629,-1.60e-01,-1.60e-02,
630,-1.60e-01,-1.44e-02,
631,-1.60e-01,-1.60e-02,
632,-1.60e-01,-1.68e-02,
633,-1.60e-01,-1.36e-02,
634,-1.60e-01,-1.60e-02,
635,-1.60e-01,-1.68e-02,
636,-1.60e-01,-1.68e-02,
637,-1.60e-01,-1.60e-02,
638,-1.60e-01,-1.68e-02,
639,-1.60e-01,-1.68e-02,
640,-1.60e-01,-1.60e-02,
641,-1.60e-01,-1.60e-02,
642,-1.60e-01,-1.60e-02,
643,-1.60e-01,-1.60e-02,
644,-1.60e-01,-1.44e-02,
645,-1.60e-01,-1.84e-02,
646,-1.60e-01,-1.68e-02,
647,-1.60e-01,-1.36e-02,
648,-1.60e-01,-1.68e-02,
649,-1.60e-01,-1.68e-02,
650,-1.60e-01,-1.68e-02,
651,-1.60e-01,-1.60e-02,
652,-1.60e-01,-1.68e-02,
653,-1.60e-01,-1.60e-02,
654,-1.60e-01,-1.60e-02,
655,-1.60e-01,-1.44e-02,
656,-1.60e-01,-1.68e-02,
657,-1.60e-01,-1.84e-02,
658,-1.60e-01,-1.60e-02,
659,-1.60e-01,-1.68e-02,
660,-1.60e-01,-1.84e-02,
661,-1.60e-01,-1.60e-02,
662,-1.60e-01,-1.60e-02,
663,-1.60e-01,-1.84e-02,
664,-1.60e-01,-1.68e-02,
665,-3.20e-01,-1.68e-02,
666,-3.20e-01,-1.84e-02,
667,-1.60e-01,-1.68e-02,
668,-1.60e-01,-1.84e-02,
669,-3.20e-01,-1.68e-02,
670,-3.20e-01,-1.60e-02,
671,-1.60e-01,-1.84e-02,
672,-3.20e-01,-1.68e-02,
673,-3.20e-01,-1.68e-02,
674,-3.20e-01,-1.84e-02,
675,-3.20e-01,-1.68e-02,
676,-3.20e-01,-1.68e-02,
677,-3.20e-01,-1.84e-02,
678,-3.20e-01,-1.84e-02,
679,-3.20e-01,-1.68e-02,
680,-3.20e-01,-1.60e-02,
681,-3.20e-01,-1.84e-02,
682,-3.20e-01,-1.68e-02,
683,-3.20e-01,-1.44e-02,
684,-3.20e-01,-1.84e-02,
685,-3.20e-01,-1.68e-02,
686,-3.20e-01,-1.92e-02,
687,-3.20e-01,-1.68e-02,
688,-3.20e-01,-1.92e-02,
689,-3.20e-01,-2.08e-02,
690,-3.20e-01,-1.84e-02,
691,-3.20e-01,-1.92e-02,
692,-3.20e-01,-1.92e-02,
693,-3.20e-01,-1.84e-02,
694,-3.20e-01,-1.60e-02,
695,-3.20e-01,-1.68e-02,
696,-3.20e-01,-1.84e-02,
697,-3.20e-01,-1.84e-02,
698,-3.20e-01,-1.68e-02,
699,-3.20e-01,-1.84e-02,
700,-3.20e-01,-2.08e-02,
701,-3.20e-01,-1.84e-02,
702,-3.20e-01,-1.84e-02,
703,-3.20e-01,-1.92e-02,
704,-3.20e-01,-1.84e-02,
705,-3.20e-01,-1.92e-02,
706,-3.20e-01,-1.84e-02,
707,-3.20e-01,-1.92e-02,
708,-3.20e-01,-1.92e-02,
709,-3.20e-01,-1.84e-02,
710,-3.20e-01,-1.68e-02,
711,-3.20e-01,-1.84e-02,
712,-3.20e-01,-1.92e-02,
713,-3.20e-01,-1.92e-02,
714,-3.20e-01,-1.92e-02,
715,-3.20e-01,-1.68e-02,
716,-3.20e-01,-1.92e-02,
717,-3.20e-01,-1.92e-02,
718,-3.20e-01,-1.84e-02,
719,-3.20e-01,-1.92e-02,
720,-3.20e-01,-1.92e-02,
721,-3.20e-01,-2.08e-02,
722,-3.20e-01,-1.84e-02,
723,-3.20e-01,-1.84e-02,
724,-3.20e-01,-1.84e-02,
725,-3.20e-01,-2.08e-02,
726,-3.20e-01,-1.92e-02,
727,-3.20e-01,-2.08e-02,
728,-3.20e-01,-1.92e-02,
729,-3.20e-01,-1.92e-02,
730,-3.20e-01,-2.08e-02,
731,-3.20e-01,-1.84e-02,
732,-3.20e-01,-2.08e-02,
733,-3.20e-01,-2.16e-02,
734,-3.20e-01,-1.92e-02,
735,-3.20e-01,-2.08e-02,
736,-3.20e-01,-2.08e-02,
737,-3.20e-01,-1.92e-02,
738,-3.20e-01,-1.84e-02,
739,-3.20e-01,-1.92e-02,
740,-3.20e-01,-2.08e-02,
741,-3.20e-01,-1.92e-02,
742,-3.20e-01,-1.92e-02,
743,-3.20e-01,-2.08e-02,
744,-3.20e-01,-2.08e-02,
745,-3.20e-01,-1.92e-02,
746,-3.20e-01,-2.16e-02,
747,-3.20e-01,-2.16e-02,
748,-3.20e-01,-2.16e-02,
749,-3.20e-01,-2.16e-02,
750,-3.20e-01,-1.92e-02,
751,-3.20e-01,-2.32e-02,
752,-3.20e-01,-2.08e-02,
753,-3.20e-01,-2.08e-02,
754,-3.20e-01,-2.08e-02,
755,-3.20e-01,-2.08e-02,
756,-4.00e-01,-2.16e-02,
757,-3.20e-01,-1.92e-02,
758,-4.00e-01,-2.08e-02,
759,-4.00e-01,-2.16e-02,
760,-4.00e-01,-2.16e-02,
761,-4.00e-01,-2.08e-02,
762,-4.00e-01,-2.08e-02,
763,-4.00e-01,-2.16e-02,
764,-4.00e-01,-1.84e-02,
765,-4.00e-01,-1.92e-02,
766,-4.00e-01,-1.92e-02,
767,-4.00e-01,-1.92e-02,
768,-4.00e-01,-2.08e-02,
769,-4.00e-01,-2.08e-02,
770,-4.00e-01,-1.92e-02,
771,-4.00e-01,-2.08e-02,
772,-4.00e-01,-2.08e-02,
773,-4.00e-01,-2.16e-02,
774,-4.00e-01,-2.16e-02,
775,-4.00e-01,-2.08e-02,
776,-4.00e-01,-2.16e-02,
777,-4.00e-01,-2.32e-02,
778,-4.00e-01,-2.08e-02,
779,-4.00e-01,-2.08e-02,
780,-4.00e-01,-2.32e-02,
781,-4.00e-01,-2.16e-02,
782,-4.00e-01,-2.16e-02,
783,-4.00e-01,-2.32e-02,
784,-4.00e-01,-2.40e-02,
785,-4.00e-01,-2.40e-02,
786,-4.00e-01,-1.92e-02,
787,-4.00e-01,-2.16e-02,
788,-4.00e-01,-2.16e-02,
789,-4.00e-01,-1.92e-02,
790,-4.00e-01,-2.08e-02,
791,-4.00e-01,-2.16e-02,
792,-4.00e-01,-2.32e-02,
793,-4.00e-01,-2.16e-02,
794,-4.00e-01,-2.16e-02,
795,-4.00e-01,-2.32e-02,
796,-4.00e-01,-2.32e-02,
797,-4.00e-01,-1.92e-02,
798,-4.00e-01,-2.16e-02,
799,-4.00e-01,-2.40e-02,
800,-4.00e-01,-2.16e-02,
801,-4.00e-01,-2.16e-02,
802,-4.00e-01,-2.16e-02,
803,-4.00e-01,-2.16e-02,
804,-4.00e-01,-2.32e-02,
805,-4.00e-01,-2.16e-02,
806,-4.00e-01,-2.16e-02,
807,-4.00e-01,-2.32e-02,
808,-4.00e-01,-2.16e-02,
809,-4.00e-01,-2.16e-02,
810,-4.00e-01,-2.16e-02,
811,-4.00e-01,-2.32e-02,
812,-4.00e-01,-2.32e-02,
813,-4.00e-01,-2.32e-02,
814,-4.00e-01,-2.40e-02,
815,-4.00e-01,-2.32e-02,
816,-4.00e-01,-2.56e-02,
817,-4.00e-01,-2.32e-02,
818,-4.00e-01,-2.16e-02,
819,-4.00e-01,-2.32e-02,
820,-4.00e-01,-2.08e-02,
821,-4.00e-01,-2.32e-02,
822,-4.00e-01,-2.16e-02,
823,-4.00e-01,-2.32e-02,
824,-4.00e-01,-2.32e-02,
825,-4.00e-01,-2.16e-02,
826,-4.00e-01,-2.40e-02,
827,-4.00e-01,-2.40e-02,
828,-4.00e-01,-2.32e-02,
829,-4.00e-01,-2.40e-02,
