data/vertical/measurement3.csv

X,CH1,CH2,Start,Increment,
Sequence,Volt,Volt,-1.156000e-02,8.000000e-07
0,8.80e-01,8.00e-03,
1,8.80e-01,1.04e-02,
2,8.80e-01,1.12e-02,
3,8.80e-01,1.12e-02,
4,8.80e-01,1.04e-02,
5,8.80e-01,8.80e-03,
6,8.80e-01,1.12e-02,
7,8.00e-01,1.04e-02,
8,8.00e-01,8.80e-03,
9,8.00e-01,8.80e-03,
10,8.80e-01,1.12e-02,
11,8.00e-01,1.04e-02,
12,8.80e-01,8.80e-03,
13,8.00e-01,1.04e-02,
14,8.00e-01,8.80e-03,
15,8.00e-01,1.04e-02,
16,8.00e-01,8.80e-03,
17,8.00e-01,1.04e-02,
18,8.00e-01,8.80e-03,
19,8.00e-01,8.80e-03,
20,8.00e-01,8.80e-03,
21,8.00e-01,8.80e-03,
22,8.00e-01,1.04e-02,
23,8.00e-01,8.80e-03,
24,8.00e-01,8.00e-03,
25,8.00e-01,8.80e-03,
26,8.00e-01,1.04e-02,
27,8.00e-01,1.12e-02,
28,8.00e-01,1.04e-02,
29,8.00e-01,1.04e-02,
30,8.00e-01,8.80e-03,
31,8.00e-01,8.00e-03,
32,8.00e-01,1.04e-02,
33,8.00e-01,1.04e-02,
34,8.00e-01,1.04e-02,
35,8.00e-01,8.80e-03,
36,8.00e-01,8.80e-03,
37,8.00e-01,8.00e-03,
38,8.00e-01,8.80e-03,
39,8.00e-01,8.80e-03,
40,8.00e-01,8.80e-03,
41,8.00e-01,8.80e-03,
42,8.00e-01,8.80e-03,
43,8.00e-01,8.00e-03,
44,8.00e-01,6.40e-03,
45,8.00e-01,8.80e-03,
46,8.00e-01,8.80e-03,
47,8.00e-01,8.80e-03,
48,8.00e-01,8.80e-03,
49,8.00e-01,8.00e-03,
50,8.00e-01,8.00e-03,
51,8.00e-01,8.00e-03,
52,8.00e-01,8.00e-03,
53,8.00e-01,8.80e-03,
54,8.00e-01,8.80e-03,
55,8.00e-01,8.00e-03,
56,8.00e-01,6.40e-03,
57,8.00e-01,8.00e-03,
58,8.00e-01,8.00e-03,
59,8.00e-01,8.00e-03,
60,8.00e-01,8.80e-03,
61,8.00e-01,8.00e-03,
62,8.00e-01,6.40e-03,
63,8.00e-01,6.40e-03,
64,8.00e-01,8.00e-03,
65,8.00e-01,8.00e-03,
66,8.00e-01,6.40e-03,
67,8.00e-01,8.00e-03,
68,8.00e-01,6.40e-03,
69,8.00e-01,6.40e-03,
70,8.00e-01,6.40e-03,
71,8.00e-01,8.00e-03,
72,8.00e-01,8.00e-03,
73,8.00e-01,8.00e-03,
74,8.00e-01,6.40e-03,
75,8.00e-01,6.40e-03,
76,8.00e-01,8.00e-03,
77,8.00e-01,8.00e-03,
78,8.00e-01,8.00e-03,
79,8.00e-01,8.00e-03,
80,8.00e-01,6.40e-03,
81,8.00e-01,6.40e-03,
82,6.40e-01,6.40e-03,
83,6.40e-01,8.00e-03,
84,6.40e-01,6.40e-03,
85,6.40e-01,8.00e-03,
86,6.40e-01,8.00e-03,
87,6.40e-01,5.60e-03,
88,6.40e-01,6.40e-03,
89,6.40e-01,6.40e-03,
90,6.40e-01,6.40e-03,
91,6.40e-01,8.00e-03,
92,6.40e-01,6.40e-03,
93,6.40e-01,5.60e-03,
94,6.40e-01,6.40e-03,
95,6.40e-01,6.40e-03,
96,6.40e-01,6.40e-03,
97,6.40e-01,6.40e-03,
98,6.40e-01,8.00e-03,
99,6.40e-01,5.60e-03,
100,6.40e-01,4.00e-03,
101,6.40e-01,6.40e-03,
102,6.40e-01,6.40e-03,
103,6.40e-01,6.40e-03,
104,6.40e-01,6.40e-03,
105,6.40e-01,5.60e-03,
106,6.40e-01,5.60e-03,
107,6.40e-01,4.00e-03,
108,6.40e-01,5.60e-03,
109,6.40e-01,5.60e-03,
110,6.40e-01,5.60e-03,
111,6.40e-01,5.60e-03,
112,6.40e-01,3.20e-03,
113,6.40e-01,4.00e-03,
114,6.40e-01,5.60e-03,
115,6.40e-01,5.60e-03,
116,6.40e-01,6.40e-03,
117,6.40e-01,4.00e-03,
118,6.40e-01,4.00e-03,
119,6.40e-01,3.20e-03,
120,6.40e-01,3.20e-03,
121,6.40e-01,4.00e-03,
122,6.40e-01,5.60e-03,
123,6.40e-01,6.40e-03,
124,6.40e-01,4.00e-03,
125,6.40e-01,4.00e-03,
126,6.40e-01,5.60e-03,
127,6.40e-01,3.20e-03,
128,6.40e-01,4.00e-03,
129,6.40e-01,5.60e-03,
130,6.40e-01,5.60e-03,
131,6.40e-01,4.00e-03,
132,6.40e-01,3.20e-03,
133,6.40e-01,3.20e-03,
134,6.40e-01,3.20e-03,
135,6.40e-01,4.00e-03,
136,6.40e-01,4.00e-03,
137,6.40e-01,3.20e-03,
138,6.40e-01,3.20e-03,
139,6.40e-01,3.20e-03,
140,6.40e-01,3.20e-03,
141,6.40e-01,3.20e-03,
142,6.40e-01,5.60e-03,
143,6.40e-01,3.20e-03,
144,6.40e-01,1.60e-03,
145,6.40e-01,3.20e-03,
146,6.40e-01,3.20e-03,
147,6.40e-01,3.20e-03,
148,6.40e-01,3.20e-03,
149,6.40e-01,4.00e-03,
150,6.40e-01,1.60e-03,
151,5.60e-01,1.60e-03,
152,5.60e-01,3.20e-03,
153,6.40e-01,3.20e-03,
154,5.60e-01,4.00e-03,
155,5.60e-01,3.20e-03,
156,5.60e-01,3.20e-03,
157,5.60e-01,4.00e-03,
158,5.60e-01,3.20e-03,
159,5.60e-01,3.20e-03,
160,5.60e-01,4.00e-03,
161,5.60e-01,5.60e-03,
162,5.60e-01,3.20e-03,
163,5.60e-01,3.20e-03,
164,5.60e-01,4.00e-03,
165,5.60e-01,3.20e-03,
166,5.60e-01,3.20e-03,
167,5.60e-01,3.20e-03,
168,5.60e-01,4.00e-03,
169,5.60e-01,3.20e-03,
170,5.60e-01,3.20e-03,
171,5.60e-01,8.00e-04,
172,5.60e-01,3.20e-03,
173,5.60e-01,3.20e-03,
174,5.60e-01,1.60e-03,
175,5.60e-01,1.60e-03,
176,5.60e-01,1.60e-03,
177,5.60e-01,1.60e-03,
178,5.60e-01,8.00e-04,
179,5.60e-01,3.20e-03,
180,5.60e-01,3.20e-03,
181,5.60e-01,3.20e-03,
182,5.60e-01,1.60e-03,
183,5.60e-01,1.60e-03,
184,5.60e-01,1.60e-03,
185,5.60e-01,8.00e-04,
186,5.60e-01,3.20e-03,
187,5.60e-01,1.60e-03,
188,5.60e-01,1.60e-03,
189,5.60e-01,1.60e-03,
190,5.60e-01,8.00e-04,
191,5.60e-01,1.60e-03,
192,5.60e-01,1.60e-03,
193,5.60e-01,1.60e-03,
194,5.60e-01,1.60e-03,
195,5.60e-01,8.00e-04,
196,5.60e-01,8.00e-04,
197,5.60e-01,-8.00e-04,
198,5.60e-01,1.60e-03,
199,5.60e-01,8.00e-04,
200,5.60e-01,8.00e-04,
201,5.60e-01,8.00e-04,
202,5.60e-01,8.00e-04,
203,5.60e-01,-8.00e-04,
204,5.60e-01,-8.00e-04,
205,5.60e-01,8.00e-04,
206,5.60e-01,8.00e-04,
207,5.60e-01,8.00e-04,
208,5.60e-01,-8.00e-04,
209,5.60e-01,8.00e-04,
210,5.60e-01,-8.00e-04,
211,5.60e-01,8.00e-04,
212,5.60e-01,8.00e-04,
213,5.60e-01,8.00e-04,
214,5.60e-01,8.00e-04,
215,5.60e-01,-8.00e-04,
216,5.60e-01,-8.00e-04,
217,5.60e-01,8.00e-04,
218,5.60e-01,8.00e-04,
219,5.60e-01,8.00e-04,
220,5.60e-01,8.00e-04,
221,5.60e-01,8.00e-04,
222,5.60e-01,-8.00e-04,
223,4.00e-01,-8.00e-04,
224,4.00e-01,8.00e-04,
225,5.60e-01,8.00e-04,
226,5.60e-01,8.00e-04,
227,4.00e-01,-8.00e-04,
228,5.60e-01,-1.60e-03,
229,4.00e-01,-8.00e-04,
230,4.00e-01,-8.00e-04,
231,4.00e-01,-8.00e-04,
232,4.00e-01,-8.00e-04,
233,4.00e-01,-8.00e-04,
234,4.00e-01,-1.60e-03,
235,4.00e-01,-1.60e-03,
236,4.00e-01,8.00e-04,
237,4.00e-01,8.00e-04,
238,4.00e-01,8.00e-04,
239,4.00e-01,-8.00e-04,
240,4.00e-01,-8.00e-04,
241,4.00e-01,-1.60e-03,
242,4.00e-01,-1.60e-03,
243,4.00e-01,-8.00e-04,
244,4.00e-01,-1.60e-03,
245,4.00e-01,8.00e-04,
246,4.00e-01,-1.60e-03,
247,4.00e-01,-1.60e-03,
248,4.00e-01,-8.00e-04,
249,4.00e-01,8.00e-04,
250,4.00e-01,-8.00e-04,
251,4.00e-01,-1.60e-03,
252,4.00e-01,-8.00e-04,
253,4.00e-01,-1.60e-03,
254,4.00e-01,-2.40e-03,
255,4.00e-01,-8.00e-04,
256,4.00e-01,-8.00e-04,
257,4.00e-01,-8.00e-04,
258,4.00e-01,-1.60e-03,
259,4.00e-01,-2.40e-03,
260,4.00e-01,-1.60e-03,
261,4.00e-01,-1.60e-03,
262,4.00e-01,-1.60e-03,
263,4.00e-01,-1.60e-03,
264,4.00e-01,-8.00e-04,
265,4.00e-01,-2.40e-03,
266,4.00e-01,-4.00e-03,
267,4.00e-01,-2.40e-03,
268,4.00e-01,-2.40e-03,
269,4.00e-01,-2.40e-03,
270,4.00e-01,-2.40e-03,
271,4.00e-01,-2.40e-03,
272,4.00e-01,-4.00e-03,
273,4.00e-01,-2.40e-03,
274,4.00e-01,-1.60e-03,
275,4.00e-01,-2.40e-03,
276,4.00e-01,-1.60e-03,
277,4.00e-01,-2.40e-03,
278,4.00e-01,-4.00e-03,
279,4.00e-01,-4.00e-03,
280,4.00e-01,-2.40e-03,
281,4.00e-01,-1.60e-03,
282,4.00e-01,-2.40e-03,
283,4.00e-01,-2.40e-03,
284,4.00e-01,-2.40e-03,
285,4.00e-01,-2.40e-03,
286,4.00e-01,-4.00e-03,
287,4.00e-01,-2.40e-03,
288,3.20e-01,-1.60e-03,
289,4.00e-01,-4.00e-03,
290,4.00e-01,-4.00e-03,
291,3.20e-01,-4.00e-03,
292,3.20e-01,-1.60e-03,
293,3.20e-01,-4.00e-03,
294,4.00e-01,-4.00e-03,
295,3.20e-01,-2.40e-03,
296,3.20e-01,-2.40e-03,
297,3.20e-01,-4.00e-03,
298,3.20e-01,-4.00e-03,
299,3.20e-01,-2.40e-03,
300,3.20e-01,-2.40e-03,
301,3.20e-01,-4.00e-03,
302,3.20e-01,-4.80e-03,
303,3.20e-01,-4.00e-03,
304,3.20e-01,-4.00e-03,
305,3.20e-01,-4.00e-03,
306,3.20e-01,-2.40e-03,
307,3.20e-01,-4.00e-03,
308,3.20e-01,-4.00e-03,
309,3.20e-01,-4.80e-03,
310,3.20e-01,-4.00e-03,
311,3.20e-01,-2.40e-03,
312,3.20e-01,-2.40e-03,
313,3.20e-01,-4.00e-03,
314,3.20e-01,-4.00e-03,
315,3.20e-01,-4.00e-03,
316,3.20e-01,-4.80e-03,
317,3.20e-01,-4.00e-03,
318,3.20e-01,-2.40e-03,
319,3.20e-01,-4.00e-03,
320,3.20e-01,-4.80e-03,
321,3.20e-01,-4.80e-03,
322,3.20e-01,-4.00e-03,
323,3.20e-01,-4.00e-03,
324,3.20e-01,-2.40e-03,
325,3.20e-01,-4.00e-03,
326,3.20e-01,-4.80e-03,
327,3.20e-01,-4.80e-03,
328,3.20e-01,-4.80e-03,
329,3.20e-01,-4.80e-03,
330,3.20e-01,-4.80e-03,
331,3.20e-01,-4.00e-03,
332,3.20e-01,-4.80e-03,
333,3.20e-01,-6.40e-03,
334,3.20e-01,-6.40e-03,
335,3.20e-01,-4.80e-03,
336,3.20e-01,-4.80e-03,
337,3.20e-01,-4.80e-03,
338,3.20e-01,-4.80e-03,
339,3.20e-01,-6.40e-03,
340,3.20e-01,-4.80e-03,
341,3.20e-01,-6.40e-03,
342,3.20e-01,-4.80e-03,
343,3.20e-01,-4.80e-03,
344,3.20e-01,-6.40e-03,
345,3.20e-01,-6.40e-03,
346,3.20e-01,-4.80e-03,
347,3.20e-01,-6.40e-03,
348,3.20e-01,-6.40e-03,
349,3.20e-01,-4.80e-03,
350,3.20e-01,-6.40e-03,
351,3.20e-01,-7.20e-03,
352,3.20e-01,-4.80e-03,
353,3.20e-01,-4.80e-03,
354,3.20e-01,-6.40e-03,
355,3.20e-01,-7.20e-03,
356,3.20e-01,-7.20e-03,
357,1.60e-01,-6.40e-03,
358,3.20e-01,-7.20e-03,
359,3.20e-01,-6.40e-03,
360,1.60e-01,-4.80e-03,
361,1.60e-01,-6.40e-03,
362,1.60e-01,-8.80e-03,
363,1.60e-01,-8.80e-03,
364,3.20e-01,-6.40e-03,
365,1.60e-01,-6.40e-03,
366,1.60e-01,-6.40e-03,
367,1.60e-01,-4.80e-03,
368,1.60e-01,-6.40e-03,
369,1.60e-01,-7.20e-03,
370,1.60e-01,-7.20e-03,
371,1.60e-01,-4.80e-03,
372,1.60e-01,-6.40e-03,
373,1.60e-01,-6.40e-03,
374,1.60e-01,-7.20e-03,
375,1.60e-01,-7.20e-03,
376,1.60e-01,-7.20e-03,
377,1.60e-01,-7.20e-03,
378,1.60e-01,-6.40e-03,
379,1.60e-01,-7.20e-03,
380,1.60e-01,-6.40e-03,
381,1.60e-01,-7.20e-03,
382,1.60e-01,-7.20e-03,
383,1.60e-01,-4.80e-03,
384,1.60e-01,-7.20e-03,
385,1.60e-01,-7.20e-03,
386,1.60e-01,-7.20e-03,
387,1.60e-01,-7.20e-03,
388,1.60e-01,-7.20e-03,
389,1.60e-01,-8.80e-03,
390,1.60e-01,-7.20e-03,
391,1.60e-01,-8.80e-03,
392,1.60e-01,-7.20e-03,
393,1.60e-01,-7.20e-03,
394,1.60e-01,-7.20e-03,
395,1.60e-01,-7.20e-03,
396,1.60e-01,-7.20e-03,
397,1.60e-01,-8.80e-03,
398,1.60e-01,-8.80e-03,
399,1.60e-01,-7.20e-03,
400,1.60e-01,-8.80e-03,
401,1.60e-01,-7.20e-03,
402,1.60e-01,-8.80e-03,
403,1.60e-01,-8.80e-03,
404,1.60e-01,-9.60e-03,
405,1.60e-01,-8.80e-03,
406,1.60e-01,-8.80e-03,
407,1.60e-01,-8.80e-03,
408,1.60e-01,-7.20e-03,
409,1.60e-01,-8.80e-03,
410,1.60e-01,-8.80e-03,
411,1.60e-01,-9.60e-03,
412,1.60e-01,-7.20e-03,
413,1.60e-01,-8.80e-03,
414,1.60e-01,-9.60e-03,
415,1.60e-01,-9.60e-03,
416,1.60e-01,-9.60e-03,
417,1.60e-01,-9.60e-03,
418,1.60e-01,-9.60e-03,
419,1.60e-01,-9.60e-03,
420,1.60e-01,-9.60e-03,
421,1.60e-01,-9.60e-03,
422,1.60e-01,-1.12e-02,
423,1.60e-01,-9.60e-03,
424,8.00e-02,-7.20e-03,
425,1.60e-01,-9.60e-03,
426,1.60e-01,-9.60e-03,
427,8.00e-02,-1.12e-02,
428,8.00e-02,-9.60e-03,
429,8.00e-02,-9.60e-03,
430,8.00e-02,-8.80e-03,
431,8.00e-02,-9.60e-03,
432,8.00e-02,-1.12e-02,
433,8.00e-02,-9.60e-03,
434,8.00e-02,-1.12e-02,
435,8.00e-02,-9.60e-03,
436,8.00e-02,-9.60e-03,
437,8.00e-02,-9.60e-03,
438,8.00e-02,-1.12e-02,
439,8.00e-02,-9.60e-03,
440,8.00e-02,-9.60e-03,
441,8.00e-02,-9.60e-03,
442,8.00e-02,-9.60e-03,
443,8.00e-02,-1.12e-02,
444,8.00e-02,-1.12e-02,
445,8.00e-02,-1.12e-02,
446,8.00e-02,-9.60e-03,
447,8.00e-02,-1.12e-02,
448,8.00e-02,-9.60e-03,
449,8.00e-02,-1.12e-02,
450,8.00e-02,-1.12e-02,
451,8.00e-02,-1.12e-02,
452,8.00e-02,-9.60e-03,
453,8.00e-02,-9.60e-03,
454,8.00e-02,-1.12e-02,
455,8.00e-02,-1.12e-02,
456,8.00e-02,-1.12e-02,
457,8.00e-02,-9.60e-03,
458,8.00e-02,-9.60e-03,
459,8.00e-02,-9.60e-03,
460,8.00e-02,-1.12e-02,
461,8.00e-02,-1.12e-02,
462,8.00e-02,-1.12e-02,
463,8.00e-02,-9.60e-03,
464,8.00e-02,-9.60e-03,
465,8.00e-02,-9.60e-03,
466,8.00e-02,-1.12e-02,
467,8.00e-02,-1.20e-02,
468,8.00e-02,-1.12e-02,
469,8.00e-02,-9.60e-03,
470,8.00e-02,-1.12e-02,
471,8.00e-02,-1.20e-02,
472,8.00e-02,-1.12e-02,
473,8.00e-02,-1.20e-02,
474,8.00e-02,-1.20e-02,
475,8.00e-02,-1.20e-02,
476,8.00e-02,-1.12e-02,
477,8.00e-02,-1.36e-02,
478,8.00e-02,-1.20e-02,
479,8.00e-02,-1.20e-02,
480,8.00e-02,-1.20e-02,
481,8.00e-02,-1.12e-02,
482,8.00e-02,-1.20e-02,
483,8.00e-02,-1.20e-02,
484,8.00e-02,-1.36e-02,
485,8.00e-02,-1.20e-02,
486,8.00e-02,-1.20e-02,
487,8.00e-02,-1.12e-02,
488,8.00e-02,-1.20e-02,
489,8.00e-02,-1.36e-02,
490,8.00e-02,-1.20e-02,
491,8.00e-02,-1.36e-02,
492,8.00e-02,-1.20e-02,
493,8.00e-02,-1.20e-02,
494,8.00e-02,-1.20e-02,
495,8.00e-02,-1.44e-02,
496,8.00e-02,-1.36e-02,
497,-8.00e-02,-1.20e-02,
498,-8.00e-02,-1.20e-02,
499,-8.00e-02,-1.20e-02,
500,-8.00e-02,-1.20e-02,
501,-8.00e-02,-1.36e-02,
502,-8.00e-02,-1.36e-02,
503,-8.00e-02,-1.20e-02,
504,-8.00e-02,-1.20e-02,
505,-8.00e-02,-1.36e-02,
506,-8.00e-02,-1.36e-02,
507,-8.00e-02,-1.44e-02,
508,-8.00e-02,-1.36e-02,
509,-8.00e-02,-1.36e-02,
510,-8.00e-02,-1.36e-02,
511,-8.00e-02,-1.44e-02,
512,-8.00e-02,-1.36e-02,
513,-8.00e-02,-1.44e-02,
514,-8.00e-02,-1.36e-02,
515,-8.00e-02,-1.36e-02,
516,-8.00e-02,-1.36e-02,
517,-8.00e-02,-1.36e-02,
518,-8.00e-02,-1.44e-02,
519,-8.00e-02,-1.44e-02,
520,-8.00e-02,-1.36e-02,
521,-8.00e-02,-1.20e-02,
522,-8.00e-02,-1.36e-02,
523,-8.00e-02,-1.36e-02,
524,-8.00e-02,-1.44e-02,
525,-8.00e-02,-1.36e-02,
526,-8.00e-02,-1.36e-02,
527,-8.00e-02,-1.36e-02,
528,-8.00e-02,-1.36e-02,
529,-8.00e-02,-1.44e-02,
530,-8.00e-02,-1.36e-02,
531,-8.00e-02,-1.60e-02,
532,-8.00e-02,-1.36e-02,
533,-8.00e-02,-1.36e-02,
534,-8.00e-02,-1.20e-02,
535,-8.00e-02,-1.44e-02,
536,-8.00e-02,-1.60e-02,
537,-8.00e-02,-1.44e-02,
538,-8.00e-02,-1.44e-02,
539,-8.00e-02,-1.44e-02,
540,-8.00e-02,-1.44e-02,
541,-8.00e-02,-1.36e-02,
542,-8.00e-02,-1.68e-02,
543,-8.00e-02,-1.60e-02,
544,-8.00e-02,-1.44e-02,
545,-8.00e-02,-1.44e-02,
546,-8.00e-02,-1.60e-02,
547,-8.00e-02,-1.60e-02,
548,-8.00e-02,-1.44e-02,
549,-8.00e-02,-1.60e-02,
550,-8.00e-02,-1.60e-02,
551,-8.00e-02,-1.44e-02,
552,-8.00e-02,-1.44e-02,
553,-8.00e-02,-1.60e-02,
554,-8.00e-02,-1.60e-02,
555,-8.00e-02,-1.60e-02,
556,-8.00e-02,-1.44e-02,
557,-8.00e-02,-1.60e-02,
558,-8.00e-02,-1.44e-02,
559,-8.00e-02,-1.60e-02,
560,-8.00e-02,-1.60e-02,
561,-8.00e-02,-1.60e-02,
562,-8.00e-02,-1.44e-02,
563,-8.00e-02,-1.44e-02,
564,-8.00e-02,-1.68e-02,
565,-8.00e-02,-1.60e-02,
566,-8.00e-02,-1.68e-02,
567,-1.60e-01,-1.60e-02,
568,-1.60e-01,-1.60e-02,
569,-1.60e-01,-1.60e-02,
570,-1.60e-01,-1.60e-02,
571,-1.60e-01,-1.68e-02,
572,-1.60e-01,-1.68e-02,
573,-1.60e-01,-1.60e-02,
574,-1.60e-01,-1.44e-02,
575,-1.60e-01,-1.60e-02,
576,-1.60e-01,-1.60e-02,
577,-1.60e-01,-1.68e-02,
578,-1.60e-01,-1.68e-02,
579,-1.60e-01,-1.68e-02,
580,-1.60e-01,-1.60e-02,
581,-1.60e-01,-1.60e-02,
582,-1.60e-01,-1.60e-02,
583,-1.60e-01,-1.68e-02,
584,-1.60e-01,-1.68e-02,
585,-1.60e-01,-1.68e-02,
586,-1.60e-01,-1.60e-02,
587,-1.60e-01,-1.60e-02,
588,-1.60e-01,-1.68e-02,
589,-1.60e-01,-1.84e-02,
590,-1.60e-01,-1.68e-02,
591,-1.60e-01,-1.68e-02,
592,-1.60e-01,-1.84e-02,
593,-1.60e-01,-1.60e-02,
594,-1.60e-01,-1.84e-02,
595,-1.60e-01,-1.92e-02,
596,-1.60e-01,-1.84e-02,
597,-1.60e-01,-1.68e-02,
598,-1.60e-01,-1.68e-02,
599,-1.60e-01,-1.84e-02,
600,-1.60e-01,-1.68e-02,
601,-1.60e-01,-1.84e-02,
602,-1.60e-01,-1.84e-02,
603,-1.60e-01,-1.84e-02,
604,-1.60e-01,-1.68e-02,
605,-1.60e-01,-1.68e-02,
606,-1.60e-01,-1.84e-02,
607,-1.60e-01,-1.84e-02,
608,-1.60e-01,-1.68e-02,
609,-1.60e-01,-1.68e-02,
610,-1.60e-01,-1.84e-02,
611,-1.60e-01,-1.68e-02,
612,-1.60e-01,-1.68e-02,
613,-1.60e-01,-1.92e-02,
614,-1.60e-01,-1.84e-02,
615,-1.60e-01,-1.60e-02,
616,-1.60e-01,-1.68e-02,
617,-1.60e-01,-1.84e-02,
618,-1.60e-01,-1.84e-02,
619,-1.60e-01,-1.68e-02,
620,-1.60e-01,-1.92e-02,
621,-1.60e-01,-1.84e-02,
622,-1.60e-01,-1.68e-02,
623,-1.60e-01,-1.68e-02,
624,-1.60e-01,-1.92e-02,
625,-1.60e-01,-1.92e-02,
626,-1.60e-01,-1.84e-02,
627,-1.60e-01,-1.84e-02,
628,-1.60e-01,-1.84e-02,
629,-1.60e-01,-1.92e-02,
630,-1.60e-01,-1.68e-02,
631,-1.60e-01,-1.92e-02,
632,-3.20e-01,-1.92e-02,
633,-3.20e-01,-1.84e-02,
634,-3.20e-01,-1.68e-02,
635,-3.20e-01,-1.84e-02,
636,-3.20e-01,-2.08e-02,
637,-3.20e-01,-1.92e-02,
638,-3.20e-01,-1.92e-02,
639,-3.20e-01,-1.92e-02,
640,-3.20e-01,-1.92e-02,
641,-3.20e-01,-1.92e-02,
642,-3.20e-01,-2.08e-02,
643,-3.20e-01,-2.08e-02,
644,-3.20e-01,-2.08e-02,
645,-3.20e-01,-1.92e-02,
646,-3.20e-01,-1.84e-02,
647,-3.20e-01,-1.92e-02,
648,-3.20e-01,-2.08e-02,
649,-3.20e-01,-1.92e-02,
650,-3.20e-01,-1.92e-02,
651,-3.20e-01,-2.08e-02,
652,-3.20e-01,-1.84e-02,
653,-3.20e-01,-1.84e-02,
654,-3.20e-01,-1.92e-02,
655,-3.20e-01,-2.08e-02,
656,-3.20e-01,-1.92e-02,
657,-3.20e-01,-2.08e-02,
658,-3.20e-01,-1.92e-02,
659,-3.20e-01,-1.92e-02,
660,-3.20e-01,-1.92e-02,
661,-3.20e-01,-2.08e-02,
662,-3.20e-01,-2.16e-02,
663,-3.20e-01,-1.92e-02,
664,-3.20e-01,-1.92e-02,
665,-3.20e-01,-1.92e-02,
666,-3.20e-01,-2.16e-02,
667,-3.20e-01,-2.16e-02,
668,-3.20e-01,-2.08e-02,
669,-3.20e-01,-2.08e-02,
670,-3.20e-01,-2.16e-02,
671,-3.20e-01,-2.08e-02,
672,-3.20e-01,-2.08e-02,
673,-3.20e-01,-2.32e-02,
674,-3.20e-01,-2.16e-02,
675,-3.20e-01,-2.08e-02,
676,-3.20e-01,-1.92e-02,
677,-3.20e-01,-2.16e-02,
678,-3.20e-01,-2.16e-02,
679,-3.20e-01,-2.16e-02,
680,-3.20e-01,-2.08e-02,
681,-3.20e-01,-2.08e-02,
682,-3.20e-01,-2.16e-02,
683,-3.20e-01,-2.08e-02,
684,-3.20e-01,-1.92e-02,
685,-3.20e-01,-2.16e-02,
686,-3.20e-01,-2.32e-02,
687,-3.20e-01,-2.08e-02,
688,-3.20e-01,-2.08e-02,
689,-3.20e-01,-2.16e-02,
690,-3.20e-01,-2.32e-02,
691,-3.20e-01,-2.08e-02,
692,-3.20e-01,-2.32e-02,
693,-3.20e-01,-2.16e-02,
694,-3.20e-01,-2.16e-02,
695,-3.20e-01,-2.08e-02,
696,-3.20e-01,-2.08e-02,
697,-3.20e-01,-2.16e-02,
698,-3.20e-01,-2.32e-02,
699,-3.20e-01,-2.32e-02,
700,-3.20e-01,-1.92e-02,
701,-3.20e-01,-2.16e-02,
702,-4.00e-01,-2.32e-02,
703,-4.00e-01,-2.16e-02,
704,-4.00e-01,-2.16e-02,
705,-4.00e-01,-2.32e-02,
706,-4.00e-01,-2.16e-02,
707,-4.00e-01,-2.08e-02,
708,-4.00e-01,-2.08e-02,
709,-4.00e-01,-2.16e-02,
710,-4.00e-01,-2.32e-02,
711,-4.00e-01,-2.32e-02,
712,-4.00e-01,-2.16e-02,
713,-4.00e-01,-2.08e-02,
714,-4.00e-01,-2.16e-02,
715,-4.00e-01,-2.32e-02,
716,-4.00e-01,-2.16e-02,
717,-4.00e-01,-2.32e-02,
718,-4.00e-01,-2.32e-02,
719,-4.00e-01,-2.16e-02,
720,-4.00e-01,-2.16e-02,
721,-4.00e-01,-2.16e-02,
722,-4.00e-01,-2.32e-02,
723,-4.00e-01,-2.32e-02,
724,-4.00e-01,-2.32e-02,
725,-4.00e-01,-2.32e-02,
726,-4.00e-01,-2.32e-02,
727,-4.00e-01,-2.32e-02,
728,-4.00e-01,-2.16e-02,
729,-4.00e-01,-2.32e-02,
730,-4.00e-01,-2.56e-02,
731,-4.00e-01,-2.32e-02,
732,-4.00e-01,-2.16e-02,
733,-4.00e-01,-2.40e-02,
734,-4.00e-01,-2.32e-02,
735,-4.00e-01,-2.32e-02,
736,-4.00e-01,-2.32e-02,
737,-4.00e-01,-2.40e-02,
738,-4.00e-01,-2.16e-02,
739,-4.00e-01,-2.40e-02,
740,-4.00e-01,-2.40e-02,
741,-4.00e-01,-2.56e-02,
742,-4.00e-01,-2.40e-02,
743,-4.00e-01,-2.40e-02,
744,-4.00e-01,-2.32e-02,
745,-4.00e-01,-2.40e-02,
746,-4.00e-01,-2.40e-02,
747,-4.00e-01,-2.32e-02,
748,-4.00e-01,-2.56e-02,
749,-4.00e-01,-2.32e-02,
750,-4.00e-01,-2.16e-02,
751,-4.00e-01,-2.32e-02,
752,-4.00e-01,-2.56e-02,
753,-4.00e-01,-2.32e-02,
754,-4.00e-01,-2.40e-02,
755,-4.00e-01,-2.40e-02,
756,-4.00e-01,-2.40e-02,
757,-4.00e-01,-2.16e-02,
758,-4.00e-01,-2.40e-02,
759,-4.00e-01,-2.64e-02,
760,-4.00e-01,-2.40e-02,
761,-4.00e-01,-2.40e-02,
762,-4.00e-01,-2.32e-02,
763,-4.00e-01,-2.32e-02,
764,-4.00e-01,-2.56e-02,
765,-4.00e-01,-2.40e-02,
766,-5.60e-01,-2.56e-02,
767,-5.60e-01,-2.56e-02,
768,-4.00e-01,-2.56e-02,
769,-4.00e-01,-2.32e-02,
770,-4.00e-01,-2.56e-02,
771,-5.60e-01,-2.56e-02,
772,-5.60e-01,-2.56e-02,
773,-5.60e-01,-2.56e-02,
774,-5.60e-01,-2.40e-02,
775,-5.60e-01,-2.40e-02,
776,-5.60e-01,-2.40e-02,
777,-5.60e-01,-2.56e-02,
778,-5.60e-01,-2.56e-02,
779,-5.60e-01,-2.56e-02,
780,-5.60e-01,-2.56e-02,
781,-5.60e-01,-2.40e-02,
782,-5.60e-01,-2.40e-02,
783,-5.60e-01,-2.56e-02,
784,-5.60e-01,-2.64e-02,
785,-5.60e-01,-2.40e-02,
786,-5.60e-01,-2.40e-02,
787,-5.60e-01,-2.56e-02,
788,-5.60e-01,-2.56e-02,
789,-5.60e-01,-2.56e-02,
790,-5.60e-01,-2.64e-02,
791,-5.60e-01,-2.56e-02,
792,-5.60e-01,-2.56e-02,
793,-5.60e-01,-2.40e-02,
794,-5.60e-01,-2.56e-02,
795,-5.60e-01,-2.64e-02,
796,-5.60e-01,-2.56e-02,
797,-5.60e-01,-2.40e-02,
798,-5.60e-01,-2.40e-02,
799,-5.60e-01,-2.64e-02,
800,-5.60e-01,-2.56e-02,
801,-5.60e-01,-2.56e-02,
802,-5.60e-01,-2.80e-02,
803,-5.60e-01,-2.64e-02,
804,-5.60e-01,-2.56e-02,
805,-5.60e-01,-2.40e-02,
806,-5.60e-01,-2.64e-02,
807,-5.60e-01,-2.64e-02,
808,-5.60e-01,-2.64e-02,
809,-5.60e-01,-2.56e-02,
810,-5.60e-01,-2.56e-02,
811,-5.60e-01,-2.56e-02,
812,-5.60e-01,-2.40e-02,
813,-5.60e-01,-2.64e-02,
814,-5.60e-01,-2.64e-02,
815,-5.60e-01,-2.80e-02,
816,-5.60e-01,-2.56e-02,
817,-5.60e-01,-2.56e-02,
818,-5.60e-01,-2.64e-02,
819,-5.60e-01,-2.80e-02,
820,-5.60e-01,-2.56e-02,
821,-5.60e-01,-2.56e-02,
822,-5.60e-01,-2.64e-02,
823,-5.60e-01,-2.64e-02,
824,-5.60e-01,-2.56e-02,
825,-5.60e-01,-2.64e-02,
826,-5.60e-01,-2.88e-02,
827,-5.60e-01,-2.80e-02,
828,-5.60e-01,-2.56e-02,
829,-5.60e-01,-2.64e-02,
