data/vertical/measurement13.csv

X,CH1,CH2,CH4,Start,Increment,
Sequence,Volt,Volt,Volt,-1.156000e-02,8.000000e-07
0,6.40e-01,2.32e-02,5.60e-04,
1,6.40e-01,2.48e-02,3.20e-04,
2,6.40e-01,2.32e-02,-8.00e-05,
3,6.40e-01,2.24e-02,5.60e-04,
4,6.40e-01,2.08e-02,4.80e-04,
5,6.40e-01,2.48e-02,5.60e-04,
6,6.40e-01,2.32e-02,1.92e-03,
7,6.40e-01,2.24e-02,3.20e-04,
8,6.40e-01,2.24e-02,4.00e-04,
9,6.40e-01,2.08e-02,8.00e-04,
10,6.40e-01,2.24e-02,1.12e-03,
11,6.40e-01,2.24e-02,-3.20e-04,
12,6.40e-01,2.08e-02,8.00e-04,
13,6.40e-01,2.24e-02,1.60e-04,
14,6.40e-01,2.32e-02,4.00e-04,
15,6.40e-01,2.48e-02,8.80e-04,
16,6.40e-01,2.24e-02,8.80e-04,
17,6.40e-01,2.08e-02,1.60e-04,
18,6.40e-01,2.08e-02,8.00e-04,
19,6.40e-01,2.24e-02,3.20e-04,
20,6.40e-01,2.24e-02,1.44e-03,
21,6.40e-01,2.24e-02,-4.00e-04,
22,6.40e-01,2.24e-02,1.60e-04,
23,6.40e-01,2.08e-02,5.60e-04,
24,6.40e-01,2.24e-02,2.40e-04,
25,6.40e-01,2.32e-02,-8.00e-05,
26,6.40e-01,2.08e-02,1.68e-03,
27,6.40e-01,2.08e-02,8.00e-04,
28,6.40e-01,2.32e-02,8.00e-05,
29,6.40e-01,2.08e-02,1.36e-03,
30,6.40e-01,2.24e-02,7.20e-04,
31,6.40e-01,2.24e-02,4.00e-04,
32,6.40e-01,2.00e-02,8.00e-04,
33,6.40e-01,2.08e-02,2.40e-04,
34,6.40e-01,2.32e-02,1.60e-04,
35,6.40e-01,2.08e-02,4.80e-04,
36,6.40e-01,2.00e-02,-8.00e-05,
37,6.40e-01,2.08e-02,4.00e-04,
38,6.40e-01,2.08e-02,7.20e-04,
39,6.40e-01,2.24e-02,3.20e-04,
40,6.40e-01,2.08e-02,4.80e-04,
41,6.40e-01,2.08e-02,1.60e-04,
42,6.40e-01,2.08e-02,4.00e-04,
43,6.40e-01,2.24e-02,9.60e-04,
44,6.40e-01,2.00e-02,5.60e-04,
45,6.40e-01,2.08e-02,-4.00e-04,
46,6.40e-01,2.08e-02,5.60e-04,
47,6.40e-01,2.24e-02,1.12e-03,
48,6.40e-01,2.08e-02,-4.80e-04,
49,6.40e-01,2.00e-02,3.20e-04,
50,6.40e-01,2.00e-02,8.00e-04,
51,6.40e-01,1.84e-02,-1.60e-04,
52,6.40e-01,2.24e-02,-8.00e-05,
53,6.40e-01,2.08e-02,1.52e-03,
54,6.40e-01,2.08e-02,-1.60e-04,
55,6.40e-01,2.08e-02,4.00e-04,
56,6.40e-01,2.24e-02,1.04e-03,
57,6.40e-01,2.08e-02,8.80e-04,
58,6.40e-01,2.08e-02,-6.40e-04,
59,6.40e-01,1.84e-02,1.36e-03,
60,6.40e-01,1.84e-02,4.00e-04,
61,6.40e-01,2.00e-02,-2.40e-04,
62,6.40e-01,2.08e-02,3.20e-04,
63,6.40e-01,2.00e-02,1.12e-03,
64,6.40e-01,2.00e-02,-8.00e-04,
65,5.60e-01,2.00e-02,1.60e-04,
66,5.60e-01,2.08e-02,5.60e-04,
67,5.60e-01,2.24e-02,8.00e-05,
68,5.60e-01,2.08e-02,2.40e-04,
69,5.60e-01,2.00e-02,1.12e-03,
70,5.60e-01,2.00e-02,4.00e-04,
71,5.60e-01,2.00e-02,7.20e-04,
72,5.60e-01,2.00e-02,1.04e-03,
73,5.60e-01,2.08e-02,-3.20e-04,
74,5.60e-01,1.84e-02,8.00e-05,
75,5.60e-01,2.00e-02,-1.60e-04,
76,5.60e-01,2.08e-02,4.80e-04,
77,5.60e-01,2.08e-02,-8.00e-05,
78,5.60e-01,2.00e-02,4.80e-04,
79,5.60e-01,2.08e-02,-1.60e-04,
80,5.60e-01,2.00e-02,1.52e-03,
81,5.60e-01,2.00e-02,9.60e-04,
82,5.60e-01,2.08e-02,3.20e-04,
83,5.60e-01,1.84e-02,8.00e-04,
84,5.60e-01,1.76e-02,8.00e-04,
85,5.60e-01,1.84e-02,-3.20e-04,
86,5.60e-01,2.08e-02,8.00e-05,
87,5.60e-01,2.00e-02,5.60e-04,
88,5.60e-01,2.00e-02,-2.40e-04,
89,5.60e-01,2.00e-02,1.60e-04,
90,5.60e-01,1.84e-02,1.04e-03,
91,5.60e-01,2.00e-02,4.80e-04,
92,5.60e-01,2.00e-02,4.00e-04,
93,5.60e-01,1.84e-02,5.60e-04,
94,5.60e-01,1.84e-02,3.20e-04,
95,5.60e-01,2.24e-02,-2.40e-04,
96,5.60e-01,1.84e-02,8.80e-04,
97,5.60e-01,1.84e-02,2.40e-04,
98,5.60e-01,1.84e-02,-1.60e-04,
99,5.60e-01,2.00e-02,8.00e-05,
100,5.60e-01,2.00e-02,1.04e-03,
101,5.60e-01,2.08e-02,1.60e-04,
102,5.60e-01,1.76e-02,5.60e-04,
103,5.60e-01,1.76e-02,2.40e-04,
104,5.60e-01,2.00e-02,1.60e-04,
105,5.60e-01,1.84e-02,5.60e-04,
106,5.60e-01,1.76e-02,2.40e-04,
107,5.60e-01,1.76e-02,4.80e-04,
108,5.60e-01,1.84e-02,1.60e-04,
109,5.60e-01,1.84e-02,5.60e-04,
110,5.60e-01,1.84e-02,-2.40e-04,
111,5.60e-01,1.76e-02,7.20e-04,
112,5.60e-01,1.76e-02,8.00e-05,
113,5.60e-01,2.08e-02,8.00e-04,
114,5.60e-01,1.84e-02,8.00e-04,
115,5.60e-01,1.76e-02,1.60e-04,
116,5.60e-01,1.60e-02,1.60e-04,
117,5.60e-01,1.76e-02,7.20e-04,
118,5.60e-01,1.84e-02,3.20e-04,
119,5.60e-01,1.76e-02,-8.00e-05,
120,5.60e-01,1.76e-02,1.60e-04,
121,5.60e-01,1.76e-02,3.20e-04,
122,5.60e-01,2.00e-02,-8.80e-04,
123,5.60e-01,1.84e-02,1.04e-03,
124,5.60e-01,1.76e-02,4.80e-04,
125,5.60e-01,1.84e-02,-8.00e-05,
126,5.60e-01,2.00e-02,2.40e-04,
127,5.60e-01,2.00e-02,1.36e-03,
128,5.60e-01,1.76e-02,-8.00e-05,
129,5.60e-01,1.60e-02,1.60e-04,
130,5.60e-01,1.52e-02,8.00e-04,
131,5.60e-01,1.84e-02,8.00e-05,
132,5.60e-01,1.76e-02,5.60e-04,
133,5.60e-01,1.76e-02,2.40e-04,
134,5.60e-01,1.84e-02,-2.40e-04,
135,5.60e-01,1.84e-02,2.40e-04,
136,5.60e-01,1.84e-02,9.60e-04,
137,5.60e-01,1.84e-02,-1.60e-04,
138,5.60e-01,1.76e-02,3.20e-04,
139,5.60e-01,1.60e-02,4.00e-04,
140,5.60e-01,1.84e-02,5.60e-04,
141,5.60e-01,1.76e-02,2.40e-04,
142,5.60e-01,1.76e-02,8.00e-05,
143,5.60e-01,1.52e-02,2.40e-04,
144,5.60e-01,1.52e-02,8.80e-04,
145,5.60e-01,1.84e-02,-1.60e-04,
146,5.60e-01,1.76e-02,8.00e-04,
147,5.60e-01,1.76e-02,4.00e-04,
148,5.60e-01,1.84e-02,-2.40e-04,
149,5.60e-01,1.84e-02,4.80e-04,
150,5.60e-01,1.76e-02,1.04e-03,
151,5.60e-01,1.76e-02,2.40e-04,
152,5.60e-01,1.84e-02,3.20e-04,
153,5.60e-01,1.52e-02,9.60e-04,
154,5.60e-01,1.76e-02,2.40e-04,
155,5.60e-01,1.60e-02,9.60e-04,
156,5.60e-01,1.60e-02,3.20e-04,
157,5.60e-01,1.60e-02,4.00e-04,
158,5.60e-01,1.52e-02,3.20e-04,
159,5.60e-01,1.76e-02,2.40e-04,
160,5.60e-01,1.76e-02,-2.40e-04,
161,5.60e-01,1.76e-02,1.12e-03,
162,4.00e-01,1.52e-02,-4.00e-04,
163,4.00e-01,1.60e-02,-2.40e-04,
164,4.00e-01,1.60e-02,4.80e-04,
165,4.00e-01,1.76e-02,1.60e-04,
166,4.00e-01,1.84e-02,-4.00e-04,
167,4.00e-01,1.52e-02,1.28e-03,
168,4.00e-01,1.76e-02,-8.00e-05,
169,4.00e-01,1.60e-02,3.20e-04,
170,4.00e-01,1.60e-02,4.80e-04,
171,4.00e-01,1.60e-02,7.20e-04,
172,4.00e-01,1.52e-02,2.40e-04,
173,4.00e-01,1.60e-02,7.20e-04,
174,4.00e-01,1.76e-02,1.60e-04,
175,4.00e-01,1.76e-02,5.60e-04,
176,4.00e-01,1.36e-02,3.20e-04,
177,4.00e-01,1.52e-02,2.40e-04,
178,4.00e-01,1.60e-02,5.60e-04,
179,4.00e-01,1.52e-02,8.00e-04,
180,4.00e-01,1.60e-02,1.60e-04,
181,4.00e-01,1.36e-02,8.00e-05,
182,4.00e-01,1.36e-02,2.40e-04,
183,4.00e-01,1.36e-02,3.20e-04,
184,4.00e-01,1.60e-02,2.40e-04,
185,4.00e-01,1.60e-02,-4.00e-04,
186,4.00e-01,1.60e-02,-3.20e-04,
187,4.00e-01,1.60e-02,1.60e-04,
188,4.00e-01,1.76e-02,8.00e-04,
189,4.00e-01,1.36e-02,5.60e-04,
190,4.00e-01,1.36e-02,3.20e-04,
191,4.00e-01,1.52e-02,4.80e-04,
192,4.00e-01,1.52e-02,8.00e-04,
193,4.00e-01,1.60e-02,-8.00e-05,
194,4.00e-01,1.52e-02,8.80e-04,
195,4.00e-01,1.28e-02,-1.60e-04,
196,4.00e-01,1.12e-02,8.00e-05,
197,4.00e-01,1.52e-02,-2.40e-04,
198,4.00e-01,1.60e-02,8.00e-04,
199,4.00e-01,1.52e-02,-6.40e-04,
200,4.00e-01,1.60e-02,-8.00e-05,
201,4.00e-01,1.36e-02,2.40e-04,
202,4.00e-01,1.36e-02,8.00e-05,
203,4.00e-01,1.52e-02,-3.20e-04,
204,4.00e-01,1.60e-02,4.80e-04,
205,4.00e-01,1.36e-02,5.60e-04,
206,4.00e-01,1.52e-02,5.60e-04,
207,4.00e-01,1.36e-02,7.20e-04,
208,4.00e-01,1.36e-02,-8.00e-05,
209,4.00e-01,1.36e-02,2.40e-04,
210,4.00e-01,1.36e-02,5.60e-04,
211,4.00e-01,1.28e-02,3.20e-04,
212,4.00e-01,1.60e-02,-8.00e-04,
213,4.00e-01,1.76e-02,5.60e-04,
214,4.00e-01,1.36e-02,-8.00e-05,
215,4.00e-01,1.28e-02,1.60e-04,
216,4.00e-01,1.28e-02,2.40e-04,
217,4.00e-01,1.36e-02,1.12e-03,
218,4.00e-01,1.52e-02,8.00e-05,
219,4.00e-01,1.52e-02,7.20e-04,
220,4.00e-01,1.28e-02,4.80e-04,
221,4.00e-01,1.36e-02,-8.00e-05,
222,4.00e-01,1.36e-02,-1.60e-04,
223,4.00e-01,1.36e-02,2.40e-04,
224,4.00e-01,1.28e-02,-8.00e-04,
225,4.00e-01,1.52e-02,8.00e-05,
226,4.00e-01,1.52e-02,8.00e-04,
227,4.00e-01,1.52e-02,-8.00e-05,
228,4.00e-01,1.36e-02,-4.80e-04,
229,4.00e-01,1.12e-02,8.00e-04,
230,4.00e-01,1.36e-02,1.60e-04,
231,4.00e-01,1.36e-02,-1.60e-04,
232,4.00e-01,1.52e-02,1.28e-03,
233,4.00e-01,1.28e-02,7.20e-04,
234,4.00e-01,1.36e-02,-4.00e-04,
235,4.00e-01,1.28e-02,2.40e-04,
236,4.00e-01,1.36e-02,7.20e-04,
237,4.00e-01,1.28e-02,-2.40e-04,
238,4.00e-01,1.28e-02,-4.80e-04,
239,4.00e-01,1.36e-02,8.00e-05,
240,4.00e-01,1.36e-02,8.00e-04,
241,4.00e-01,1.36e-02,-8.00e-05,
242,4.00e-01,1.12e-02,7.20e-04,
243,3.20e-01,1.12e-02,4.00e-04,
244,3.20e-01,1.28e-02,4.00e-04,
245,3.20e-01,1.36e-02,4.00e-04,
246,3.20e-01,1.12e-02,7.20e-04,
247,3.20e-01,1.12e-02,-9.60e-04,
248,3.20e-01,1.12e-02,1.60e-04,
249,3.20e-01,1.28e-02,-3.20e-04,
250,3.20e-01,1.28e-02,-1.60e-04,
251,3.20e-01,1.28e-02,-8.00e-05,
252,3.20e-01,1.28e-02,4.80e-04,
253,3.20e-01,1.36e-02,8.00e-05,
254,3.20e-01,1.28e-02,8.80e-04,
255,3.20e-01,1.12e-02,3.20e-04,
256,3.20e-01,1.04e-02,3.20e-04,
257,3.20e-01,1.12e-02,8.00e-05,
258,3.20e-01,1.36e-02,-1.60e-04,
259,3.20e-01,1.28e-02,2.40e-04,
260,3.20e-01,1.12e-02,-4.00e-04,
261,3.20e-01,1.28e-02,-2.40e-04,
262,3.20e-01,1.36e-02,4.80e-04,
263,3.20e-01,1.28e-02,9.60e-04,
264,3.20e-01,1.36e-02,-4.00e-04,
265,3.20e-01,1.28e-02,3.20e-04,
266,3.20e-01,1.28e-02,5.60e-04,
267,3.20e-01,1.36e-02,4.80e-04,
268,3.20e-01,1.28e-02,3.20e-04,
269,3.20e-01,8.80e-03,7.20e-04,
270,3.20e-01,1.12e-02,-9.60e-04,
271,3.20e-01,1.28e-02,5.60e-04,
272,3.20e-01,1.28e-02,5.60e-04,
273,3.20e-01,1.12e-02,-8.00e-05,
274,3.20e-01,1.12e-02,-2.40e-04,
275,3.20e-01,1.04e-02,7.20e-04,
276,3.20e-01,1.28e-02,-1.60e-04,
277,3.20e-01,1.36e-02,3.20e-04,
278,3.20e-01,1.12e-02,9.60e-04,
279,3.20e-01,1.04e-02,-3.20e-04,
280,3.20e-01,1.28e-02,-1.60e-04,
281,3.20e-01,1.12e-02,7.20e-04,
282,3.20e-01,1.12e-02,-2.40e-04,
283,3.20e-01,1.04e-02,-4.00e-04,
284,3.20e-01,1.04e-02,3.20e-04,
285,3.20e-01,1.12e-02,-3.20e-04,
286,3.20e-01,1.28e-02,4.80e-04,
287,3.20e-01,1.04e-02,8.00e-05,
288,3.20e-01,1.04e-02,3.20e-04,
289,3.20e-01,8.80e-03,-8.00e-05,
290,3.20e-01,1.12e-02,9.60e-04,
291,3.20e-01,1.28e-02,-2.40e-04,
292,3.20e-01,1.04e-02,4.00e-04,
293,3.20e-01,1.04e-02,-8.00e-05,
294,3.20e-01,1.04e-02,2.40e-04,
295,3.20e-01,1.12e-02,-1.60e-04,
296,3.20e-01,1.04e-02,3.20e-04,
297,3.20e-01,1.04e-02,-9.60e-04,
298,3.20e-01,1.12e-02,2.40e-04,
299,3.20e-01,1.12e-02,8.80e-04,
300,3.20e-01,1.12e-02,8.00e-05,
301,3.20e-01,1.04e-02,-3.20e-04,
302,3.20e-01,8.80e-03,5.60e-04,
303,3.20e-01,8.80e-03,8.00e-04,
304,3.20e-01,1.12e-02,2.40e-04,
305,3.20e-01,1.04e-02,5.60e-04,
306,3.20e-01,8.80e-03,-8.00e-05,
307,3.20e-01,8.00e-03,-2.40e-04,
308,3.20e-01,8.80e-03,-8.00e-05,
309,3.20e-01,8.80e-03,4.80e-04,
310,3.20e-01,1.04e-02,-4.00e-04,
311,3.20e-01,8.80e-03,-8.00e-05,
312,3.20e-01,8.80e-03,-3.20e-04,
313,3.20e-01,8.80e-03,1.60e-04,
314,3.20e-01,1.04e-02,-2.40e-04,
315,3.20e-01,1.04e-02,7.20e-04,
316,3.20e-01,8.80e-03,8.00e-05,
317,3.20e-01,1.04e-02,2.40e-04,
318,3.20e-01,8.80e-03,-1.60e-04,
319,3.20e-01,1.04e-02,3.20e-04,
320,3.20e-01,8.00e-03,1.60e-04,
321,3.20e-01,8.00e-03,3.20e-04,
322,3.20e-01,6.40e-03,-3.20e-04,
323,3.20e-01,1.04e-02,-6.40e-04,
324,3.20e-01,1.04e-02,4.00e-04,
325,3.20e-01,8.00e-03,8.00e-05,
326,3.20e-01,8.80e-03,-6.40e-04,
327,3.20e-01,8.80e-03,1.60e-04,
328,1.60e-01,1.04e-02,4.00e-04,
329,3.20e-01,1.04e-02,-2.40e-04,
330,1.60e-01,1.04e-02,-2.40e-04,
331,3.20e-01,8.00e-03,3.20e-04,
332,3.20e-01,1.04e-02,8.00e-05,
333,3.20e-01,1.04e-02,-1.60e-04,
334,1.60e-01,8.80e-03,7.20e-04,
335,1.60e-01,8.00e-03,-8.00e-05,
336,1.60e-01,8.80e-03,8.00e-05,
337,1.60e-01,1.04e-02,4.00e-04,
338,1.60e-01,8.80e-03,8.00e-04,
339,1.60e-01,8.80e-03,-6.40e-04,
340,1.60e-01,6.40e-03,-1.60e-04,
341,1.60e-01,8.00e-03,2.40e-04,
342,1.60e-01,8.00e-03,4.00e-04,
343,1.60e-01,8.80e-03,-4.00e-04,
344,1.60e-01,6.40e-03,-8.00e-05,
345,1.60e-01,8.00e-03,-2.40e-04,
346,1.60e-01,8.00e-03,-2.40e-04,
347,1.60e-01,8.80e-03,1.60e-04,
348,1.60e-01,8.00e-03,1.60e-04,
349,1.60e-01,8.80e-03,-2.40e-04,
350,1.60e-01,8.00e-03,-2.40e-04,
351,1.60e-01,8.80e-03,4.00e-04,
352,1.60e-01,8.80e-03,4.80e-04,
353,1.60e-01,8.00e-03,8.00e-05,
354,1.60e-01,5.60e-03,1.60e-04,
355,1.60e-01,6.40e-03,8.00e-04,
356,1.60e-01,8.00e-03,-8.00e-05,
357,1.60e-01,5.60e-03,3.20e-04,
358,1.60e-01,6.40e-03,-4.00e-04,
359,1.60e-01,5.60e-03,-4.00e-04,
360,1.60e-01,8.00e-03,-7.20e-04,
361,1.60e-01,8.00e-03,4.00e-04,
362,1.60e-01,8.00e-03,-2.40e-04,
363,1.60e-01,8.00e-03,-8.00e-05,
364,1.60e-01,6.40e-03,2.40e-04,
365,1.60e-01,8.80e-03,4.00e-04,
366,1.60e-01,6.40e-03,-2.40e-04,
367,1.60e-01,6.40e-03,2.40e-04,
368,1.60e-01,5.60e-03,-2.40e-04,
369,1.60e-01,8.00e-03,-4.80e-04,
370,1.60e-01,6.40e-03,1.60e-04,
371,1.60e-01,6.40e-03,4.00e-04,
372,1.60e-01,5.60e-03,-4.80e-04,
373,1.60e-01,5.60e-03,7.20e-04,
374,1.60e-01,5.60e-03,4.80e-04,
375,1.60e-01,8.00e-03,-1.60e-04,
376,1.60e-01,6.40e-03,-8.00e-05,
377,1.60e-01,5.60e-03,5.60e-04,
378,1.60e-01,6.40e-03,-4.80e-04,
379,1.60e-01,6.40e-03,-2.40e-04,
380,1.60e-01,6.40e-03,2.40e-04,
381,1.60e-01,6.40e-03,8.00e-05,
382,1.60e-01,6.40e-03,8.00e-05,
383,1.60e-01,5.60e-03,7.20e-04,
384,1.60e-01,8.00e-03,8.00e-05,
385,1.60e-01,6.40e-03,-4.80e-04,
386,1.60e-01,5.60e-03,-8.00e-05,
387,1.60e-01,4.00e-03,1.60e-04,
388,1.60e-01,8.00e-03,2.40e-04,
389,1.60e-01,6.40e-03,-8.00e-05,
390,1.60e-01,6.40e-03,4.80e-04,
391,1.60e-01,4.00e-03,5.60e-04,
392,1.60e-01,5.60e-03,1.60e-04,
393,1.60e-01,6.40e-03,1.60e-04,
394,1.60e-01,6.40e-03,4.80e-04,
395,1.60e-01,5.60e-03,-4.00e-04,
396,1.60e-01,5.60e-03,-6.40e-04,
397,1.60e-01,5.60e-03,-8.00e-05,
398,1.60e-01,6.40e-03,-3.20e-04,
399,1.60e-01,5.60e-03,-2.40e-04,
400,1.60e-01,6.40e-03,5.60e-04,
401,1.60e-01,5.60e-03,1.60e-04,
402,1.60e-01,6.40e-03,3.20e-04,
403,1.60e-01,6.40e-03,1.60e-04,
404,1.60e-01,5.60e-03,8.00e-04,
405,1.60e-01,3.20e-03,-3.20e-04,
406,1.60e-01,5.60e-03,-4.00e-04,
407,1.60e-01,6.40e-03,-3.20e-04,
408,1.60e-01,6.40e-03,-4.00e-04,
409,1.60e-01,6.40e-03,-8.00e-05,
410,1.60e-01,6.40e-03,-4.80e-04,
411,1.60e-01,4.00e-03,8.00e-05,
412,1.60e-01,6.40e-03,4.00e-04,
413,1.60e-01,6.40e-03,7.20e-04,
414,1.60e-01,5.60e-03,-4.00e-04,
415,1.60e-01,3.20e-03,8.00e-04,
416,8.00e-02,4.00e-03,2.40e-04,
417,1.60e-01,6.40e-03,-2.40e-04,
418,8.00e-02,3.20e-03,4.00e-04,
419,8.00e-02,3.20e-03,3.20e-04,
420,8.00e-02,5.60e-03,-1.36e-03,
421,8.00e-02,5.60e-03,4.80e-04,
422,8.00e-02,5.60e-03,2.40e-04,
423,8.00e-02,6.40e-03,-4.00e-04,
424,8.00e-02,3.20e-03,-4.00e-04,
425,8.00e-02,3.20e-03,3.20e-04,
426,8.00e-02,6.40e-03,-3.20e-04,
427,8.00e-02,5.60e-03,4.00e-04,
428,8.00e-02,3.20e-03,2.40e-04,
429,8.00e-02,4.00e-03,-4.00e-04,
430,8.00e-02,4.00e-03,-3.20e-04,
431,8.00e-02,4.00e-03,8.80e-04,
432,8.00e-02,4.00e-03,-2.40e-04,
433,8.00e-02,4.00e-03,-3.20e-04,
434,8.00e-02,3.20e-03,3.20e-04,
435,8.00e-02,5.60e-03,4.00e-04,
436,8.00e-02,4.00e-03,-4.80e-04,
437,8.00e-02,3.20e-03,4.00e-04,
438,8.00e-02,3.20e-03,1.60e-04,
439,8.00e-02,5.60e-03,-4.00e-04,
440,8.00e-02,4.00e-03,8.00e-05,
441,8.00e-02,4.00e-03,-8.00e-05,
442,8.00e-02,3.20e-03,-8.00e-04,
443,8.00e-02,3.20e-03,-3.20e-04,
444,8.00e-02,4.00e-03,3.20e-04,
445,8.00e-02,5.60e-03,-4.00e-04,
446,8.00e-02,3.20e-03,-4.00e-04,
447,8.00e-02,4.00e-03,2.40e-04,
448,8.00e-02,4.00e-03,4.80e-04,
449,8.00e-02,3.20e-03,7.20e-04,
450,8.00e-02,1.60e-03,3.20e-04,
451,8.00e-02,3.20e-03,-8.00e-05,
452,8.00e-02,3.20e-03,8.00e-04,
453,8.00e-02,3.20e-03,2.40e-04,
454,8.00e-02,4.00e-03,5.60e-04,
455,8.00e-02,1.60e-03,-4.00e-04,
456,8.00e-02,1.60e-03,-8.80e-04,
457,8.00e-02,3.20e-03,-4.00e-04,
458,8.00e-02,4.00e-03,2.40e-04,
459,8.00e-02,1.60e-03,-6.40e-04,
460,8.00e-02,3.20e-03,-4.80e-04,
461,8.00e-02,1.60e-03,-4.80e-04,
462,8.00e-02,3.20e-03,-2.40e-04,
463,8.00e-02,3.20e-03,8.00e-05,
464,8.00e-02,3.20e-03,4.00e-04,
465,8.00e-02,1.60e-03,-4.00e-04,
466,8.00e-02,4.00e-03,-1.60e-04,
467,8.00e-02,4.00e-03,-3.20e-04,
468,8.00e-02,3.20e-03,2.40e-04,
469,8.00e-02,1.60e-03,-4.80e-04,
470,8.00e-02,3.20e-03,-3.20e-04,
471,8.00e-02,3.20e-03,-2.40e-04,
472,8.00e-02,3.20e-03,-2.40e-04,
473,8.00e-02,3.20e-03,-1.60e-04,
474,8.00e-02,8.00e-04,8.00e-05,
475,8.00e-02,8.00e-04,2.40e-04,
476,8.00e-02,1.60e-03,-1.60e-04,
477,8.00e-02,3.20e-03,2.40e-04,
478,8.00e-02,1.60e-03,-9.60e-04,
479,8.00e-02,8.00e-04,-8.00e-05,
480,8.00e-02,1.60e-03,-9.60e-04,
481,8.00e-02,3.20e-03,-4.80e-04,
482,8.00e-02,8.00e-04,-4.00e-04,
483,8.00e-02,4.00e-03,-1.20e-03,
484,8.00e-02,1.60e-03,1.60e-04,
485,8.00e-02,3.20e-03,5.60e-04,
486,8.00e-02,3.20e-03,-4.00e-04,
487,8.00e-02,8.00e-04,7.20e-04,
488,8.00e-02,-1.60e-03,-4.00e-04,
489,8.00e-02,1.60e-03,-8.00e-05,
490,8.00e-02,1.60e-03,4.80e-04,
491,8.00e-02,1.60e-03,1.60e-04,
492,8.00e-02,8.00e-04,-9.60e-04,
493,8.00e-02,-8.00e-04,1.60e-04,
494,8.00e-02,1.60e-03,-1.20e-03,
495,8.00e-02,1.60e-03,-4.00e-04,
496,8.00e-02,1.60e-03,-3.20e-04,
497,-8.00e-02,8.00e-04,-4.00e-04,
498,8.00e-02,3.20e-03,-4.00e-04,
499,8.00e-02,1.60e-03,4.80e-04,
500,8.00e-02,8.00e-04,1.60e-04,
501,8.00e-02,8.00e-04,8.00e-05,
502,-8.00e-02,8.00e-04,5.60e-04,
503,-8.00e-02,1.60e-03,4.00e-04,
504,-8.00e-02,1.60e-03,-2.40e-04,
505,-8.00e-02,8.00e-04,8.00e-05,
506,8.00e-02,-8.00e-04,-7.20e-04,
507,-8.00e-02,8.00e-04,-1.20e-03,
508,-8.00e-02,1.60e-03,2.40e-04,
509,-8.00e-02,3.20e-03,-2.40e-04,
510,-8.00e-02,8.00e-04,-2.40e-04,
511,-8.00e-02,-8.00e-04,-3.20e-04,
512,-8.00e-02,1.60e-03,3.20e-04,
513,-8.00e-02,8.00e-04,5.60e-04,
514,-8.00e-02,8.00e-04,3.20e-04,
515,-8.00e-02,-8.00e-04,-8.00e-04,
516,-8.00e-02,8.00e-04,3.20e-04,
517,-8.00e-02,-8.00e-04,-4.80e-04,
518,-8.00e-02,1.60e-03,-1.60e-04,
519,-8.00e-02,-1.60e-03,3.20e-04,
520,-8.00e-02,-8.00e-04,-7.20e-04,
521,-8.00e-02,1.60e-03,-1.04e-03,
522,-8.00e-02,1.60e-03,1.60e-04,
523,-8.00e-02,1.60e-03,-2.40e-04,
524,-8.00e-02,-8.00e-04,1.60e-04,
525,-8.00e-02,-8.00e-04,8.00e-05,
526,-8.00e-02,-8.00e-04,4.00e-04,
527,-8.00e-02,8.00e-04,1.60e-04,
528,-8.00e-02,-8.00e-04,1.60e-04,
529,-8.00e-02,-8.00e-04,-9.60e-04,
530,-8.00e-02,-2.40e-03,-1.60e-04,
531,-8.00e-02,8.00e-04,-8.00e-04,
532,-8.00e-02,1.60e-03,-9.60e-04,
533,-8.00e-02,-8.00e-04,4.80e-04,
534,-8.00e-02,-8.00e-04,-3.20e-04,
535,-8.00e-02,8.00e-04,-6.40e-04,
536,-8.00e-02,8.00e-04,5.60e-04,
537,-8.00e-02,-8.00e-04,9.60e-04,
538,-8.00e-02,-1.60e-03,-3.20e-04,
539,-8.00e-02,-2.40e-03,4.00e-04,
540,-8.00e-02,-8.00e-04,-4.80e-04,
541,-8.00e-02,-8.00e-04,2.40e-04,
542,-8.00e-02,-2.40e-03,-8.00e-04,
543,-8.00e-02,-8.00e-04,-4.00e-04,
544,-8.00e-02,-2.40e-03,-4.80e-04,
545,-8.00e-02,-8.00e-04,-8.00e-04,
546,-8.00e-02,8.00e-04,-8.80e-04,
547,-8.00e-02,-8.00e-04,5.60e-04,
548,-8.00e-02,-1.60e-03,-8.00e-05,
549,-8.00e-02,-8.00e-04,-2.40e-04,
550,-8.00e-02,8.00e-04,-8.00e-05,
551,-8.00e-02,-1.60e-03,1.60e-04,
552,-8.00e-02,-8.00e-04,-4.00e-04,
553,-8.00e-02,-1.60e-03,4.80e-04,
554,-8.00e-02,-8.00e-04,-6.40e-04,
555,-8.00e-02,8.00e-04,-4.00e-04,
556,-8.00e-02,-1.60e-03,-3.20e-04,
557,-8.00e-02,-1.60e-03,8.00e-05,
558,-8.00e-02,-1.60e-03,2.40e-04,
559,-8.00e-02,-8.00e-04,4.80e-04,
560,-8.00e-02,-1.60e-03,-1.04e-03,
561,-8.00e-02,-1.60e-03,1.60e-04,
562,-8.00e-02,-4.00e-03,3.20e-04,
563,-8.00e-02,-1.60e-03,8.00e-05,
564,-8.00e-02,-1.60e-03,-2.40e-04,
565,-8.00e-02,-8.00e-04,-4.80e-04,
566,-8.00e-02,-1.60e-03,-8.80e-04,
567,-8.00e-02,-2.40e-03,-8.00e-05,
568,-8.00e-02,-8.00e-04,8.00e-05,
569,-8.00e-02,-8.00e-04,-9.60e-04,
570,-8.00e-02,-1.60e-03,-8.00e-05,
571,-8.00e-02,-1.60e-03,-1.60e-04,
572,-8.00e-02,8.00e-04,2.40e-04,
573,-8.00e-02,-4.00e-03,4.00e-04,
574,-8.00e-02,-2.40e-03,-1.60e-04,
575,-8.00e-02,-2.40e-03,-4.80e-04,
576,-8.00e-02,-2.40e-03,4.80e-04,
577,-8.00e-02,-8.00e-04,-2.40e-04,
578,-8.00e-02,-2.40e-03,-4.00e-04,
579,-8.00e-02,-2.40e-03,-9.60e-04,
580,-8.00e-02,-2.40e-03,-4.80e-04,
581,-8.00e-02,-1.60e-03,-4.00e-04,
582,-1.60e-01,-1.60e-03,-4.00e-04,
583,-1.60e-01,-1.60e-03,-9.60e-04,
584,-1.60e-01,-1.60e-03,4.80e-04,
585,-1.60e-01,-8.00e-04,-8.80e-04,
586,-8.00e-02,-8.00e-04,3.20e-04,
587,-1.60e-01,-2.40e-03,3.20e-04,
588,-8.00e-02,-2.40e-03,-4.00e-04,
589,-1.60e-01,-4.00e-03,-4.80e-04,
590,-1.60e-01,-1.60e-03,4.00e-04,
591,-1.60e-01,-1.60e-03,-6.40e-04,
592,-1.60e-01,-4.00e-03,2.40e-04,
593,-1.60e-01,-4.80e-03,8.00e-05,
594,-1.60e-01,-4.00e-03,-4.80e-04,
595,-1.60e-01,-2.40e-03,-8.00e-05,
596,-1.60e-01,-2.40e-03,8.00e-05,
597,-1.60e-01,-2.40e-03,-4.80e-04,
598,-1.60e-01,-4.80e-03,-8.00e-05,
599,-1.60e-01,-2.40e-03,-6.40e-04,
600,-1.60e-01,-2.40e-03,-2.40e-04,
601,-1.60e-01,-1.60e-03,-8.80e-04,
602,-1.60e-01,-4.00e-03,-9.60e-04,
603,-1.60e-01,-4.00e-03,-3.20e-04,
604,-1.60e-01,-4.00e-03,-8.80e-04,
605,-1.60e-01,-2.40e-03,-1.20e-03,
606,-1.60e-01,-2.40e-03,2.40e-04,
607,-1.60e-01,-4.00e-03,-3.20e-04,
608,-1.60e-01,-2.40e-03,-8.80e-04,
609,-1.60e-01,-2.40e-03,1.04e-03,
610,-1.60e-01,-1.60e-03,-2.40e-04,
611,-1.60e-01,-4.00e-03,4.80e-04,
