data/vertical/measurement16.csv

X,CH1,CH2,CH4,Start,Increment,
Sequence,Volt,Volt,Volt,-1.156000e-02,8.000000e-07
0,6.40e-01,1.28e-02,7.20e-04,
1,6.40e-01,1.28e-02,5.60e-04,
2,6.40e-01,1.52e-02,4.80e-04,
3,6.40e-01,1.28e-02,8.00e-04,
4,6.40e-01,1.36e-02,8.00e-04,
5,6.40e-01,1.28e-02,8.00e-05,
6,6.40e-01,1.28e-02,4.80e-04,
7,6.40e-01,1.28e-02,4.80e-04,
8,6.40e-01,1.36e-02,7.20e-04,
9,6.40e-01,1.12e-02,4.80e-04,
10,6.40e-01,1.28e-02,3.20e-04,
11,6.40e-01,1.28e-02,7.20e-04,
12,6.40e-01,1.36e-02,8.80e-04,
13,6.40e-01,1.28e-02,-8.00e-05,
14,6.40e-01,1.04e-02,1.04e-03,
15,6.40e-01,1.36e-02,1.04e-03,
16,6.40e-01,1.28e-02,8.80e-04,
17,6.40e-01,1.12e-02,7.20e-04,
18,6.40e-01,1.12e-02,7.20e-04,
19,6.40e-01,1.12e-02,5.60e-04,
20,6.40e-01,1.04e-02,5.60e-04,
21,6.40e-01,1.12e-02,3.20e-04,
22,6.40e-01,1.12e-02,8.00e-04,
23,6.40e-01,1.04e-02,8.80e-04,
24,6.40e-01,1.36e-02,1.60e-04,
25,6.40e-01,1.12e-02,1.12e-03,
26,6.40e-01,1.04e-02,1.12e-03,
27,6.40e-01,1.04e-02,4.80e-04,
28,6.40e-01,1.12e-02,4.00e-04,
29,6.40e-01,1.28e-02,8.80e-04,
30,6.40e-01,1.12e-02,8.00e-05,
31,6.40e-01,1.12e-02,2.40e-04,
32,6.40e-01,1.12e-02,2.40e-04,
33,6.40e-01,1.12e-02,4.00e-04,
34,6.40e-01,1.12e-02,4.80e-04,
35,6.40e-01,1.28e-02,3.20e-04,
36,6.40e-01,1.28e-02,3.20e-04,
37,6.40e-01,8.80e-03,1.04e-03,
38,6.40e-01,1.28e-02,-8.00e-05,
39,6.40e-01,1.28e-02,2.40e-04,
40,6.40e-01,1.04e-02,1.36e-03,
41,6.40e-01,1.04e-02,8.00e-04,
42,6.40e-01,8.80e-03,-8.00e-05,
43,6.40e-01,1.04e-02,3.20e-04,
44,6.40e-01,1.12e-02,4.80e-04,
45,6.40e-01,1.28e-02,3.20e-04,
46,6.40e-01,1.12e-02,2.40e-04,
47,6.40e-01,1.04e-02,2.40e-04,
48,6.40e-01,1.12e-02,1.04e-03,
49,6.40e-01,1.12e-02,1.60e-04,
50,6.40e-01,1.12e-02,1.04e-03,
51,6.40e-01,8.80e-03,1.28e-03,
52,6.40e-01,1.12e-02,8.00e-04,
53,6.40e-01,1.04e-02,3.20e-04,
54,6.40e-01,8.80e-03,9.60e-04,
55,6.40e-01,8.80e-03,4.00e-04,
56,6.40e-01,8.00e-03,8.00e-04,
57,6.40e-01,1.04e-02,8.00e-05,
58,6.40e-01,1.04e-02,4.00e-04,
59,6.40e-01,1.04e-02,5.60e-04,
60,6.40e-01,1.04e-02,8.00e-05,
61,6.40e-01,8.80e-03,2.40e-04,
62,6.40e-01,1.04e-02,8.00e-04,
63,6.40e-01,1.28e-02,-1.60e-04,
64,6.40e-01,1.12e-02,2.40e-04,
65,6.40e-01,8.80e-03,8.80e-04,
66,6.40e-01,1.12e-02,3.20e-04,
67,6.40e-01,1.28e-02,2.40e-04,
68,6.40e-01,8.80e-03,3.20e-04,
69,6.40e-01,1.04e-02,1.60e-04,
70,5.60e-01,8.80e-03,8.00e-05,
71,5.60e-01,1.04e-02,8.00e-05,
72,6.40e-01,1.12e-02,1.60e-04,
73,5.60e-01,1.04e-02,5.60e-04,
74,6.40e-01,1.12e-02,-1.60e-04,
75,5.60e-01,8.80e-03,7.20e-04,
76,6.40e-01,8.80e-03,9.60e-04,
77,5.60e-01,1.04e-02,4.80e-04,
78,5.60e-01,8.80e-03,4.00e-04,
79,5.60e-01,8.80e-03,9.60e-04,
80,5.60e-01,1.04e-02,-3.20e-04,
81,5.60e-01,1.12e-02,2.40e-04,
82,5.60e-01,8.80e-03,4.00e-04,
83,5.60e-01,1.04e-02,8.00e-05,
84,5.60e-01,8.80e-03,3.20e-04,
85,5.60e-01,1.04e-02,8.00e-04,
86,5.60e-01,1.04e-02,4.00e-04,
87,5.60e-01,8.00e-03,8.00e-04,
88,5.60e-01,8.80e-03,1.60e-04,
89,5.60e-01,8.80e-03,4.00e-04,
90,5.60e-01,8.00e-03,8.80e-04,
91,5.60e-01,6.40e-03,5.60e-04,
92,5.60e-01,8.80e-03,4.00e-04,
93,5.60e-01,8.00e-03,4.00e-04,
94,5.60e-01,8.80e-03,-2.40e-04,
95,5.60e-01,8.00e-03,-8.00e-05,
96,5.60e-01,8.00e-03,4.80e-04,
97,5.60e-01,1.04e-02,8.00e-05,
98,5.60e-01,8.00e-03,8.00e-04,
99,5.60e-01,8.80e-03,1.60e-04,
100,5.60e-01,8.80e-03,5.60e-04,
101,5.60e-01,1.04e-02,4.00e-04,
102,5.60e-01,1.04e-02,2.40e-04,
103,5.60e-01,8.00e-03,-2.40e-04,
104,5.60e-01,8.00e-03,5.60e-04,
105,5.60e-01,1.12e-02,8.00e-05,
106,5.60e-01,8.80e-03,3.20e-04,
107,5.60e-01,8.80e-03,8.00e-05,
108,5.60e-01,1.04e-02,1.60e-04,
109,5.60e-01,1.04e-02,9.60e-04,
110,5.60e-01,8.80e-03,3.20e-04,
111,5.60e-01,8.80e-03,7.20e-04,
112,5.60e-01,8.80e-03,9.60e-04,
113,5.60e-01,8.80e-03,3.20e-04,
114,5.60e-01,8.80e-03,3.20e-04,
115,5.60e-01,8.00e-03,8.00e-04,
116,5.60e-01,8.80e-03,1.60e-04,
117,5.60e-01,6.40e-03,8.00e-04,
118,5.60e-01,8.80e-03,8.00e-05,
119,5.60e-01,6.40e-03,2.40e-04,
120,5.60e-01,8.00e-03,4.00e-04,
121,5.60e-01,8.80e-03,4.00e-04,
122,5.60e-01,8.00e-03,3.20e-04,
123,5.60e-01,8.00e-03,5.60e-04,
124,5.60e-01,8.00e-03,4.80e-04,
125,5.60e-01,6.40e-03,1.12e-03,
126,5.60e-01,6.40e-03,4.00e-04,
127,5.60e-01,5.60e-03,7.20e-04,
128,5.60e-01,8.00e-03,1.60e-04,
129,5.60e-01,1.04e-02,-2.40e-04,
130,5.60e-01,6.40e-03,5.60e-04,
131,5.60e-01,8.00e-03,-2.40e-04,
132,5.60e-01,6.40e-03,-1.60e-04,
133,5.60e-01,8.80e-03,1.60e-04,
134,5.60e-01,8.00e-03,4.00e-04,
135,5.60e-01,8.00e-03,4.00e-04,
136,5.60e-01,8.00e-03,-8.00e-05,
137,5.60e-01,8.00e-03,7.20e-04,
138,5.60e-01,8.80e-03,5.60e-04,
139,5.60e-01,8.00e-03,-4.00e-04,
140,5.60e-01,6.40e-03,3.20e-04,
141,5.60e-01,6.40e-03,1.60e-04,
142,5.60e-01,8.00e-03,3.20e-04,
143,5.60e-01,8.00e-03,-8.00e-05,
144,5.60e-01,1.04e-02,-3.20e-04,
145,5.60e-01,6.40e-03,4.00e-04,
146,5.60e-01,6.40e-03,-4.00e-04,
147,5.60e-01,8.00e-03,-4.00e-04,
148,5.60e-01,8.00e-03,5.60e-04,
149,5.60e-01,8.00e-03,-8.00e-05,
150,5.60e-01,6.40e-03,4.80e-04,
151,5.60e-01,8.00e-03,2.40e-04,
152,5.60e-01,5.60e-03,2.40e-04,
153,5.60e-01,8.00e-03,1.60e-04,
154,5.60e-01,8.80e-03,-8.00e-05,
155,5.60e-01,6.40e-03,8.00e-05,
156,5.60e-01,8.00e-03,8.80e-04,
157,5.60e-01,8.00e-03,-4.80e-04,
158,5.60e-01,8.00e-03,4.00e-04,
159,5.60e-01,8.00e-03,8.00e-04,
160,5.60e-01,6.40e-03,5.60e-04,
161,5.60e-01,5.60e-03,1.60e-04,
162,5.60e-01,5.60e-03,4.00e-04,
163,5.60e-01,5.60e-03,5.60e-04,
164,4.00e-01,6.40e-03,-2.40e-04,
165,5.60e-01,6.40e-03,-8.00e-05,
166,4.00e-01,4.00e-03,3.20e-04,
167,4.00e-01,4.00e-03,-2.40e-04,
168,4.00e-01,5.60e-03,-8.00e-05,
169,4.00e-01,6.40e-03,-1.60e-04,
170,4.00e-01,6.40e-03,1.60e-04,
171,4.00e-01,8.00e-03,1.60e-04,
172,4.00e-01,6.40e-03,-6.40e-04,
173,4.00e-01,5.60e-03,4.80e-04,
174,4.00e-01,8.00e-03,2.40e-04,
175,4.00e-01,8.00e-03,4.00e-04,
176,4.00e-01,4.00e-03,4.80e-04,
177,4.00e-01,5.60e-03,1.60e-04,
178,4.00e-01,5.60e-03,-2.40e-04,
179,4.00e-01,6.40e-03,-1.60e-04,
180,4.00e-01,6.40e-03,2.40e-04,
181,4.00e-01,6.40e-03,-8.00e-05,
182,4.00e-01,5.60e-03,-4.00e-04,
183,4.00e-01,6.40e-03,2.40e-04,
184,4.00e-01,6.40e-03,-1.60e-04,
185,4.00e-01,8.80e-03,2.40e-04,
186,4.00e-01,6.40e-03,2.40e-04,
187,4.00e-01,4.00e-03,8.00e-05,
188,4.00e-01,6.40e-03,2.40e-04,
189,4.00e-01,5.60e-03,2.40e-04,
190,4.00e-01,3.20e-03,8.00e-04,
191,4.00e-01,4.00e-03,3.20e-04,
192,4.00e-01,5.60e-03,-1.60e-04,
193,4.00e-01,4.00e-03,4.80e-04,
194,4.00e-01,5.60e-03,4.00e-04,
195,4.00e-01,5.60e-03,-8.00e-05,
196,4.00e-01,4.00e-03,-1.60e-04,
197,4.00e-01,4.00e-03,2.40e-04,
198,4.00e-01,5.60e-03,4.00e-04,
199,4.00e-01,5.60e-03,-4.80e-04,
200,4.00e-01,4.00e-03,4.00e-04,
201,4.00e-01,4.00e-03,7.20e-04,
202,4.00e-01,4.00e-03,4.00e-04,
203,4.00e-01,4.00e-03,3.20e-04,
204,4.00e-01,3.20e-03,8.00e-05,
205,4.00e-01,4.00e-03,1.60e-04,
206,4.00e-01,5.60e-03,1.60e-04,
207,4.00e-01,5.60e-03,-6.40e-04,
208,4.00e-01,5.60e-03,4.00e-04,
209,4.00e-01,5.60e-03,-8.00e-05,
210,4.00e-01,5.60e-03,8.00e-05,
211,4.00e-01,5.60e-03,-8.00e-05,
212,4.00e-01,5.60e-03,1.60e-04,
213,4.00e-01,4.00e-03,8.00e-05,
214,4.00e-01,5.60e-03,-2.40e-04,
215,4.00e-01,5.60e-03,1.60e-04,
216,4.00e-01,4.00e-03,3.20e-04,
217,4.00e-01,3.20e-03,-2.40e-04,
218,4.00e-01,4.00e-03,-8.00e-05,
219,4.00e-01,5.60e-03,-8.00e-05,
220,4.00e-01,4.00e-03,-8.00e-05,
221,4.00e-01,4.00e-03,8.00e-05,
222,4.00e-01,6.40e-03,-4.00e-04,
223,4.00e-01,4.00e-03,8.80e-04,
224,4.00e-01,4.00e-03,-1.60e-04,
225,4.00e-01,4.00e-03,-8.00e-05,
226,4.00e-01,3.20e-03,8.80e-04,
227,4.00e-01,5.60e-03,7.20e-04,
228,4.00e-01,3.20e-03,-2.40e-04,
229,4.00e-01,1.60e-03,-8.00e-05,
230,4.00e-01,4.00e-03,-8.00e-05,
231,4.00e-01,3.20e-03,5.60e-04,
232,4.00e-01,3.20e-03,-4.80e-04,
233,4.00e-01,1.60e-03,8.00e-05,
234,4.00e-01,3.20e-03,4.80e-04,
235,4.00e-01,5.60e-03,-1.60e-04,
236,4.00e-01,3.20e-03,2.40e-04,
237,4.00e-01,3.20e-03,-1.60e-04,
238,4.00e-01,3.20e-03,-3.20e-04,
239,4.00e-01,3.20e-03,2.40e-04,
240,4.00e-01,4.00e-03,-3.20e-04,
241,4.00e-01,8.00e-04,1.60e-04,
242,4.00e-01,3.20e-03,8.00e-05,
243,4.00e-01,4.00e-03,-7.20e-04,
244,4.00e-01,3.20e-03,-2.40e-04,
245,4.00e-01,3.20e-03,-4.80e-04,
246,3.20e-01,3.20e-03,-4.00e-04,
247,4.00e-01,3.20e-03,-4.00e-04,
248,3.20e-01,3.20e-03,-4.80e-04,
249,3.20e-01,4.00e-03,-8.00e-05,
250,3.20e-01,4.00e-03,-8.00e-05,
251,3.20e-01,4.00e-03,-1.60e-04,
252,3.20e-01,3.20e-03,8.00e-04,
253,3.20e-01,4.00e-03,-3.20e-04,
254,3.20e-01,3.20e-03,3.20e-04,
255,3.20e-01,3.20e-03,2.40e-04,
256,3.20e-01,5.60e-03,-4.00e-04,
257,3.20e-01,3.20e-03,-2.40e-04,
258,3.20e-01,3.20e-03,1.60e-04,
259,3.20e-01,1.60e-03,-4.00e-04,
260,3.20e-01,4.00e-03,2.40e-04,
261,3.20e-01,3.20e-03,3.20e-04,
262,3.20e-01,1.60e-03,3.20e-04,
263,3.20e-01,8.00e-04,-8.00e-05,
264,3.20e-01,4.00e-03,-7.20e-04,
265,3.20e-01,1.60e-03,7.20e-04,
266,3.20e-01,8.00e-04,7.20e-04,
267,3.20e-01,1.60e-03,-3.20e-04,
268,3.20e-01,8.00e-04,8.00e-05,
269,3.20e-01,1.60e-03,4.80e-04,
270,3.20e-01,8.00e-04,-1.60e-04,
271,3.20e-01,1.60e-03,-4.00e-04,
272,3.20e-01,1.60e-03,-4.80e-04,
273,3.20e-01,1.60e-03,4.00e-04,
274,3.20e-01,8.00e-04,-3.20e-04,
275,3.20e-01,1.60e-03,-8.80e-04,
276,3.20e-01,8.00e-04,4.00e-04,
277,3.20e-01,1.60e-03,7.20e-04,
278,3.20e-01,1.60e-03,-2.40e-04,
279,3.20e-01,8.00e-04,2.40e-04,
280,3.20e-01,1.60e-03,1.60e-04,
281,3.20e-01,1.60e-03,2.40e-04,
282,3.20e-01,1.60e-03,-4.00e-04,
283,3.20e-01,8.00e-04,-4.00e-04,
284,3.20e-01,1.60e-03,-8.00e-05,
285,3.20e-01,3.20e-03,3.20e-04,
286,3.20e-01,4.00e-03,-7.20e-04,
287,3.20e-01,1.60e-03,-1.60e-04,
288,3.20e-01,1.60e-03,-3.20e-04,
289,3.20e-01,4.00e-03,-3.20e-04,
290,3.20e-01,1.60e-03,-2.40e-04,
291,3.20e-01,8.00e-04,-8.00e-05,
292,3.20e-01,1.60e-03,2.40e-04,
293,3.20e-01,4.00e-03,4.00e-04,
294,3.20e-01,8.00e-04,-4.80e-04,
295,3.20e-01,8.00e-04,-6.40e-04,
296,3.20e-01,8.00e-04,4.00e-04,
297,3.20e-01,1.60e-03,-4.00e-04,
298,3.20e-01,8.00e-04,-4.00e-04,
299,3.20e-01,1.60e-03,2.40e-04,
300,3.20e-01,8.00e-04,5.60e-04,
301,3.20e-01,1.60e-03,-2.40e-04,
302,3.20e-01,-8.00e-04,4.80e-04,
303,3.20e-01,-8.00e-04,8.00e-05,
304,3.20e-01,8.00e-04,7.20e-04,
305,3.20e-01,8.00e-04,2.40e-04,
306,3.20e-01,8.00e-04,-8.00e-05,
307,3.20e-01,-8.00e-04,8.00e-05,
308,3.20e-01,8.00e-04,3.20e-04,
309,3.20e-01,8.00e-04,-8.80e-04,
310,3.20e-01,-8.00e-04,-8.00e-05,
311,3.20e-01,-8.00e-04,4.80e-04,
312,3.20e-01,1.60e-03,-4.80e-04,
313,3.20e-01,-8.00e-04,-1.60e-04,
314,3.20e-01,8.00e-04,-8.00e-05,
315,3.20e-01,-8.00e-04,-1.60e-04,
316,3.20e-01,8.00e-04,8.00e-05,
317,3.20e-01,-1.60e-03,1.60e-04,
318,3.20e-01,-1.60e-03,-1.60e-04,
319,3.20e-01,-1.60e-03,7.20e-04,
320,3.20e-01,1.60e-03,-2.40e-04,
321,3.20e-01,-8.00e-04,-3.20e-04,
322,3.20e-01,-8.00e-04,-2.40e-04,
323,3.20e-01,8.00e-04,-2.40e-04,
324,3.20e-01,1.60e-03,-8.00e-04,
325,3.20e-01,-1.60e-03,2.40e-04,
326,3.20e-01,8.00e-04,-4.00e-04,
327,3.20e-01,1.60e-03,-8.00e-05,
328,3.20e-01,1.60e-03,8.00e-05,
329,3.20e-01,-8.00e-04,8.00e-05,
330,3.20e-01,1.60e-03,-4.80e-04,
331,3.20e-01,8.00e-04,4.80e-04,
332,3.20e-01,8.00e-04,8.00e-05,
333,3.20e-01,-1.60e-03,-4.80e-04,
334,3.20e-01,8.00e-04,-3.20e-04,
335,3.20e-01,1.60e-03,8.00e-05,
336,3.20e-01,8.00e-04,-3.20e-04,
337,3.20e-01,-1.60e-03,-8.00e-05,
338,1.60e-01,8.00e-04,-3.20e-04,
339,3.20e-01,8.00e-04,-4.00e-04,
340,1.60e-01,-8.00e-04,-1.60e-04,
341,1.60e-01,8.00e-04,-8.00e-05,
342,1.60e-01,8.00e-04,-1.60e-04,
343,1.60e-01,8.00e-04,4.00e-04,
344,1.60e-01,-8.00e-04,2.40e-04,
345,1.60e-01,-8.00e-04,-4.00e-04,
346,1.60e-01,-8.00e-04,1.60e-04,
347,1.60e-01,-8.00e-04,-1.60e-04,
348,1.60e-01,-8.00e-04,-6.40e-04,
349,1.60e-01,8.00e-04,-3.20e-04,
350,1.60e-01,-8.00e-04,8.00e-05,
351,1.60e-01,8.00e-04,-4.80e-04,
352,1.60e-01,-8.00e-04,2.40e-04,
353,1.60e-01,-1.60e-03,8.00e-05,
354,1.60e-01,-2.40e-03,-1.60e-04,
355,1.60e-01,-8.00e-04,-2.40e-04,
356,1.60e-01,-1.60e-03,5.60e-04,
357,1.60e-01,-1.60e-03,-7.20e-04,
358,1.60e-01,-2.40e-03,-3.20e-04,
359,1.60e-01,-1.60e-03,-6.40e-04,
360,1.60e-01,-8.00e-04,-6.40e-04,
361,1.60e-01,-2.40e-03,-8.00e-04,
362,1.60e-01,-1.60e-03,-3.20e-04,
363,1.60e-01,-1.60e-03,-6.40e-04,
364,1.60e-01,3.20e-03,-4.00e-04,
365,1.60e-01,-8.00e-04,-4.00e-04,
366,1.60e-01,-1.60e-03,-8.00e-04,
367,1.60e-01,-8.00e-04,8.00e-05,
368,1.60e-01,-1.60e-03,3.20e-04,
369,1.60e-01,-1.60e-03,-1.60e-04,
370,1.60e-01,-1.60e-03,-3.20e-04,
371,1.60e-01,-1.60e-03,1.60e-04,
372,1.60e-01,-1.60e-03,-4.00e-04,
373,1.60e-01,-8.00e-04,-8.80e-04,
374,1.60e-01,-1.60e-03,-4.80e-04,
375,1.60e-01,-2.40e-03,-1.60e-04,
376,1.60e-01,-2.40e-03,-1.60e-04,
377,1.60e-01,-1.60e-03,1.60e-04,
378,1.60e-01,-8.00e-04,-4.80e-04,
379,1.60e-01,-2.40e-03,8.00e-05,
380,1.60e-01,-2.40e-03,-1.60e-04,
381,1.60e-01,-1.60e-03,-3.20e-04,
382,1.60e-01,-1.60e-03,-3.20e-04,
383,1.60e-01,-4.00e-03,4.00e-04,
384,1.60e-01,-2.40e-03,-4.80e-04,
385,1.60e-01,-2.40e-03,-6.40e-04,
386,1.60e-01,-2.40e-03,-2.40e-04,
387,1.60e-01,-1.60e-03,-1.60e-04,
388,1.60e-01,-4.00e-03,-7.20e-04,
389,1.60e-01,-4.00e-03,-7.20e-04,
390,1.60e-01,-2.40e-03,-4.80e-04,
391,1.60e-01,-2.40e-03,-2.40e-04,
392,1.60e-01,-4.00e-03,1.60e-04,
393,1.60e-01,-4.00e-03,-6.40e-04,
394,1.60e-01,-1.60e-03,-4.80e-04,
395,1.60e-01,-4.00e-03,3.20e-04,
396,1.60e-01,-2.40e-03,-1.60e-04,
397,1.60e-01,-1.60e-03,-7.20e-04,
398,1.60e-01,-4.80e-03,-4.80e-04,
399,1.60e-01,-2.40e-03,-8.00e-04,
400,1.60e-01,-1.60e-03,-4.00e-04,
401,1.60e-01,-1.60e-03,-4.00e-04,
402,1.60e-01,-1.60e-03,-2.40e-04,
403,1.60e-01,-2.40e-03,-3.20e-04,
404,1.60e-01,-8.00e-04,-8.00e-05,
405,1.60e-01,-1.60e-03,-8.00e-04,
406,1.60e-01,-4.00e-03,-3.20e-04,
407,1.60e-01,-2.40e-03,-7.20e-04,
408,1.60e-01,-2.40e-03,-4.00e-04,
409,1.60e-01,-2.40e-03,-4.80e-04,
410,1.60e-01,-2.40e-03,-2.40e-04,
411,1.60e-01,-2.40e-03,-1.36e-03,
412,1.60e-01,-2.40e-03,-8.00e-04,
413,1.60e-01,-2.40e-03,-1.60e-04,
414,1.60e-01,-1.60e-03,-4.00e-04,
415,1.60e-01,-1.60e-03,-1.04e-03,
416,1.60e-01,-4.80e-03,-1.60e-04,
417,1.60e-01,-1.60e-03,-1.60e-04,
418,1.60e-01,-8.00e-04,-4.00e-04,
419,8.00e-02,-4.00e-03,-8.00e-05,
420,8.00e-02,-2.40e-03,-8.00e-05,
421,8.00e-02,-2.40e-03,-7.20e-04,
422,1.60e-01,-4.00e-03,-3.20e-04,
423,8.00e-02,-2.40e-03,-3.20e-04,
424,8.00e-02,-2.40e-03,-8.80e-04,
425,8.00e-02,-2.40e-03,-4.80e-04,
426,8.00e-02,-4.00e-03,-1.60e-04,
427,8.00e-02,-4.00e-03,-1.60e-04,
428,8.00e-02,-2.40e-03,-1.60e-04,
429,8.00e-02,-6.40e-03,8.00e-05,
430,8.00e-02,-4.80e-03,-7.20e-04,
431,8.00e-02,-4.00e-03,-2.40e-04,
432,8.00e-02,-4.00e-03,-1.60e-04,
433,8.00e-02,-4.00e-03,-2.40e-04,
434,8.00e-02,-6.40e-03,-8.80e-04,
435,8.00e-02,-4.80e-03,-4.80e-04,
436,8.00e-02,-4.00e-03,-4.00e-04,
437,8.00e-02,-6.40e-03,-3.20e-04,
438,8.00e-02,-4.80e-03,-1.04e-03,
439,8.00e-02,-4.00e-03,-8.00e-04,
440,8.00e-02,-4.80e-03,2.40e-04,
441,8.00e-02,-4.00e-03,-7.20e-04,
442,8.00e-02,-4.80e-03,-8.80e-04,
443,8.00e-02,-6.40e-03,1.60e-04,
444,8.00e-02,-4.80e-03,-8.00e-05,
445,8.00e-02,-4.80e-03,-8.00e-04,
446,8.00e-02,-4.00e-03,-3.20e-04,
447,8.00e-02,-4.80e-03,-4.00e-04,
448,8.00e-02,-4.80e-03,-8.80e-04,
449,8.00e-02,-4.00e-03,-1.36e-03,
450,8.00e-02,-2.40e-03,-8.80e-04,
451,8.00e-02,-4.00e-03,-4.00e-04,
452,8.00e-02,-6.40e-03,8.00e-05,
453,8.00e-02,-4.00e-03,-1.04e-03,
454,8.00e-02,-1.60e-03,-2.40e-04,
455,8.00e-02,-4.80e-03,-8.00e-05,
456,8.00e-02,-4.00e-03,-4.80e-04,
457,8.00e-02,-4.00e-03,-8.80e-04,
458,8.00e-02,-4.80e-03,2.40e-04,
459,8.00e-02,-4.00e-03,-3.20e-04,
460,8.00e-02,-4.80e-03,-2.40e-04,
461,8.00e-02,-4.80e-03,-7.20e-04,
462,8.00e-02,-4.80e-03,-4.00e-04,
463,8.00e-02,-4.00e-03,-3.20e-04,
464,8.00e-02,-4.00e-03,-4.80e-04,
465,8.00e-02,-4.80e-03,-1.20e-03,
466,8.00e-02,-4.80e-03,-4.00e-04,
467,8.00e-02,-4.80e-03,-1.60e-04,
468,8.00e-02,-4.00e-03,-6.40e-04,
469,8.00e-02,-7.20e-03,-1.60e-04,
470,8.00e-02,-4.80e-03,8.00e-05,
471,8.00e-02,-4.80e-03,-4.80e-04,
472,8.00e-02,-6.40e-03,-2.40e-04,
473,8.00e-02,-4.80e-03,-4.80e-04,
474,8.00e-02,-6.40e-03,-1.04e-03,
475,8.00e-02,-6.40e-03,-7.20e-04,
476,8.00e-02,-6.40e-03,-8.80e-04,
477,8.00e-02,-4.00e-03,-7.20e-04,
478,8.00e-02,-4.80e-03,-1.60e-04,
479,8.00e-02,-4.80e-03,-1.60e-04,
480,8.00e-02,-6.40e-03,-8.80e-04,
481,8.00e-02,-6.40e-03,-2.40e-04,
482,8.00e-02,-4.00e-03,-3.20e-04,
483,8.00e-02,-6.40e-03,-3.20e-04,
484,8.00e-02,-8.80e-03,-8.00e-04,
485,8.00e-02,-6.40e-03,-6.40e-04,
486,8.00e-02,-4.00e-03,-8.80e-04,
487,8.00e-02,-7.20e-03,-3.20e-04,
488,8.00e-02,-4.80e-03,-1.28e-03,
489,8.00e-02,-6.40e-03,-6.40e-04,
490,8.00e-02,-7.20e-03,-3.20e-04,
491,8.00e-02,-7.20e-03,-8.00e-04,
492,8.00e-02,-4.00e-03,-9.60e-04,
493,8.00e-02,-6.40e-03,-1.60e-04,
494,8.00e-02,-7.20e-03,-4.80e-04,
495,8.00e-02,-6.40e-03,-9.60e-04,
496,8.00e-02,-4.80e-03,-1.28e-03,
497,8.00e-02,-4.80e-03,-4.80e-04,
498,8.00e-02,-4.80e-03,-4.80e-04,
499,8.00e-02,-7.20e-03,-1.36e-03,
500,8.00e-02,-4.80e-03,-1.04e-03,
501,8.00e-02,-4.80e-03,-8.00e-04,
502,8.00e-02,-4.80e-03,-2.40e-04,
503,8.00e-02,-4.80e-03,-8.80e-04,
504,-8.00e-02,-6.40e-03,-2.40e-04,
505,8.00e-02,-7.20e-03,-4.80e-04,
506,-8.00e-02,-4.80e-03,-8.80e-04,
507,-8.00e-02,-4.00e-03,-7.20e-04,
508,-8.00e-02,-7.20e-03,-2.40e-04,
509,-8.00e-02,-6.40e-03,-8.80e-04,
510,8.00e-02,-6.40e-03,-6.40e-04,
511,-8.00e-02,-6.40e-03,-3.20e-04,
512,-8.00e-02,-6.40e-03,-4.80e-04,
513,-8.00e-02,-6.40e-03,-9.60e-04,
514,-8.00e-02,-8.80e-03,-7.20e-04,
515,-8.00e-02,-7.20e-03,-8.80e-04,
516,-8.00e-02,-6.40e-03,-2.40e-04,
517,-8.00e-02,-4.80e-03,-4.80e-04,
518,-8.00e-02,-7.20e-03,-4.80e-04,
519,-8.00e-02,-8.80e-03,-8.00e-05,
520,-8.00e-02,-8.80e-03,-4.80e-04,
521,-8.00e-02,-6.40e-03,-8.00e-04,
522,-8.00e-02,-9.60e-03,-8.00e-05,
523,-8.00e-02,-8.80e-03,-6.40e-04,
524,-8.00e-02,-8.80e-03,-1.28e-03,
525,-8.00e-02,-7.20e-03,-4.80e-04,
526,-8.00e-02,-9.60e-03,-8.80e-04,
527,-8.00e-02,-6.40e-03,-1.36e-03,
528,-8.00e-02,-9.60e-03,-9.60e-04,
529,-8.00e-02,-8.80e-03,-1.60e-04,
530,-8.00e-02,-7.20e-03,-8.80e-04,
531,-8.00e-02,-7.20e-03,-4.80e-04,
532,-8.00e-02,-8.80e-03,-4.80e-04,
533,-8.00e-02,-8.80e-03,-4.00e-04,
534,-8.00e-02,-8.80e-03,-8.00e-04,
535,-8.00e-02,-9.60e-03,-6.40e-04,
536,-8.00e-02,-8.80e-03,-8.80e-04,
537,-8.00e-02,-9.60e-03,-4.80e-04,
538,-8.00e-02,-7.20e-03,-1.04e-03,
539,-8.00e-02,-8.80e-03,-1.20e-03,
540,-8.00e-02,-7.20e-03,-9.60e-04,
541,-8.00e-02,-8.80e-03,-7.20e-04,
542,-8.00e-02,-7.20e-03,-1.20e-03,
543,-8.00e-02,-8.80e-03,-4.80e-04,
544,-8.00e-02,-8.80e-03,-4.00e-04,
545,-8.00e-02,-7.20e-03,-6.40e-04,
546,-8.00e-02,-9.60e-03,-9.60e-04,
547,-8.00e-02,-7.20e-03,-7.20e-04,
548,-8.00e-02,-7.20e-03,-8.80e-04,
549,-8.00e-02,-7.20e-03,-8.80e-04,
550,-8.00e-02,-9.60e-03,-1.20e-03,
551,-8.00e-02,-8.80e-03,-1.44e-03,
552,-8.00e-02,-6.40e-03,-4.80e-04,
553,-8.00e-02,-7.20e-03,-4.00e-04,
554,-8.00e-02,-6.40e-03,-7.20e-04,
555,-8.00e-02,-8.80e-03,-8.00e-04,
556,-8.00e-02,-7.20e-03,-1.60e-04,
557,-8.00e-02,-6.40e-03,-7.20e-04,
558,-8.00e-02,-8.80e-03,-8.80e-04,
559,-8.00e-02,-9.60e-03,-8.00e-04,
560,-8.00e-02,-7.20e-03,-3.20e-04,
561,-8.00e-02,-4.80e-03,-1.04e-03,
562,-8.00e-02,-8.80e-03,-6.40e-04,
563,-8.00e-02,-8.80e-03,-7.20e-04,
564,-8.00e-02,-7.20e-03,-9.60e-04,
565,-8.00e-02,-8.80e-03,-8.80e-04,
566,-8.00e-02,-8.80e-03,-6.40e-04,
567,-8.00e-02,-8.80e-03,-4.00e-04,
568,-8.00e-02,-8.80e-03,-8.00e-05,
569,-8.00e-02,-9.60e-03,-1.60e-04,
570,-8.00e-02,-9.60e-03,-1.04e-03,
571,-8.00e-02,-8.80e-03,-4.80e-04,
572,-8.00e-02,-1.12e-02,-4.00e-04,
573,-8.00e-02,-8.80e-03,-1.04e-03,
574,-8.00e-02,-8.80e-03,-1.20e-03,
575,-8.00e-02,-8.80e-03,-3.20e-04,
576,-8.00e-02,-9.60e-03,-9.60e-04,
577,-8.00e-02,-8.80e-03,-8.80e-04,
578,-8.00e-02,-8.80e-03,-4.80e-04,
579,-8.00e-02,-1.12e-02,8.00e-05,
580,-8.00e-02,-9.60e-03,-9.60e-04,
581,-8.00e-02,-8.80e-03,-6.40e-04,
582,-8.00e-02,-9.60e-03,-8.00e-04,
583,-8.00e-02,-9.60e-03,-4.00e-04,
584,-8.00e-02,-9.60e-03,-8.80e-04,
585,-8.00e-02,-9.60e-03,-1.20e-03,
586,-8.00e-02,-1.12e-02,-9.60e-04,
587,-8.00e-02,-9.60e-03,-6.40e-04,
588,-1.60e-01,-1.12e-02,-8.00e-04,
589,-1.60e-01,-7.20e-03,-1.28e-03,
590,-8.00e-02,-9.60e-03,-1.04e-03,
591,-8.00e-02,-9.60e-03,-7.20e-04,
592,-1.60e-01,-9.60e-03,-9.60e-04,
593,-1.60e-01,-9.60e-03,-8.00e-04,
594,-1.60e-01,-9.60e-03,-4.00e-04,
595,-8.00e-02,-8.80e-03,-4.80e-04,
596,-1.60e-01,-9.60e-03,-1.04e-03,
597,-1.60e-01,-1.12e-02,-7.20e-04,
598,-1.60e-01,-8.80e-03,-8.00e-04,
599,-1.60e-01,-8.80e-03,-1.28e-03,
600,-1.60e-01,-1.12e-02,-8.80e-04,
601,-1.60e-01,-8.80e-03,-1.20e-03,
602,-1.60e-01,-7.20e-03,-1.04e-03,
