data/vertical/measurement17.csv

X,CH1,CH2,CH4,Start,Increment,
Sequence,Volt,Volt,Volt,-1.156000e-02,8.000000e-07
0,6.40e-01,4.00e-03,-4.00e-04,
1,6.40e-01,6.40e-03,0.00e+00,
2,6.40e-01,5.60e-03,4.00e-04,
3,6.40e-01,6.40e-03,0.00e+00,
4,6.40e-01,6.40e-03,-4.00e-04,
5,6.40e-01,4.00e-03,2.00e-04,
6,6.40e-01,6.40e-03,-4.00e-04,
7,6.40e-01,6.40e-03,-2.00e-04,
8,6.40e-01,5.60e-03,-4.00e-04,
9,6.40e-01,6.40e-03,-4.00e-04,
10,6.40e-01,8.00e-03,-6.00e-04,
11,6.40e-01,8.00e-03,2.00e-04,
12,6.40e-01,5.60e-03,-4.00e-04,
13,6.40e-01,6.40e-03,0.00e+00,
14,6.40e-01,8.00e-03,0.00e+00,
15,6.40e-01,8.80e-03,-2.00e-04,
16,6.40e-01,4.00e-03,0.00e+00,
17,6.40e-01,6.40e-03,-2.00e-04,
18,6.40e-01,6.40e-03,-4.00e-04,
19,6.40e-01,3.20e-03,8.00e-04,
20,6.40e-01,5.60e-03,-2.00e-04,
21,6.40e-01,5.60e-03,-4.00e-04,
22,6.40e-01,5.60e-03,0.00e+00,
23,6.40e-01,4.00e-03,0.00e+00,
24,6.40e-01,5.60e-03,-6.00e-04,
25,6.40e-01,3.20e-03,2.00e-04,
26,6.40e-01,5.60e-03,-2.00e-04,
27,6.40e-01,5.60e-03,-4.00e-04,
28,6.40e-01,4.00e-03,-4.00e-04,
29,6.40e-01,5.60e-03,0.00e+00,
30,6.40e-01,5.60e-03,-2.00e-04,
31,6.40e-01,6.40e-03,0.00e+00,
32,6.40e-01,4.00e-03,-4.00e-04,
33,6.40e-01,6.40e-03,0.00e+00,
34,6.40e-01,6.40e-03,4.00e-04,
35,6.40e-01,6.40e-03,-2.00e-04,
36,6.40e-01,4.00e-03,0.00e+00,
37,6.40e-01,5.60e-03,8.00e-04,
38,6.40e-01,6.40e-03,0.00e+00,
39,6.40e-01,3.20e-03,0.00e+00,
40,6.40e-01,4.00e-03,2.00e-04,
41,6.40e-01,5.60e-03,0.00e+00,
42,6.40e-01,5.60e-03,-4.00e-04,
43,6.40e-01,3.20e-03,2.00e-04,
44,6.40e-01,4.00e-03,-1.00e-03,
45,6.40e-01,4.00e-03,0.00e+00,
46,6.40e-01,4.00e-03,2.00e-04,
47,6.40e-01,4.00e-03,-6.00e-04,
48,6.40e-01,4.00e-03,-4.00e-04,
49,6.40e-01,5.60e-03,2.00e-04,
50,6.40e-01,3.20e-03,-4.00e-04,
51,6.40e-01,3.20e-03,0.00e+00,
52,6.40e-01,3.20e-03,-4.00e-04,
53,6.40e-01,4.00e-03,-2.00e-04,
54,6.40e-01,4.00e-03,2.00e-04,
55,6.40e-01,3.20e-03,-2.00e-04,
56,6.40e-01,3.20e-03,-6.00e-04,
57,6.40e-01,3.20e-03,8.00e-04,
58,6.40e-01,5.60e-03,-2.00e-04,
59,6.40e-01,3.20e-03,-4.00e-04,
60,6.40e-01,3.20e-03,-2.00e-04,
61,6.40e-01,6.40e-03,0.00e+00,
62,6.40e-01,4.00e-03,-6.00e-04,
63,6.40e-01,4.00e-03,-4.00e-04,
64,6.40e-01,4.00e-03,-4.00e-04,
65,6.40e-01,5.60e-03,0.00e+00,
66,6.40e-01,4.00e-03,0.00e+00,
67,6.40e-01,5.60e-03,-4.00e-04,
68,6.40e-01,4.00e-03,-2.00e-04,
69,6.40e-01,5.60e-03,2.00e-04,
70,6.40e-01,3.20e-03,-4.00e-04,
71,6.40e-01,8.00e-04,2.00e-04,
72,6.40e-01,4.00e-03,0.00e+00,
73,5.60e-01,3.20e-03,0.00e+00,
74,6.40e-01,1.60e-03,2.00e-04,
75,6.40e-01,3.20e-03,2.00e-04,
76,5.60e-01,3.20e-03,-2.00e-04,
77,5.60e-01,1.60e-03,2.00e-04,
78,5.60e-01,1.60e-03,-1.00e-03,
79,5.60e-01,3.20e-03,-4.00e-04,
80,5.60e-01,3.20e-03,-2.00e-04,
81,5.60e-01,5.60e-03,-6.00e-04,
82,5.60e-01,3.20e-03,-1.00e-03,
83,5.60e-01,4.00e-03,2.00e-04,
84,5.60e-01,5.60e-03,-4.00e-04,
85,5.60e-01,4.00e-03,-1.00e-03,
86,5.60e-01,4.00e-03,0.00e+00,
87,5.60e-01,6.40e-03,-4.00e-04,
88,5.60e-01,5.60e-03,-4.00e-04,
89,5.60e-01,3.20e-03,4.00e-04,
90,5.60e-01,4.00e-03,-4.00e-04,
91,5.60e-01,3.20e-03,-2.00e-04,
92,5.60e-01,3.20e-03,2.00e-04,
93,5.60e-01,1.60e-03,-4.00e-04,
94,5.60e-01,3.20e-03,-4.00e-04,
95,5.60e-01,1.60e-03,8.00e-04,
96,5.60e-01,8.00e-04,-1.00e-03,
97,5.60e-01,8.00e-04,-2.00e-04,
98,5.60e-01,1.60e-03,0.00e+00,
99,5.60e-01,1.60e-03,0.00e+00,
100,5.60e-01,8.00e-04,-4.00e-04,
101,5.60e-01,1.60e-03,0.00e+00,
102,5.60e-01,1.60e-03,-1.00e-03,
103,5.60e-01,8.00e-04,-2.00e-04,
104,5.60e-01,8.00e-04,-4.00e-04,
105,5.60e-01,4.00e-03,-1.00e-03,
106,5.60e-01,1.60e-03,0.00e+00,
107,5.60e-01,1.60e-03,2.00e-04,
108,5.60e-01,1.60e-03,-1.00e-03,
109,5.60e-01,3.20e-03,-4.00e-04,
110,5.60e-01,8.00e-04,0.00e+00,
111,5.60e-01,1.60e-03,-4.00e-04,
112,5.60e-01,1.60e-03,-4.00e-04,
113,5.60e-01,1.60e-03,0.00e+00,
114,5.60e-01,1.60e-03,0.00e+00,
115,5.60e-01,1.60e-03,0.00e+00,
116,5.60e-01,1.60e-03,-2.00e-04,
117,5.60e-01,8.00e-04,-4.00e-04,
118,5.60e-01,8.00e-04,-4.00e-04,
119,5.60e-01,1.60e-03,0.00e+00,
120,5.60e-01,8.00e-04,-1.00e-03,
121,5.60e-01,-8.00e-04,-4.00e-04,
122,5.60e-01,8.00e-04,-2.00e-04,
123,5.60e-01,8.00e-04,-6.00e-04,
124,5.60e-01,-2.40e-03,-4.00e-04,
125,5.60e-01,8.00e-04,-6.00e-04,
126,5.60e-01,1.60e-03,-4.00e-04,
127,5.60e-01,-8.00e-04,-2.00e-04,
128,5.60e-01,8.00e-04,-1.00e-03,
129,5.60e-01,8.00e-04,-2.00e-04,
130,5.60e-01,8.00e-04,0.00e+00,
131,5.60e-01,-8.00e-04,-4.00e-04,
132,5.60e-01,1.60e-03,-6.00e-04,
133,5.60e-01,8.00e-04,4.00e-04,
134,5.60e-01,8.00e-04,-4.00e-04,
135,5.60e-01,-1.60e-03,-1.00e-03,
136,5.60e-01,-8.00e-04,0.00e+00,
137,5.60e-01,8.00e-04,0.00e+00,
138,5.60e-01,-1.60e-03,-6.00e-04,
139,5.60e-01,-8.00e-04,0.00e+00,
140,5.60e-01,8.00e-04,-4.00e-04,
141,5.60e-01,-8.00e-04,-6.00e-04,
142,5.60e-01,-2.40e-03,-2.00e-04,
143,5.60e-01,8.00e-04,-6.00e-04,
144,5.60e-01,-8.00e-04,-4.00e-04,
145,5.60e-01,-1.60e-03,0.00e+00,
146,5.60e-01,1.60e-03,-4.00e-04,
147,5.60e-01,8.00e-04,-4.00e-04,
148,5.60e-01,-8.00e-04,-2.00e-04,
149,5.60e-01,-8.00e-04,-2.00e-04,
150,5.60e-01,8.00e-04,-4.00e-04,
151,5.60e-01,-1.60e-03,0.00e+00,
152,5.60e-01,8.00e-04,-2.00e-04,
153,5.60e-01,1.60e-03,0.00e+00,
154,5.60e-01,-8.00e-04,0.00e+00,
155,5.60e-01,-8.00e-04,-4.00e-04,
156,5.60e-01,-1.60e-03,-2.00e-04,
157,5.60e-01,-8.00e-04,0.00e+00,
158,5.60e-01,-1.60e-03,-6.00e-04,
159,4.00e-01,-8.00e-04,-6.00e-04,
160,5.60e-01,8.00e-04,0.00e+00,
161,4.00e-01,-8.00e-04,-2.00e-04,
162,5.60e-01,-1.60e-03,-1.00e-03,
163,4.00e-01,-1.60e-03,-2.00e-04,
164,4.00e-01,8.00e-04,-6.00e-04,
165,4.00e-01,-1.60e-03,-6.00e-04,
166,4.00e-01,-8.00e-04,-1.00e-03,
167,5.60e-01,8.00e-04,-2.00e-04,
168,4.00e-01,8.00e-04,-6.00e-04,
169,4.00e-01,-1.60e-03,0.00e+00,
170,4.00e-01,1.60e-03,-4.00e-04,
171,4.00e-01,1.60e-03,-6.00e-04,
172,4.00e-01,-8.00e-04,-2.00e-04,
173,4.00e-01,8.00e-04,-2.00e-04,
174,4.00e-01,8.00e-04,-4.00e-04,
175,4.00e-01,-8.00e-04,2.00e-04,
176,4.00e-01,-1.60e-03,0.00e+00,
177,4.00e-01,8.00e-04,-4.00e-04,
178,4.00e-01,-8.00e-04,0.00e+00,
179,4.00e-01,8.00e-04,-4.00e-04,
180,4.00e-01,-1.60e-03,-4.00e-04,
181,4.00e-01,-8.00e-04,2.00e-04,
182,4.00e-01,-8.00e-04,-4.00e-04,
183,4.00e-01,-1.60e-03,-4.00e-04,
184,4.00e-01,-8.00e-04,0.00e+00,
185,4.00e-01,8.00e-04,-4.00e-04,
186,4.00e-01,-8.00e-04,-1.00e-03,
187,4.00e-01,-1.60e-03,0.00e+00,
188,4.00e-01,-8.00e-04,-6.00e-04,
189,4.00e-01,-1.60e-03,-1.00e-03,
190,4.00e-01,-2.40e-03,0.00e+00,
191,4.00e-01,8.00e-04,-4.00e-04,
192,4.00e-01,-1.60e-03,-4.00e-04,
193,4.00e-01,-1.60e-03,-4.00e-04,
194,4.00e-01,-1.60e-03,-4.00e-04,
195,4.00e-01,-1.60e-03,-4.00e-04,
196,4.00e-01,-2.40e-03,2.00e-04,
197,4.00e-01,-1.60e-03,-1.00e-03,
198,4.00e-01,-2.40e-03,-2.00e-04,
199,4.00e-01,-1.60e-03,0.00e+00,
200,4.00e-01,-1.60e-03,-6.00e-04,
201,4.00e-01,-4.00e-03,-6.00e-04,
202,4.00e-01,-1.60e-03,0.00e+00,
203,4.00e-01,-1.60e-03,-1.00e-03,
204,4.00e-01,-1.60e-03,-4.00e-04,
205,4.00e-01,-8.00e-04,-4.00e-04,
206,4.00e-01,8.00e-04,-4.00e-04,
207,4.00e-01,-2.40e-03,-2.00e-04,
208,4.00e-01,-8.00e-04,-1.00e-03,
209,4.00e-01,-1.60e-03,-1.00e-03,
210,4.00e-01,-8.00e-04,-2.00e-04,
211,4.00e-01,-1.60e-03,-6.00e-04,
212,4.00e-01,-8.00e-04,-2.00e-04,
213,4.00e-01,-1.60e-03,0.00e+00,
214,4.00e-01,-1.60e-03,-1.00e-03,
215,4.00e-01,-1.60e-03,-6.00e-04,
216,4.00e-01,-1.60e-03,0.00e+00,
217,4.00e-01,-1.60e-03,-1.00e-03,
218,4.00e-01,-1.60e-03,-6.00e-04,
219,4.00e-01,-8.00e-04,-4.00e-04,
220,4.00e-01,-2.40e-03,-6.00e-04,
221,4.00e-01,-1.60e-03,-1.00e-03,
222,4.00e-01,-1.60e-03,-4.00e-04,
223,4.00e-01,-8.00e-04,-1.00e-03,
224,4.00e-01,-1.60e-03,-6.00e-04,
225,4.00e-01,-1.60e-03,-1.00e-03,
226,4.00e-01,-1.60e-03,-1.00e-03,
227,4.00e-01,-1.60e-03,-6.00e-04,
228,4.00e-01,-2.40e-03,-4.00e-04,
229,4.00e-01,-1.60e-03,-1.20e-03,
230,4.00e-01,-1.60e-03,-2.00e-04,
231,4.00e-01,-1.60e-03,-6.00e-04,
232,4.00e-01,-1.60e-03,-6.00e-04,
233,4.00e-01,-2.40e-03,-6.00e-04,
234,4.00e-01,-2.40e-03,-4.00e-04,
235,4.00e-01,-4.00e-03,-4.00e-04,
236,4.00e-01,-2.40e-03,2.00e-04,
237,4.00e-01,-4.00e-03,-6.00e-04,
238,4.00e-01,-2.40e-03,-4.00e-04,
239,4.00e-01,-4.00e-03,-4.00e-04,
240,4.00e-01,-4.00e-03,-6.00e-04,
241,4.00e-01,-4.80e-03,-1.00e-03,
242,4.00e-01,-4.00e-03,-4.00e-04,
243,4.00e-01,-4.00e-03,-4.00e-04,
244,4.00e-01,-2.40e-03,-6.00e-04,
245,4.00e-01,-4.80e-03,-6.00e-04,
246,4.00e-01,-4.00e-03,-1.00e-03,
247,4.00e-01,-4.00e-03,-1.00e-03,
248,3.20e-01,-4.00e-03,-6.00e-04,
249,3.20e-01,-2.40e-03,-1.40e-03,
250,3.20e-01,-2.40e-03,-6.00e-04,
251,3.20e-01,-2.40e-03,-1.20e-03,
252,3.20e-01,-2.40e-03,-1.00e-03,
253,3.20e-01,-2.40e-03,-4.00e-04,
254,3.20e-01,-4.00e-03,-6.00e-04,
255,3.20e-01,-2.40e-03,-1.40e-03,
256,3.20e-01,-2.40e-03,0.00e+00,
257,3.20e-01,-2.40e-03,-6.00e-04,
258,3.20e-01,-2.40e-03,-1.00e-03,
259,3.20e-01,-4.80e-03,-6.00e-04,
260,3.20e-01,-4.00e-03,-4.00e-04,
261,3.20e-01,-4.00e-03,-4.00e-04,
262,3.20e-01,-4.80e-03,-4.00e-04,
263,3.20e-01,-4.00e-03,-1.00e-03,
264,3.20e-01,-2.40e-03,-2.00e-04,
265,3.20e-01,-4.80e-03,-6.00e-04,
266,3.20e-01,-4.00e-03,-1.40e-03,
267,3.20e-01,-4.80e-03,-1.00e-03,
268,3.20e-01,-4.00e-03,-1.00e-03,
269,3.20e-01,-4.80e-03,-1.40e-03,
270,3.20e-01,-4.80e-03,-1.00e-03,
271,3.20e-01,-4.00e-03,-1.00e-03,
272,3.20e-01,-4.00e-03,-6.00e-04,
273,3.20e-01,-4.80e-03,-4.00e-04,
274,3.20e-01,-4.80e-03,-1.00e-03,
275,3.20e-01,-4.00e-03,-1.00e-03,
276,3.20e-01,-6.40e-03,-4.00e-04,
277,3.20e-01,-4.80e-03,-1.40e-03,
278,3.20e-01,-4.80e-03,-6.00e-04,
279,3.20e-01,-4.80e-03,-4.00e-04,
280,3.20e-01,-7.20e-03,-6.00e-04,
281,3.20e-01,-6.40e-03,-6.00e-04,
282,3.20e-01,-4.80e-03,-6.00e-04,
283,3.20e-01,-4.80e-03,-6.00e-04,
284,3.20e-01,-6.40e-03,-6.00e-04,
285,3.20e-01,-4.80e-03,-1.00e-03,
286,3.20e-01,-4.80e-03,-1.00e-03,
287,3.20e-01,-7.20e-03,-6.00e-04,
288,3.20e-01,-4.00e-03,-1.40e-03,
289,3.20e-01,-4.00e-03,-6.00e-04,
290,3.20e-01,-4.00e-03,-1.00e-03,
291,3.20e-01,-4.80e-03,-1.20e-03,
292,3.20e-01,-4.00e-03,-1.20e-03,
293,3.20e-01,-6.40e-03,-6.00e-04,
294,3.20e-01,-4.80e-03,-1.40e-03,
295,3.20e-01,-4.80e-03,-1.00e-03,
296,3.20e-01,-4.80e-03,-6.00e-04,
297,3.20e-01,-4.00e-03,-1.40e-03,
298,3.20e-01,-6.40e-03,-1.00e-03,
299,3.20e-01,-6.40e-03,-4.00e-04,
300,3.20e-01,-4.80e-03,-1.20e-03,
301,3.20e-01,-4.80e-03,-1.00e-03,
302,3.20e-01,-4.80e-03,-1.00e-03,
303,3.20e-01,-4.00e-03,-1.20e-03,
304,3.20e-01,-4.80e-03,-1.00e-03,
305,3.20e-01,-4.00e-03,-1.20e-03,
306,3.20e-01,-4.80e-03,-1.20e-03,
307,3.20e-01,-4.80e-03,-1.00e-03,
308,3.20e-01,-4.80e-03,-1.20e-03,
309,3.20e-01,-4.00e-03,-1.00e-03,
310,3.20e-01,-4.80e-03,-1.40e-03,
311,3.20e-01,-4.00e-03,-1.40e-03,
312,3.20e-01,-2.40e-03,-1.00e-03,
313,3.20e-01,-6.40e-03,-6.00e-04,
314,3.20e-01,-4.80e-03,-1.80e-03,
315,3.20e-01,-4.00e-03,-4.00e-04,
316,3.20e-01,-2.40e-03,-6.00e-04,
317,3.20e-01,-4.80e-03,-1.40e-03,
318,3.20e-01,-4.00e-03,-1.00e-03,
319,3.20e-01,-2.40e-03,-2.00e-04,
320,3.20e-01,-4.80e-03,-1.00e-03,
321,3.20e-01,-6.40e-03,-4.00e-04,
322,3.20e-01,-4.80e-03,-1.20e-03,
323,3.20e-01,-4.80e-03,-4.00e-04,
324,3.20e-01,-7.20e-03,-6.00e-04,
325,3.20e-01,-6.40e-03,-1.40e-03,
326,3.20e-01,-7.20e-03,-6.00e-04,
327,3.20e-01,-6.40e-03,-4.00e-04,
328,3.20e-01,-7.20e-03,-1.80e-03,
329,3.20e-01,-6.40e-03,-1.00e-03,
330,3.20e-01,-6.40e-03,-4.00e-04,
331,1.60e-01,-4.80e-03,-1.40e-03,
332,1.60e-01,-7.20e-03,-1.40e-03,
333,3.20e-01,-6.40e-03,-1.00e-03,
334,1.60e-01,-6.40e-03,-1.20e-03,
335,3.20e-01,-4.80e-03,-1.00e-03,
336,1.60e-01,-4.80e-03,-1.40e-03,
337,1.60e-01,-7.20e-03,-1.20e-03,
338,1.60e-01,-6.40e-03,-4.00e-04,
339,1.60e-01,-4.80e-03,-1.40e-03,
340,1.60e-01,-7.20e-03,-1.60e-03,
341,1.60e-01,-8.80e-03,-1.00e-03,
342,1.60e-01,-4.00e-03,-1.20e-03,
343,1.60e-01,-6.40e-03,-1.00e-03,
344,1.60e-01,-7.20e-03,-1.00e-03,
345,1.60e-01,-6.40e-03,-1.20e-03,
346,1.60e-01,-4.80e-03,-1.00e-03,
347,1.60e-01,-7.20e-03,-6.00e-04,
348,1.60e-01,-6.40e-03,-1.40e-03,
349,1.60e-01,-7.20e-03,-6.00e-04,
350,1.60e-01,-4.80e-03,-1.00e-03,
351,1.60e-01,-7.20e-03,-1.40e-03,
352,1.60e-01,-7.20e-03,-1.00e-03,
353,1.60e-01,-7.20e-03,-1.00e-03,
354,1.60e-01,-7.20e-03,-1.00e-03,
355,1.60e-01,-6.40e-03,-6.00e-04,
356,1.60e-01,-7.20e-03,-1.40e-03,
357,1.60e-01,-7.20e-03,-1.20e-03,
358,1.60e-01,-8.80e-03,-1.00e-03,
359,1.60e-01,-7.20e-03,-1.40e-03,
360,1.60e-01,-8.80e-03,-1.60e-03,
361,1.60e-01,-8.80e-03,-6.00e-04,
362,1.60e-01,-7.20e-03,-1.20e-03,
363,1.60e-01,-6.40e-03,-1.40e-03,
364,1.60e-01,-9.60e-03,-1.00e-03,
365,1.60e-01,-8.80e-03,-1.20e-03,
366,1.60e-01,-6.40e-03,-1.00e-03,
367,1.60e-01,-7.20e-03,-1.00e-03,
368,1.60e-01,-8.80e-03,-1.80e-03,
369,1.60e-01,-6.40e-03,-1.40e-03,
370,1.60e-01,-7.20e-03,-1.00e-03,
371,1.60e-01,-7.20e-03,-1.40e-03,
372,1.60e-01,-8.80e-03,-1.20e-03,
373,1.60e-01,-7.20e-03,-1.00e-03,
374,1.60e-01,-6.40e-03,-1.20e-03,
375,1.60e-01,-6.40e-03,-1.00e-03,
376,1.60e-01,-7.20e-03,-1.20e-03,
377,1.60e-01,-6.40e-03,-1.20e-03,
378,1.60e-01,-9.60e-03,-6.00e-04,
379,1.60e-01,-7.20e-03,-1.00e-03,
380,1.60e-01,-7.20e-03,-1.40e-03,
381,1.60e-01,-8.80e-03,-1.00e-03,
382,1.60e-01,-8.80e-03,-1.00e-03,
383,1.60e-01,-7.20e-03,-1.20e-03,
384,1.60e-01,-9.60e-03,-1.00e-03,
385,1.60e-01,-9.60e-03,-1.40e-03,
386,1.60e-01,-7.20e-03,-1.40e-03,
387,1.60e-01,-8.80e-03,-1.40e-03,
388,1.60e-01,-6.40e-03,-1.60e-03,
389,1.60e-01,-7.20e-03,-1.60e-03,
390,1.60e-01,-8.80e-03,-1.20e-03,
391,1.60e-01,-7.20e-03,-1.60e-03,
392,1.60e-01,-7.20e-03,-1.40e-03,
393,1.60e-01,-8.80e-03,-1.60e-03,
394,1.60e-01,-7.20e-03,-1.20e-03,
395,1.60e-01,-7.20e-03,-1.40e-03,
396,1.60e-01,-6.40e-03,-1.20e-03,
397,1.60e-01,-6.40e-03,-1.40e-03,
398,1.60e-01,-9.60e-03,-6.00e-04,
399,1.60e-01,-8.80e-03,-1.20e-03,
400,1.60e-01,-7.20e-03,-1.00e-03,
401,1.60e-01,-8.80e-03,-6.00e-04,
402,1.60e-01,-7.20e-03,-1.00e-03,
403,1.60e-01,-7.20e-03,-1.00e-03,
404,1.60e-01,-9.60e-03,-1.00e-03,
405,1.60e-01,-6.40e-03,-1.60e-03,
406,1.60e-01,-8.80e-03,-1.00e-03,
407,1.60e-01,-8.80e-03,-1.00e-03,
408,1.60e-01,-8.80e-03,-1.40e-03,
409,1.60e-01,-7.20e-03,-1.40e-03,
410,1.60e-01,-7.20e-03,-4.00e-04,
411,1.60e-01,-8.80e-03,-1.20e-03,
412,1.60e-01,-9.60e-03,-1.20e-03,
413,1.60e-01,-8.80e-03,-1.00e-03,
414,1.60e-01,-6.40e-03,-4.00e-04,
415,8.00e-02,-9.60e-03,-1.00e-03,
416,1.60e-01,-8.80e-03,-1.20e-03,
417,8.00e-02,-9.60e-03,-1.40e-03,
418,1.60e-01,-9.60e-03,-4.00e-04,
419,1.60e-01,-8.80e-03,-1.20e-03,
420,8.00e-02,-9.60e-03,-1.80e-03,
421,8.00e-02,-9.60e-03,-1.20e-03,
422,8.00e-02,-9.60e-03,-1.00e-03,
423,8.00e-02,-8.80e-03,-1.80e-03,
424,8.00e-02,-1.12e-02,-1.40e-03,
425,8.00e-02,-1.12e-02,-1.20e-03,
426,8.00e-02,-9.60e-03,-1.20e-03,
427,8.00e-02,-8.80e-03,-1.60e-03,
428,8.00e-02,-1.12e-02,-1.40e-03,
429,8.00e-02,-9.60e-03,-1.60e-03,
430,8.00e-02,-9.60e-03,-6.00e-04,
431,8.00e-02,-9.60e-03,-1.80e-03,
432,8.00e-02,-1.20e-02,-1.40e-03,
433,8.00e-02,-9.60e-03,-1.20e-03,
434,8.00e-02,-9.60e-03,-1.20e-03,
435,8.00e-02,-8.80e-03,-1.20e-03,
436,8.00e-02,-1.20e-02,-1.00e-03,
437,8.00e-02,-9.60e-03,-1.80e-03,
438,8.00e-02,-9.60e-03,-1.20e-03,
439,8.00e-02,-9.60e-03,-1.40e-03,
440,8.00e-02,-9.60e-03,-1.40e-03,
441,8.00e-02,-9.60e-03,-1.60e-03,
442,8.00e-02,-8.80e-03,-1.20e-03,
443,8.00e-02,-9.60e-03,-1.40e-03,
444,8.00e-02,-9.60e-03,-1.20e-03,
445,8.00e-02,-1.12e-02,-1.80e-03,
446,8.00e-02,-9.60e-03,-1.60e-03,
447,8.00e-02,-8.80e-03,-1.00e-03,
448,8.00e-02,-9.60e-03,-1.40e-03,
449,8.00e-02,-9.60e-03,-2.20e-03,
450,8.00e-02,-1.20e-02,-1.40e-03,
451,8.00e-02,-9.60e-03,-1.40e-03,
452,8.00e-02,-9.60e-03,-1.40e-03,
453,8.00e-02,-1.12e-02,-1.80e-03,
454,8.00e-02,-1.12e-02,-1.40e-03,
455,8.00e-02,-8.80e-03,-1.20e-03,
456,8.00e-02,-1.20e-02,-1.00e-03,
457,8.00e-02,-1.20e-02,-2.20e-03,
458,8.00e-02,-1.12e-02,-1.40e-03,
459,8.00e-02,-1.12e-02,-1.20e-03,
460,8.00e-02,-9.60e-03,-1.40e-03,
461,8.00e-02,-1.20e-02,-2.20e-03,
462,8.00e-02,-9.60e-03,-1.60e-03,
463,8.00e-02,-9.60e-03,-2.20e-03,
464,8.00e-02,-1.12e-02,-1.40e-03,
465,8.00e-02,-1.12e-02,-1.80e-03,
466,8.00e-02,-8.80e-03,-1.40e-03,
467,8.00e-02,-9.60e-03,-1.40e-03,
468,8.00e-02,-8.80e-03,-1.80e-03,
469,8.00e-02,-1.12e-02,-1.60e-03,
470,8.00e-02,-9.60e-03,-1.20e-03,
471,8.00e-02,-9.60e-03,-1.20e-03,
472,8.00e-02,-9.60e-03,-1.20e-03,
473,8.00e-02,-1.20e-02,-1.20e-03,
474,8.00e-02,-9.60e-03,-1.20e-03,
475,8.00e-02,-9.60e-03,-1.20e-03,
476,8.00e-02,-1.12e-02,-1.60e-03,
477,8.00e-02,-1.20e-02,-1.40e-03,
478,8.00e-02,-1.20e-02,-1.00e-03,
479,8.00e-02,-9.60e-03,-1.40e-03,
480,8.00e-02,-1.20e-02,-1.20e-03,
481,8.00e-02,-1.20e-02,-1.20e-03,
482,8.00e-02,-1.20e-02,-1.80e-03,
483,8.00e-02,-1.20e-02,-1.40e-03,
484,8.00e-02,-1.44e-02,-1.00e-03,
485,8.00e-02,-1.20e-02,-1.80e-03,
486,8.00e-02,-1.20e-02,-1.40e-03,
487,8.00e-02,-1.36e-02,-1.00e-03,
488,8.00e-02,-1.20e-02,-1.60e-03,
489,8.00e-02,-1.36e-02,-1.80e-03,
490,8.00e-02,-1.36e-02,-1.20e-03,
491,8.00e-02,-1.36e-02,-1.20e-03,
492,8.00e-02,-1.36e-02,-1.80e-03,
493,8.00e-02,-1.36e-02,-1.60e-03,
494,8.00e-02,-1.20e-02,-1.00e-03,
495,8.00e-02,-1.36e-02,-1.20e-03,
496,8.00e-02,-1.20e-02,-2.20e-03,
497,8.00e-02,-1.36e-02,-1.80e-03,
498,8.00e-02,-1.36e-02,-1.20e-03,
499,8.00e-02,-1.12e-02,-1.80e-03,
500,8.00e-02,-1.12e-02,-1.80e-03,
501,8.00e-02,-1.36e-02,-1.40e-03,
502,8.00e-02,-1.12e-02,-1.80e-03,
503,8.00e-02,-1.20e-02,-1.60e-03,
504,8.00e-02,-1.20e-02,-1.60e-03,
505,-8.00e-02,-1.36e-02,-1.80e-03,
506,-8.00e-02,-1.20e-02,-1.60e-03,
507,8.00e-02,-9.60e-03,-1.00e-03,
508,-8.00e-02,-1.12e-02,-1.40e-03,
509,-8.00e-02,-1.36e-02,-1.00e-03,
510,-8.00e-02,-1.20e-02,-1.40e-03,
511,-8.00e-02,-1.12e-02,-1.20e-03,
512,-8.00e-02,-1.36e-02,-1.20e-03,
513,-8.00e-02,-1.20e-02,-1.60e-03,
514,-8.00e-02,-1.36e-02,-1.60e-03,
515,-8.00e-02,-1.20e-02,-1.00e-03,
516,-8.00e-02,-1.36e-02,-1.40e-03,
517,-8.00e-02,-1.44e-02,-1.80e-03,
518,-8.00e-02,-1.36e-02,-1.80e-03,
519,-8.00e-02,-1.20e-02,-1.20e-03,
520,-8.00e-02,-1.36e-02,-1.60e-03,
521,-8.00e-02,-1.36e-02,-2.40e-03,
522,-8.00e-02,-1.36e-02,-1.60e-03,
523,-8.00e-02,-1.44e-02,-1.00e-03,
524,-8.00e-02,-1.20e-02,-1.60e-03,
525,-8.00e-02,-1.44e-02,-1.00e-03,
526,-8.00e-02,-1.36e-02,-1.40e-03,
527,-8.00e-02,-1.36e-02,-1.40e-03,
528,-8.00e-02,-1.36e-02,-1.40e-03,
529,-8.00e-02,-1.44e-02,-1.40e-03,
530,-8.00e-02,-1.44e-02,-1.60e-03,
531,-8.00e-02,-1.44e-02,-1.00e-03,
532,-8.00e-02,-1.12e-02,-2.20e-03,
533,-8.00e-02,-1.36e-02,-1.40e-03,
534,-8.00e-02,-1.44e-02,-1.80e-03,
535,-8.00e-02,-1.36e-02,-2.20e-03,
536,-8.00e-02,-1.36e-02,-1.80e-03,
537,-8.00e-02,-1.60e-02,-1.80e-03,
538,-8.00e-02,-1.44e-02,-1.40e-03,
539,-8.00e-02,-1.36e-02,-1.40e-03,
540,-8.00e-02,-1.36e-02,-1.60e-03,
541,-8.00e-02,-1.44e-02,-1.60e-03,
542,-8.00e-02,-1.60e-02,-1.40e-03,
543,-8.00e-02,-1.20e-02,-1.60e-03,
544,-8.00e-02,-1.44e-02,-1.20e-03,
545,-8.00e-02,-1.44e-02,-1.80e-03,
546,-8.00e-02,-1.36e-02,-1.80e-03,
547,-8.00e-02,-1.36e-02,-1.40e-03,
548,-8.00e-02,-1.44e-02,-1.40e-03,
549,-8.00e-02,-1.44e-02,-2.20e-03,
550,-8.00e-02,-1.44e-02,-1.40e-03,
551,-8.00e-02,-1.44e-02,-1.20e-03,
552,-8.00e-02,-1.36e-02,-1.80e-03,
553,-8.00e-02,-1.60e-02,-1.40e-03,
554,-8.00e-02,-1.36e-02,-1.40e-03,
555,-8.00e-02,-1.44e-02,-2.20e-03,
556,-8.00e-02,-1.60e-02,-1.80e-03,
557,-8.00e-02,-1.44e-02,-1.80e-03,
558,-8.00e-02,-1.36e-02,-1.80e-03,
559,-8.00e-02,-1.60e-02,-1.40e-03,
560,-8.00e-02,-1.36e-02,-1.80e-03,
561,-8.00e-02,-1.60e-02,-1.60e-03,
562,-8.00e-02,-1.44e-02,-1.40e-03,
563,-8.00e-02,-1.44e-02,-2.20e-03,
564,-8.00e-02,-1.44e-02,-1.40e-03,
565,-8.00e-02,-1.44e-02,-1.40e-03,
566,-8.00e-02,-1.44e-02,-1.80e-03,
567,-8.00e-02,-1.44e-02,-1.40e-03,
568,-8.00e-02,-1.44e-02,-1.20e-03,
569,-8.00e-02,-1.44e-02,-1.60e-03,
570,-8.00e-02,-1.68e-02,-1.00e-03,
571,-8.00e-02,-1.44e-02,-1.80e-03,
572,-8.00e-02,-1.60e-02,-1.60e-03,
573,-8.00e-02,-1.60e-02,-1.40e-03,
574,-8.00e-02,-1.60e-02,-1.60e-03,
575,-8.00e-02,-1.60e-02,-2.20e-03,
576,-8.00e-02,-1.68e-02,-1.20e-03,
577,-8.00e-02,-1.44e-02,-1.80e-03,
578,-8.00e-02,-1.36e-02,-1.40e-03,
579,-8.00e-02,-1.44e-02,-1.80e-03,
580,-8.00e-02,-1.44e-02,-2.20e-03,
581,-8.00e-02,-1.60e-02,-1.80e-03,
582,-8.00e-02,-1.44e-02,-1.80e-03,
583,-8.00e-02,-1.68e-02,-2.20e-03,
584,-8.00e-02,-1.44e-02,-1.40e-03,
585,-1.60e-01,-1.44e-02,-1.80e-03,
586,-8.00e-02,-1.60e-02,-2.20e-03,
587,-8.00e-02,-1.68e-02,-1.40e-03,
588,-1.60e-01,-1.60e-02,-2.20e-03,
589,-1.60e-01,-1.60e-02,-2.20e-03,
590,-1.60e-01,-1.84e-02,-1.80e-03,
591,-1.60e-01,-1.60e-02,-1.60e-03,
592,-1.60e-01,-1.60e-02,-1.80e-03,
