data/vertical/measurement2.csv

X,CH1,CH2,Start,Increment,
Sequence,Volt,Volt,-1.156000e-02,8.000000e-07
0,8.00e-01,3.20e-03,
1,8.00e-01,3.20e-03,
2,8.00e-01,3.20e-03,
3,8.00e-01,3.20e-03,
4,8.00e-01,3.20e-03,
5,8.00e-01,3.20e-03,
6,8.00e-01,4.00e-03,
7,8.00e-01,4.00e-03,
8,8.00e-01,1.60e-03,
9,8.00e-01,4.00e-03,
10,8.00e-01,4.00e-03,
11,8.00e-01,4.00e-03,
12,8.00e-01,4.00e-03,
13,8.00e-01,3.20e-03,
14,8.00e-01,3.20e-03,
15,8.00e-01,3.20e-03,
16,8.00e-01,4.00e-03,
17,8.00e-01,3.20e-03,
18,8.00e-01,3.20e-03,
19,8.00e-01,3.20e-03,
20,8.00e-01,1.60e-03,
21,8.00e-01,1.60e-03,
22,8.00e-01,1.60e-03,
23,8.00e-01,4.00e-03,
24,8.00e-01,3.20e-03,
25,8.00e-01,3.20e-03,
26,8.00e-01,3.20e-03,
27,8.00e-01,1.60e-03,
28,8.00e-01,3.20e-03,
29,8.00e-01,1.60e-03,
30,8.00e-01,3.20e-03,
31,8.00e-01,3.20e-03,
32,8.00e-01,1.60e-03,
33,8.00e-01,8.00e-04,
34,8.00e-01,1.60e-03,
35,8.00e-01,1.60e-03,
36,8.00e-01,1.60e-03,
37,8.00e-01,4.00e-03,
38,8.00e-01,8.00e-04,
39,8.00e-01,1.60e-03,
40,8.00e-01,1.60e-03,
41,8.00e-01,8.00e-04,
42,8.00e-01,1.60e-03,
43,8.00e-01,1.60e-03,
44,6.40e-01,3.20e-03,
45,8.00e-01,1.60e-03,
46,8.00e-01,1.60e-03,
47,8.00e-01,8.00e-04,
48,6.40e-01,3.20e-03,
49,6.40e-01,1.60e-03,
50,6.40e-01,1.60e-03,
51,6.40e-01,3.20e-03,
52,6.40e-01,1.60e-03,
53,6.40e-01,3.20e-03,
54,6.40e-01,-8.00e-04,
55,6.40e-01,1.60e-03,
56,6.40e-01,3.20e-03,
57,6.40e-01,1.60e-03,
58,6.40e-01,8.00e-04,
59,6.40e-01,8.00e-04,
60,6.40e-01,1.60e-03,
61,6.40e-01,8.00e-04,
62,6.40e-01,8.00e-04,
63,6.40e-01,8.00e-04,
64,6.40e-01,8.00e-04,
65,6.40e-01,-8.00e-04,
66,6.40e-01,-8.00e-04,
67,6.40e-01,8.00e-04,
68,6.40e-01,8.00e-04,
69,6.40e-01,1.60e-03,
70,6.40e-01,8.00e-04,
71,6.40e-01,8.00e-04,
72,6.40e-01,8.00e-04,
73,6.40e-01,-8.00e-04,
74,6.40e-01,8.00e-04,
75,6.40e-01,8.00e-04,
76,6.40e-01,8.00e-04,
77,6.40e-01,8.00e-04,
78,6.40e-01,-8.00e-04,
79,6.40e-01,-1.60e-03,
80,6.40e-01,8.00e-04,
81,6.40e-01,8.00e-04,
82,6.40e-01,8.00e-04,
83,6.40e-01,8.00e-04,
84,6.40e-01,-8.00e-04,
85,6.40e-01,-8.00e-04,
86,6.40e-01,8.00e-04,
87,6.40e-01,8.00e-04,
88,6.40e-01,8.00e-04,
89,6.40e-01,8.00e-04,
90,6.40e-01,8.00e-04,
91,6.40e-01,-1.60e-03,
92,6.40e-01,-1.60e-03,
93,6.40e-01,8.00e-04,
94,6.40e-01,-8.00e-04,
95,6.40e-01,-8.00e-04,
96,6.40e-01,-1.60e-03,
97,6.40e-01,-8.00e-04,
98,6.40e-01,-1.60e-03,
99,6.40e-01,-8.00e-04,
100,6.40e-01,-8.00e-04,
101,6.40e-01,-8.00e-04,
102,6.40e-01,8.00e-04,
103,6.40e-01,-1.60e-03,
104,6.40e-01,-1.60e-03,
105,6.40e-01,-8.00e-04,
106,6.40e-01,-8.00e-04,
107,6.40e-01,-8.00e-04,
108,6.40e-01,-8.00e-04,
109,6.40e-01,8.00e-04,
110,6.40e-01,-8.00e-04,
111,6.40e-01,-8.00e-04,
112,6.40e-01,-2.40e-03,
113,6.40e-01,8.00e-04,
114,6.40e-01,8.00e-04,
115,6.40e-01,-1.60e-03,
116,6.40e-01,-8.00e-04,
117,5.60e-01,-1.60e-03,
118,6.40e-01,-8.00e-04,
119,6.40e-01,-2.40e-03,
120,5.60e-01,-1.60e-03,
121,5.60e-01,-8.00e-04,
122,5.60e-01,-8.00e-04,
123,5.60e-01,-8.00e-04,
124,5.60e-01,-1.60e-03,
125,5.60e-01,-1.60e-03,
126,5.60e-01,-1.60e-03,
127,5.60e-01,8.00e-04,
128,5.60e-01,-2.40e-03,
129,5.60e-01,-1.60e-03,
130,5.60e-01,-2.40e-03,
131,5.60e-01,-4.00e-03,
132,5.60e-01,-2.40e-03,
133,5.60e-01,-2.40e-03,
134,5.60e-01,-8.00e-04,
135,5.60e-01,-4.00e-03,
136,5.60e-01,-2.40e-03,
137,5.60e-01,-1.60e-03,
138,5.60e-01,-2.40e-03,
139,5.60e-01,-1.60e-03,
140,5.60e-01,-2.40e-03,
141,5.60e-01,-1.60e-03,
142,5.60e-01,-2.40e-03,
143,5.60e-01,-2.40e-03,
144,5.60e-01,-2.40e-03,
145,5.60e-01,-1.60e-03,
146,5.60e-01,-1.60e-03,
147,5.60e-01,-2.40e-03,
148,5.60e-01,-1.60e-03,
149,5.60e-01,-4.00e-03,
150,5.60e-01,-2.40e-03,
151,5.60e-01,-2.40e-03,
152,5.60e-01,-2.40e-03,
153,5.60e-01,-2.40e-03,
154,5.60e-01,-4.00e-03,
155,5.60e-01,-2.40e-03,
156,5.60e-01,-4.80e-03,
157,5.60e-01,-2.40e-03,
158,5.60e-01,-2.40e-03,
159,5.60e-01,-2.40e-03,
160,5.60e-01,-4.00e-03,
161,5.60e-01,-4.00e-03,
162,5.60e-01,-1.60e-03,
163,5.60e-01,-4.80e-03,
164,5.60e-01,-4.00e-03,
165,5.60e-01,-2.40e-03,
166,5.60e-01,-2.40e-03,
167,5.60e-01,-2.40e-03,
168,5.60e-01,-4.00e-03,
169,5.60e-01,-2.40e-03,
170,5.60e-01,-4.80e-03,
171,5.60e-01,-2.40e-03,
172,5.60e-01,-4.00e-03,
173,5.60e-01,-1.60e-03,
174,5.60e-01,-4.00e-03,
175,5.60e-01,-4.80e-03,
176,5.60e-01,-2.40e-03,
177,5.60e-01,-4.00e-03,
178,5.60e-01,-2.40e-03,
179,5.60e-01,-4.00e-03,
180,5.60e-01,-2.40e-03,
181,5.60e-01,-4.00e-03,
182,5.60e-01,-4.80e-03,
183,5.60e-01,-4.00e-03,
184,5.60e-01,-4.00e-03,
185,5.60e-01,-4.00e-03,
186,5.60e-01,-4.80e-03,
187,5.60e-01,-4.00e-03,
188,5.60e-01,-4.80e-03,
189,5.60e-01,-4.00e-03,
190,5.60e-01,-4.00e-03,
191,4.00e-01,-4.00e-03,
192,4.00e-01,-2.40e-03,
193,5.60e-01,-2.40e-03,
194,4.00e-01,-4.00e-03,
195,4.00e-01,-4.80e-03,
196,4.00e-01,-4.80e-03,
197,4.00e-01,-4.80e-03,
198,4.00e-01,-4.80e-03,
199,4.00e-01,-4.00e-03,
200,4.00e-01,-4.80e-03,
201,4.00e-01,-4.80e-03,
202,4.00e-01,-6.40e-03,
203,4.00e-01,-4.80e-03,
204,4.00e-01,-4.80e-03,
205,4.00e-01,-4.00e-03,
206,4.00e-01,-4.00e-03,
207,4.00e-01,-4.80e-03,
208,4.00e-01,-4.80e-03,
209,4.00e-01,-4.80e-03,
210,4.00e-01,-6.40e-03,
211,4.00e-01,-4.80e-03,
212,4.00e-01,-4.80e-03,
213,4.00e-01,-4.80e-03,
214,4.00e-01,-4.80e-03,
215,4.00e-01,-4.80e-03,
216,4.00e-01,-6.40e-03,
217,4.00e-01,-4.80e-03,
218,4.00e-01,-4.00e-03,
219,4.00e-01,-4.00e-03,
220,4.00e-01,-4.80e-03,
221,4.00e-01,-6.40e-03,
222,4.00e-01,-4.80e-03,
223,4.00e-01,-4.80e-03,
224,4.00e-01,-4.80e-03,
225,4.00e-01,-4.80e-03,
226,4.00e-01,-4.80e-03,
227,4.00e-01,-4.80e-03,
228,4.00e-01,-6.40e-03,
229,4.00e-01,-6.40e-03,
230,4.00e-01,-6.40e-03,
231,4.00e-01,-4.80e-03,
232,4.00e-01,-6.40e-03,
233,4.00e-01,-4.80e-03,
234,4.00e-01,-6.40e-03,
235,4.00e-01,-7.20e-03,
236,4.00e-01,-6.40e-03,
237,4.00e-01,-4.80e-03,
238,4.00e-01,-6.40e-03,
239,4.00e-01,-4.00e-03,
240,4.00e-01,-6.40e-03,
241,4.00e-01,-6.40e-03,
242,4.00e-01,-7.20e-03,
243,4.00e-01,-7.20e-03,
244,4.00e-01,-6.40e-03,
245,4.00e-01,-6.40e-03,
246,4.00e-01,-6.40e-03,
247,4.00e-01,-7.20e-03,
248,4.00e-01,-6.40e-03,
249,4.00e-01,-7.20e-03,
250,4.00e-01,-6.40e-03,
251,4.00e-01,-7.20e-03,
252,4.00e-01,-6.40e-03,
253,4.00e-01,-6.40e-03,
254,4.00e-01,-8.80e-03,
255,3.20e-01,-7.20e-03,
256,4.00e-01,-7.20e-03,
257,3.20e-01,-6.40e-03,
258,3.20e-01,-6.40e-03,
259,4.00e-01,-7.20e-03,
260,4.00e-01,-7.20e-03,
261,4.00e-01,-8.80e-03,
262,3.20e-01,-7.20e-03,
263,3.20e-01,-7.20e-03,
264,3.20e-01,-6.40e-03,
265,3.20e-01,-7.20e-03,
266,3.20e-01,-7.20e-03,
267,3.20e-01,-8.80e-03,
268,3.20e-01,-8.80e-03,
269,3.20e-01,-6.40e-03,
270,3.20e-01,-7.20e-03,
271,3.20e-01,-6.40e-03,
272,3.20e-01,-7.20e-03,
273,3.20e-01,-7.20e-03,
274,3.20e-01,-8.80e-03,
275,3.20e-01,-9.60e-03,
276,3.20e-01,-7.20e-03,
277,3.20e-01,-7.20e-03,
278,3.20e-01,-7.20e-03,
279,3.20e-01,-8.80e-03,
280,3.20e-01,-7.20e-03,
281,3.20e-01,-8.80e-03,
282,3.20e-01,-9.60e-03,
283,3.20e-01,-7.20e-03,
284,3.20e-01,-7.20e-03,
285,3.20e-01,-6.40e-03,
286,3.20e-01,-9.60e-03,
287,3.20e-01,-8.80e-03,
288,3.20e-01,-8.80e-03,
289,3.20e-01,-8.80e-03,
290,3.20e-01,-6.40e-03,
291,3.20e-01,-8.80e-03,
292,3.20e-01,-8.80e-03,
293,3.20e-01,-8.80e-03,
294,3.20e-01,-9.60e-03,
295,3.20e-01,-9.60e-03,
296,3.20e-01,-8.80e-03,
297,3.20e-01,-7.20e-03,
298,3.20e-01,-8.80e-03,
299,3.20e-01,-9.60e-03,
300,3.20e-01,-9.60e-03,
301,3.20e-01,-7.20e-03,
302,3.20e-01,-7.20e-03,
303,3.20e-01,-8.80e-03,
304,3.20e-01,-7.20e-03,
305,3.20e-01,-7.20e-03,
306,3.20e-01,-9.60e-03,
307,3.20e-01,-1.20e-02,
308,3.20e-01,-8.80e-03,
309,3.20e-01,-8.80e-03,
310,3.20e-01,-8.80e-03,
311,3.20e-01,-8.80e-03,
312,3.20e-01,-9.60e-03,
313,3.20e-01,-7.20e-03,
314,3.20e-01,-1.12e-02,
315,3.20e-01,-8.80e-03,
316,3.20e-01,-8.80e-03,
317,3.20e-01,-8.80e-03,
318,3.20e-01,-8.80e-03,
319,3.20e-01,-1.12e-02,
320,3.20e-01,-9.60e-03,
321,3.20e-01,-1.12e-02,
322,3.20e-01,-9.60e-03,
323,3.20e-01,-9.60e-03,
324,3.20e-01,-8.80e-03,
325,3.20e-01,-9.60e-03,
326,3.20e-01,-9.60e-03,
327,3.20e-01,-9.60e-03,
328,3.20e-01,-1.12e-02,
329,3.20e-01,-8.80e-03,
330,3.20e-01,-8.80e-03,
331,3.20e-01,-8.80e-03,
332,3.20e-01,-1.12e-02,
333,3.20e-01,-1.12e-02,
334,1.60e-01,-8.80e-03,
335,1.60e-01,-1.12e-02,
336,1.60e-01,-9.60e-03,
337,1.60e-01,-9.60e-03,
338,1.60e-01,-9.60e-03,
339,1.60e-01,-1.20e-02,
340,1.60e-01,-1.12e-02,
341,1.60e-01,-9.60e-03,
342,1.60e-01,-1.12e-02,
343,1.60e-01,-8.80e-03,
344,1.60e-01,-1.20e-02,
345,1.60e-01,-9.60e-03,
346,1.60e-01,-1.12e-02,
347,1.60e-01,-1.20e-02,
348,1.60e-01,-1.12e-02,
349,1.60e-01,-9.60e-03,
350,1.60e-01,-8.80e-03,
351,1.60e-01,-1.20e-02,
352,1.60e-01,-1.20e-02,
353,1.60e-01,-1.12e-02,
354,1.60e-01,-1.12e-02,
355,1.60e-01,-9.60e-03,
356,1.60e-01,-1.12e-02,
357,1.60e-01,-1.12e-02,
358,1.60e-01,-1.12e-02,
359,1.60e-01,-9.60e-03,
360,1.60e-01,-1.20e-02,
361,1.60e-01,-1.20e-02,
362,1.60e-01,-9.60e-03,
363,1.60e-01,-1.12e-02,
364,1.60e-01,-1.12e-02,
365,1.60e-01,-1.36e-02,
366,1.60e-01,-1.20e-02,
367,1.60e-01,-1.20e-02,
368,1.60e-01,-1.12e-02,
369,1.60e-01,-1.20e-02,
370,1.60e-01,-1.20e-02,
371,1.60e-01,-1.12e-02,
372,1.60e-01,-1.44e-02,
373,1.60e-01,-1.20e-02,
374,1.60e-01,-1.12e-02,
375,1.60e-01,-1.12e-02,
376,1.60e-01,-1.20e-02,
377,1.60e-01,-1.36e-02,
378,1.60e-01,-1.12e-02,
379,1.60e-01,-1.36e-02,
380,1.60e-01,-1.20e-02,
381,1.60e-01,-1.20e-02,
382,1.60e-01,-1.20e-02,
383,1.60e-01,-1.36e-02,
384,1.60e-01,-1.36e-02,
385,1.60e-01,-1.36e-02,
386,1.60e-01,-1.44e-02,
387,1.60e-01,-1.20e-02,
388,1.60e-01,-1.20e-02,
389,1.60e-01,-1.12e-02,
390,1.60e-01,-1.36e-02,
391,1.60e-01,-1.36e-02,
392,1.60e-01,-1.12e-02,
393,1.60e-01,-1.36e-02,
394,1.60e-01,-1.20e-02,
395,8.00e-02,-1.20e-02,
396,8.00e-02,-1.12e-02,
397,1.60e-01,-1.20e-02,
398,1.60e-01,-1.36e-02,
399,8.00e-02,-1.20e-02,
400,8.00e-02,-1.20e-02,
401,8.00e-02,-1.12e-02,
402,8.00e-02,-1.36e-02,
403,8.00e-02,-1.12e-02,
404,8.00e-02,-1.20e-02,
405,8.00e-02,-1.44e-02,
406,8.00e-02,-1.36e-02,
407,8.00e-02,-1.36e-02,
408,8.00e-02,-1.12e-02,
409,8.00e-02,-1.36e-02,
410,8.00e-02,-1.36e-02,
411,8.00e-02,-1.36e-02,
412,8.00e-02,-1.44e-02,
413,8.00e-02,-1.36e-02,
414,8.00e-02,-1.20e-02,
415,8.00e-02,-1.20e-02,
416,8.00e-02,-1.44e-02,
417,8.00e-02,-1.44e-02,
418,8.00e-02,-1.44e-02,
419,8.00e-02,-1.44e-02,
420,8.00e-02,-1.20e-02,
421,8.00e-02,-1.20e-02,
422,8.00e-02,-1.36e-02,
423,8.00e-02,-1.36e-02,
424,8.00e-02,-1.36e-02,
425,8.00e-02,-1.36e-02,
426,8.00e-02,-1.44e-02,
427,8.00e-02,-1.36e-02,
428,8.00e-02,-1.36e-02,
429,8.00e-02,-1.36e-02,
430,8.00e-02,-1.44e-02,
431,8.00e-02,-1.60e-02,
432,8.00e-02,-1.44e-02,
433,8.00e-02,-1.36e-02,
434,8.00e-02,-1.44e-02,
435,8.00e-02,-1.44e-02,
436,8.00e-02,-1.20e-02,
437,8.00e-02,-1.60e-02,
438,8.00e-02,-1.60e-02,
439,8.00e-02,-1.60e-02,
440,8.00e-02,-1.44e-02,
441,8.00e-02,-1.36e-02,
442,8.00e-02,-1.60e-02,
443,8.00e-02,-1.44e-02,
444,8.00e-02,-1.44e-02,
445,8.00e-02,-1.44e-02,
446,8.00e-02,-1.60e-02,
447,8.00e-02,-1.44e-02,
448,8.00e-02,-1.44e-02,
449,8.00e-02,-1.44e-02,
450,8.00e-02,-1.44e-02,
451,8.00e-02,-1.60e-02,
452,8.00e-02,-1.44e-02,
453,8.00e-02,-1.44e-02,
454,8.00e-02,-1.44e-02,
455,8.00e-02,-1.44e-02,
456,8.00e-02,-1.44e-02,
457,8.00e-02,-1.44e-02,
458,8.00e-02,-1.60e-02,
459,8.00e-02,-1.60e-02,
460,8.00e-02,-1.36e-02,
461,8.00e-02,-1.36e-02,
462,8.00e-02,-1.60e-02,
463,8.00e-02,-1.60e-02,
464,8.00e-02,-1.60e-02,
465,-8.00e-02,-1.36e-02,
466,8.00e-02,-1.44e-02,
467,-8.00e-02,-1.44e-02,
468,-8.00e-02,-1.36e-02,
469,8.00e-02,-1.60e-02,
470,-8.00e-02,-1.60e-02,
471,-8.00e-02,-1.60e-02,
472,-8.00e-02,-1.60e-02,
473,-8.00e-02,-1.60e-02,
474,-8.00e-02,-1.44e-02,
475,-8.00e-02,-1.60e-02,
476,-8.00e-02,-1.68e-02,
477,-8.00e-02,-1.60e-02,
478,-8.00e-02,-1.68e-02,
479,-8.00e-02,-1.60e-02,
480,-8.00e-02,-1.60e-02,
481,-8.00e-02,-1.60e-02,
482,-8.00e-02,-1.44e-02,
483,-8.00e-02,-1.68e-02,
484,-8.00e-02,-1.68e-02,
485,-8.00e-02,-1.68e-02,
486,-8.00e-02,-1.44e-02,
487,-8.00e-02,-1.60e-02,
488,-8.00e-02,-1.68e-02,
489,-8.00e-02,-1.60e-02,
490,-8.00e-02,-1.68e-02,
491,-8.00e-02,-1.60e-02,
492,-8.00e-02,-1.84e-02,
493,-8.00e-02,-1.60e-02,
494,-8.00e-02,-1.44e-02,
495,-8.00e-02,-1.68e-02,
496,-8.00e-02,-1.68e-02,
497,-8.00e-02,-1.92e-02,
498,-8.00e-02,-1.60e-02,
499,-8.00e-02,-1.60e-02,
500,-8.00e-02,-1.68e-02,
501,-8.00e-02,-1.68e-02,
502,-8.00e-02,-1.68e-02,
503,-8.00e-02,-1.68e-02,
504,-8.00e-02,-1.84e-02,
505,-8.00e-02,-1.60e-02,
506,-8.00e-02,-1.68e-02,
507,-8.00e-02,-1.60e-02,
508,-8.00e-02,-1.68e-02,
509,-8.00e-02,-1.84e-02,
510,-8.00e-02,-1.68e-02,
511,-8.00e-02,-1.92e-02,
512,-8.00e-02,-1.60e-02,
513,-8.00e-02,-1.68e-02,
514,-8.00e-02,-1.68e-02,
515,-8.00e-02,-1.68e-02,
516,-8.00e-02,-1.84e-02,
517,-8.00e-02,-1.84e-02,
518,-8.00e-02,-1.92e-02,
519,-8.00e-02,-1.68e-02,
520,-8.00e-02,-1.84e-02,
521,-8.00e-02,-1.68e-02,
522,-8.00e-02,-1.84e-02,
523,-8.00e-02,-1.84e-02,
524,-8.00e-02,-1.84e-02,
525,-8.00e-02,-1.92e-02,
526,-8.00e-02,-1.68e-02,
527,-8.00e-02,-1.68e-02,
528,-8.00e-02,-1.68e-02,
529,-8.00e-02,-1.92e-02,
530,-8.00e-02,-1.92e-02,
531,-8.00e-02,-1.68e-02,
532,-8.00e-02,-1.84e-02,
533,-8.00e-02,-1.68e-02,
534,-1.60e-01,-1.68e-02,
535,-8.00e-02,-1.84e-02,
536,-1.60e-01,-1.92e-02,
537,-1.60e-01,-1.84e-02,
538,-1.60e-01,-1.84e-02,
539,-1.60e-01,-1.92e-02,
540,-1.60e-01,-1.68e-02,
541,-1.60e-01,-1.84e-02,
542,-1.60e-01,-1.84e-02,
543,-1.60e-01,-1.92e-02,
544,-1.60e-01,-1.92e-02,
545,-1.60e-01,-1.84e-02,
546,-1.60e-01,-1.68e-02,
547,-1.60e-01,-1.84e-02,
548,-1.60e-01,-1.84e-02,
549,-1.60e-01,-1.84e-02,
550,-1.60e-01,-1.92e-02,
551,-1.60e-01,-1.92e-02,
552,-1.60e-01,-1.92e-02,
553,-1.60e-01,-1.68e-02,
554,-1.60e-01,-1.84e-02,
555,-1.60e-01,-1.92e-02,
556,-1.60e-01,-1.92e-02,
557,-1.60e-01,-2.08e-02,
558,-1.60e-01,-2.08e-02,
559,-1.60e-01,-1.92e-02,
560,-1.60e-01,-1.92e-02,
561,-1.60e-01,-1.92e-02,
562,-1.60e-01,-1.92e-02,
563,-1.60e-01,-1.92e-02,
564,-1.60e-01,-2.08e-02,
565,-1.60e-01,-1.92e-02,
566,-1.60e-01,-1.92e-02,
567,-1.60e-01,-1.84e-02,
568,-1.60e-01,-1.92e-02,
569,-1.60e-01,-1.92e-02,
570,-1.60e-01,-1.92e-02,
571,-1.60e-01,-2.08e-02,
572,-1.60e-01,-1.92e-02,
573,-1.60e-01,-1.92e-02,
574,-1.60e-01,-1.92e-02,
575,-1.60e-01,-2.08e-02,
576,-1.60e-01,-2.08e-02,
577,-1.60e-01,-2.08e-02,
578,-1.60e-01,-2.08e-02,
579,-1.60e-01,-1.92e-02,
580,-1.60e-01,-2.08e-02,
581,-1.60e-01,-1.84e-02,
582,-1.60e-01,-2.08e-02,
583,-1.60e-01,-2.08e-02,
584,-1.60e-01,-2.08e-02,
585,-1.60e-01,-1.92e-02,
586,-1.60e-01,-1.92e-02,
587,-1.60e-01,-2.08e-02,
588,-1.60e-01,-1.92e-02,
589,-1.60e-01,-2.08e-02,
590,-1.60e-01,-2.16e-02,
591,-1.60e-01,-2.16e-02,
592,-1.60e-01,-2.08e-02,
593,-1.60e-01,-2.08e-02,
594,-1.60e-01,-2.16e-02,
595,-1.60e-01,-2.08e-02,
596,-3.20e-01,-2.16e-02,
597,-1.60e-01,-2.16e-02,
598,-1.60e-01,-2.16e-02,
599,-3.20e-01,-2.08e-02,
600,-1.60e-01,-1.92e-02,
601,-3.20e-01,-2.08e-02,
602,-1.60e-01,-1.92e-02,
603,-3.20e-01,-2.16e-02,
604,-1.60e-01,-2.08e-02,
605,-3.20e-01,-2.08e-02,
606,-3.20e-01,-2.08e-02,
607,-3.20e-01,-2.08e-02,
608,-3.20e-01,-2.08e-02,
609,-3.20e-01,-2.08e-02,
610,-3.20e-01,-2.40e-02,
611,-3.20e-01,-2.08e-02,
612,-3.20e-01,-2.08e-02,
613,-3.20e-01,-2.16e-02,
614,-3.20e-01,-2.08e-02,
615,-3.20e-01,-2.16e-02,
616,-3.20e-01,-2.08e-02,
617,-3.20e-01,-2.16e-02,
618,-3.20e-01,-2.08e-02,
619,-3.20e-01,-1.92e-02,
620,-3.20e-01,-2.08e-02,
621,-3.20e-01,-2.08e-02,
622,-3.20e-01,-2.32e-02,
623,-3.20e-01,-2.08e-02,
624,-3.20e-01,-2.16e-02,
625,-3.20e-01,-2.16e-02,
626,-3.20e-01,-2.16e-02,
627,-3.20e-01,-2.16e-02,
628,-3.20e-01,-2.08e-02,
629,-3.20e-01,-2.40e-02,
630,-3.20e-01,-2.08e-02,
631,-3.20e-01,-2.16e-02,
632,-3.20e-01,-2.16e-02,
633,-3.20e-01,-2.16e-02,
634,-3.20e-01,-2.16e-02,
635,-3.20e-01,-2.16e-02,
636,-3.20e-01,-2.32e-02,
637,-3.20e-01,-2.32e-02,
638,-3.20e-01,-2.16e-02,
639,-3.20e-01,-2.08e-02,
640,-3.20e-01,-2.16e-02,
641,-3.20e-01,-2.32e-02,
642,-3.20e-01,-2.08e-02,
643,-3.20e-01,-2.32e-02,
644,-3.20e-01,-2.16e-02,
645,-3.20e-01,-2.32e-02,
646,-3.20e-01,-2.08e-02,
647,-3.20e-01,-2.16e-02,
648,-3.20e-01,-2.40e-02,
649,-3.20e-01,-2.16e-02,
650,-3.20e-01,-2.32e-02,
651,-3.20e-01,-2.32e-02,
652,-3.20e-01,-2.32e-02,
653,-3.20e-01,-2.16e-02,
654,-3.20e-01,-2.32e-02,
655,-3.20e-01,-2.40e-02,
656,-3.20e-01,-2.40e-02,
657,-3.20e-01,-2.32e-02,
658,-3.20e-01,-2.16e-02,
659,-3.20e-01,-2.32e-02,
660,-3.20e-01,-2.40e-02,
661,-3.20e-01,-2.32e-02,
662,-3.20e-01,-2.40e-02,
663,-3.20e-01,-2.40e-02,
664,-3.20e-01,-2.32e-02,
665,-3.20e-01,-2.16e-02,
666,-3.20e-01,-2.16e-02,
667,-3.20e-01,-2.40e-02,
668,-4.00e-01,-2.40e-02,
669,-3.20e-01,-2.32e-02,
670,-3.20e-01,-2.40e-02,
671,-4.00e-01,-2.40e-02,
672,-4.00e-01,-2.32e-02,
673,-4.00e-01,-2.32e-02,
674,-3.20e-01,-2.32e-02,
675,-4.00e-01,-2.64e-02,
676,-4.00e-01,-2.40e-02,
677,-4.00e-01,-2.32e-02,
678,-4.00e-01,-2.32e-02,
679,-4.00e-01,-2.40e-02,
680,-4.00e-01,-2.32e-02,
681,-4.00e-01,-2.32e-02,
682,-4.00e-01,-2.56e-02,
683,-4.00e-01,-2.40e-02,
684,-4.00e-01,-2.40e-02,
685,-4.00e-01,-2.16e-02,
686,-4.00e-01,-2.40e-02,
687,-4.00e-01,-2.40e-02,
688,-4.00e-01,-2.56e-02,
689,-4.00e-01,-2.64e-02,
690,-4.00e-01,-2.56e-02,
691,-4.00e-01,-2.56e-02,
692,-4.00e-01,-2.40e-02,
693,-4.00e-01,-2.40e-02,
694,-4.00e-01,-2.56e-02,
695,-4.00e-01,-2.56e-02,
696,-4.00e-01,-2.40e-02,
697,-4.00e-01,-2.32e-02,
698,-4.00e-01,-2.56e-02,
699,-4.00e-01,-2.32e-02,
700,-4.00e-01,-2.40e-02,
701,-4.00e-01,-2.56e-02,
702,-4.00e-01,-2.56e-02,
703,-4.00e-01,-2.64e-02,
704,-4.00e-01,-2.40e-02,
705,-4.00e-01,-2.40e-02,
706,-4.00e-01,-2.40e-02,
707,-4.00e-01,-2.64e-02,
708,-4.00e-01,-2.56e-02,
709,-4.00e-01,-2.56e-02,
710,-4.00e-01,-2.56e-02,
711,-4.00e-01,-2.56e-02,
712,-4.00e-01,-2.40e-02,
713,-4.00e-01,-2.32e-02,
714,-4.00e-01,-2.64e-02,
715,-4.00e-01,-2.56e-02,
716,-4.00e-01,-2.40e-02,
717,-4.00e-01,-2.56e-02,
718,-4.00e-01,-2.56e-02,
719,-4.00e-01,-2.56e-02,
720,-4.00e-01,-2.56e-02,
721,-4.00e-01,-2.64e-02,
722,-4.00e-01,-2.64e-02,
723,-4.00e-01,-2.64e-02,
724,-4.00e-01,-2.56e-02,
725,-4.00e-01,-2.40e-02,
726,-4.00e-01,-2.56e-02,
727,-4.00e-01,-2.56e-02,
728,-4.00e-01,-2.64e-02,
729,-4.00e-01,-2.56e-02,
730,-4.00e-01,-2.64e-02,
731,-4.00e-01,-2.56e-02,
732,-4.00e-01,-2.40e-02,
733,-4.00e-01,-2.64e-02,
734,-4.00e-01,-2.56e-02,
735,-5.60e-01,-2.64e-02,
736,-5.60e-01,-2.56e-02,
737,-5.60e-01,-2.56e-02,
738,-5.60e-01,-2.40e-02,
739,-5.60e-01,-2.56e-02,
740,-4.00e-01,-2.64e-02,
741,-5.60e-01,-2.56e-02,
742,-5.60e-01,-2.64e-02,
743,-5.60e-01,-2.64e-02,
744,-5.60e-01,-2.56e-02,
745,-5.60e-01,-2.56e-02,
746,-5.60e-01,-2.64e-02,
747,-5.60e-01,-2.88e-02,
748,-5.60e-01,-2.56e-02,
749,-5.60e-01,-2.80e-02,
750,-5.60e-01,-2.64e-02,
751,-5.60e-01,-2.64e-02,
752,-5.60e-01,-2.56e-02,
753,-5.60e-01,-2.56e-02,
754,-5.60e-01,-2.80e-02,
755,-5.60e-01,-2.64e-02,
756,-5.60e-01,-2.80e-02,
757,-5.60e-01,-2.56e-02,
758,-5.60e-01,-2.64e-02,
759,-5.60e-01,-2.64e-02,
760,-5.60e-01,-2.64e-02,
761,-5.60e-01,-2.88e-02,
762,-5.60e-01,-2.64e-02,
763,-5.60e-01,-2.80e-02,
764,-5.60e-01,-2.64e-02,
765,-5.60e-01,-2.64e-02,
766,-5.60e-01,-2.64e-02,
767,-5.60e-01,-2.80e-02,
768,-5.60e-01,-2.88e-02,
769,-5.60e-01,-2.64e-02,
770,-5.60e-01,-2.80e-02,
771,-5.60e-01,-2.64e-02,
772,-5.60e-01,-2.80e-02,
773,-5.60e-01,-2.80e-02,
774,-5.60e-01,-2.80e-02,
775,-5.60e-01,-2.88e-02,
776,-5.60e-01,-2.56e-02,
777,-5.60e-01,-2.80e-02,
778,-5.60e-01,-2.64e-02,
779,-5.60e-01,-2.88e-02,
780,-5.60e-01,-2.88e-02,
781,-5.60e-01,-2.80e-02,
782,-5.60e-01,-2.88e-02,
783,-5.60e-01,-2.80e-02,
784,-5.60e-01,-2.80e-02,
785,-5.60e-01,-2.64e-02,
786,-5.60e-01,-2.88e-02,
787,-5.60e-01,-2.88e-02,
788,-5.60e-01,-2.88e-02,
789,-5.60e-01,-2.80e-02,
790,-5.60e-01,-2.64e-02,
791,-5.60e-01,-2.88e-02,
792,-5.60e-01,-2.80e-02,
793,-5.60e-01,-2.88e-02,
794,-5.60e-01,-2.88e-02,
795,-5.60e-01,-2.88e-02,
796,-5.60e-01,-3.04e-02,
797,-5.60e-01,-2.80e-02,
798,-5.60e-01,-2.80e-02,
799,-5.60e-01,-2.80e-02,
800,-5.60e-01,-3.04e-02,
801,-5.60e-01,-2.88e-02,
802,-5.60e-01,-2.88e-02,
803,-5.60e-01,-2.88e-02,
804,-6.40e-01,-2.64e-02,
805,-6.40e-01,-2.80e-02,
806,-6.40e-01,-2.80e-02,
807,-6.40e-01,-3.04e-02,
808,-6.40e-01,-2.88e-02,
809,-6.40e-01,-2.80e-02,
810,-6.40e-01,-2.88e-02,
811,-6.40e-01,-2.80e-02,
812,-6.40e-01,-2.80e-02,
813,-6.40e-01,-2.88e-02,
814,-6.40e-01,-3.04e-02,
815,-6.40e-01,-3.12e-02,
816,-6.40e-01,-2.88e-02,
817,-6.40e-01,-2.80e-02,
818,-6.40e-01,-2.88e-02,
819,-6.40e-01,-3.04e-02,
820,-6.40e-01,-2.88e-02,
821,-6.40e-01,-3.04e-02,
822,-6.40e-01,-2.88e-02,
