data/vertical/measurement19.csv

X,CH1,CH2,CH4,Start,Increment,
Sequence,Volt,Volt,Volt,-1.156000e-02,8.000000e-07
0,6.40e-01,-4.80e-03,-1.40e-03,
1,6.40e-01,-7.20e-03,-1.40e-03,
2,6.40e-01,-7.20e-03,-1.80e-03,
3,6.40e-01,-8.80e-03,-1.40e-03,
4,6.40e-01,-7.20e-03,-1.60e-03,
5,6.40e-01,-6.40e-03,-1.60e-03,
6,6.40e-01,-7.20e-03,-1.40e-03,
7,6.40e-01,-8.80e-03,-1.20e-03,
8,6.40e-01,-7.20e-03,-1.40e-03,
9,6.40e-01,-7.20e-03,-1.00e-03,
10,6.40e-01,-7.20e-03,-1.40e-03,
11,6.40e-01,-8.80e-03,-1.20e-03,
12,6.40e-01,-8.80e-03,-1.60e-03,
13,6.40e-01,-4.80e-03,-1.80e-03,
14,6.40e-01,-6.40e-03,-1.60e-03,
15,6.40e-01,-8.80e-03,-1.60e-03,
16,6.40e-01,-7.20e-03,-2.20e-03,
17,6.40e-01,-6.40e-03,-1.80e-03,
18,6.40e-01,-6.40e-03,-1.20e-03,
19,6.40e-01,-7.20e-03,-1.60e-03,
20,6.40e-01,-8.80e-03,-1.20e-03,
21,6.40e-01,-6.40e-03,-1.60e-03,
22,6.40e-01,-4.80e-03,-1.60e-03,
23,6.40e-01,-7.20e-03,-1.60e-03,
24,5.60e-01,-9.60e-03,-1.40e-03,
25,6.40e-01,-6.40e-03,-2.20e-03,
26,6.40e-01,-6.40e-03,-1.40e-03,
27,5.60e-01,-7.20e-03,-1.60e-03,
28,5.60e-01,-7.20e-03,-1.40e-03,
29,6.40e-01,-8.80e-03,-1.60e-03,
30,5.60e-01,-7.20e-03,-1.40e-03,
31,5.60e-01,-7.20e-03,-1.80e-03,
32,5.60e-01,-7.20e-03,-1.60e-03,
33,5.60e-01,-8.80e-03,-1.60e-03,
34,5.60e-01,-7.20e-03,-1.80e-03,
35,5.60e-01,-6.40e-03,-2.20e-03,
36,5.60e-01,-7.20e-03,-1.60e-03,
37,5.60e-01,-7.20e-03,-1.80e-03,
38,5.60e-01,-8.80e-03,-1.40e-03,
39,5.60e-01,-9.60e-03,-1.40e-03,
40,5.60e-01,-6.40e-03,-1.40e-03,
41,5.60e-01,-8.80e-03,-1.20e-03,
42,5.60e-01,-8.80e-03,-1.40e-03,
43,5.60e-01,-8.80e-03,-1.80e-03,
44,5.60e-01,-7.20e-03,-1.60e-03,
45,5.60e-01,-6.40e-03,-1.80e-03,
46,5.60e-01,-8.80e-03,-1.80e-03,
47,5.60e-01,-6.40e-03,-1.40e-03,
48,5.60e-01,-4.80e-03,-1.60e-03,
49,5.60e-01,-6.40e-03,-1.00e-03,
50,5.60e-01,-8.80e-03,-1.20e-03,
51,5.60e-01,-7.20e-03,-2.20e-03,
52,5.60e-01,-9.60e-03,-1.40e-03,
53,5.60e-01,-7.20e-03,-1.20e-03,
54,5.60e-01,-7.20e-03,-2.20e-03,
55,5.60e-01,-8.80e-03,-1.80e-03,
56,5.60e-01,-6.40e-03,-2.20e-03,
57,5.60e-01,-7.20e-03,-2.20e-03,
58,5.60e-01,-9.60e-03,-1.60e-03,
59,5.60e-01,-8.80e-03,-1.40e-03,
60,5.60e-01,-7.20e-03,-2.20e-03,
61,5.60e-01,-8.80e-03,-1.40e-03,
62,5.60e-01,-8.80e-03,-1.40e-03,
63,5.60e-01,-9.60e-03,-1.40e-03,
64,5.60e-01,-1.12e-02,-1.80e-03,
65,5.60e-01,-8.80e-03,-2.40e-03,
66,5.60e-01,-9.60e-03,-1.40e-03,
67,5.60e-01,-9.60e-03,-1.20e-03,
68,5.60e-01,-8.80e-03,-2.20e-03,
69,5.60e-01,-8.80e-03,-2.20e-03,
70,5.60e-01,-7.20e-03,-1.60e-03,
71,5.60e-01,-8.80e-03,-1.80e-03,
72,5.60e-01,-9.60e-03,-1.40e-03,
73,5.60e-01,-8.80e-03,-2.20e-03,
74,5.60e-01,-8.80e-03,-1.60e-03,
75,5.60e-01,-8.80e-03,-1.20e-03,
76,5.60e-01,-8.80e-03,-1.80e-03,
77,5.60e-01,-8.80e-03,-2.60e-03,
78,5.60e-01,-8.80e-03,-1.40e-03,
79,5.60e-01,-7.20e-03,-1.80e-03,
80,5.60e-01,-8.80e-03,-1.40e-03,
81,5.60e-01,-1.12e-02,-1.60e-03,
82,5.60e-01,-7.20e-03,-1.60e-03,
83,5.60e-01,-8.80e-03,-1.80e-03,
84,5.60e-01,-9.60e-03,-1.60e-03,
85,5.60e-01,-9.60e-03,-1.80e-03,
86,5.60e-01,-1.12e-02,-1.40e-03,
87,5.60e-01,-7.20e-03,-2.20e-03,
88,5.60e-01,-8.80e-03,-2.20e-03,
89,5.60e-01,-8.80e-03,-1.80e-03,
90,5.60e-01,-9.60e-03,-2.20e-03,
91,5.60e-01,-8.80e-03,-2.40e-03,
92,5.60e-01,-8.80e-03,-1.80e-03,
93,5.60e-01,-1.20e-02,-1.40e-03,
94,5.60e-01,-1.12e-02,-2.20e-03,
95,5.60e-01,-9.60e-03,-1.80e-03,
96,5.60e-01,-8.80e-03,-1.80e-03,
97,5.60e-01,-8.80e-03,-2.20e-03,
98,5.60e-01,-1.12e-02,-2.20e-03,
99,5.60e-01,-9.60e-03,-1.60e-03,
100,5.60e-01,-8.80e-03,-2.60e-03,
101,5.60e-01,-7.20e-03,-2.20e-03,
102,5.60e-01,-9.60e-03,-1.80e-03,
103,5.60e-01,-8.80e-03,-1.80e-03,
104,5.60e-01,-9.60e-03,-1.80e-03,
105,5.60e-01,-8.80e-03,-1.60e-03,
106,5.60e-01,-7.20e-03,-2.40e-03,
107,5.60e-01,-1.12e-02,-1.80e-03,
108,5.60e-01,-9.60e-03,-2.20e-03,
109,5.60e-01,-7.20e-03,-2.40e-03,
110,5.60e-01,-8.80e-03,-2.20e-03,
111,5.60e-01,-8.80e-03,-1.80e-03,
112,5.60e-01,-9.60e-03,-2.20e-03,
113,5.60e-01,-1.12e-02,-1.80e-03,
114,5.60e-01,-8.80e-03,-2.60e-03,
115,5.60e-01,-1.12e-02,-1.80e-03,
116,5.60e-01,-1.12e-02,-1.80e-03,
117,5.60e-01,-9.60e-03,-2.20e-03,
118,5.60e-01,-8.80e-03,-2.20e-03,
119,4.00e-01,-8.80e-03,-2.20e-03,
120,4.00e-01,-8.80e-03,-2.40e-03,
121,4.00e-01,-1.12e-02,-1.80e-03,
122,4.00e-01,-8.80e-03,-2.20e-03,
123,4.00e-01,-8.80e-03,-2.20e-03,
124,4.00e-01,-8.80e-03,-1.80e-03,
125,4.00e-01,-1.12e-02,-1.80e-03,
126,4.00e-01,-8.80e-03,-2.60e-03,
127,4.00e-01,-8.80e-03,-2.20e-03,
128,4.00e-01,-1.12e-02,-1.40e-03,
129,4.00e-01,-9.60e-03,-1.80e-03,
130,4.00e-01,-9.60e-03,-2.40e-03,
131,4.00e-01,-8.80e-03,-1.80e-03,
132,4.00e-01,-1.12e-02,-1.40e-03,
133,4.00e-01,-1.20e-02,-1.80e-03,
134,4.00e-01,-1.36e-02,-1.60e-03,
135,4.00e-01,-8.80e-03,-2.20e-03,
136,4.00e-01,-9.60e-03,-1.80e-03,
137,4.00e-01,-1.12e-02,-2.20e-03,
138,4.00e-01,-1.12e-02,-2.40e-03,
139,4.00e-01,-9.60e-03,-2.60e-03,
140,4.00e-01,-9.60e-03,-2.20e-03,
141,4.00e-01,-9.60e-03,-2.60e-03,
142,4.00e-01,-1.12e-02,-1.40e-03,
143,4.00e-01,-8.80e-03,-1.80e-03,
144,4.00e-01,-8.80e-03,-2.20e-03,
145,4.00e-01,-1.12e-02,-2.20e-03,
146,4.00e-01,-9.60e-03,-1.80e-03,
147,4.00e-01,-1.12e-02,-2.20e-03,
148,4.00e-01,-9.60e-03,-1.80e-03,
149,4.00e-01,-8.80e-03,-2.60e-03,
150,4.00e-01,-1.12e-02,-2.20e-03,
151,4.00e-01,-1.20e-02,-2.40e-03,
152,4.00e-01,-1.12e-02,-2.20e-03,
153,4.00e-01,-1.12e-02,-1.80e-03,
154,4.00e-01,-1.20e-02,-2.20e-03,
155,4.00e-01,-1.20e-02,-2.40e-03,
156,4.00e-01,-1.12e-02,-1.80e-03,
157,4.00e-01,-1.12e-02,-2.40e-03,
158,4.00e-01,-1.12e-02,-2.60e-03,
159,4.00e-01,-1.20e-02,-2.60e-03,
160,4.00e-01,-8.80e-03,-2.80e-03,
161,4.00e-01,-1.12e-02,-1.80e-03,
162,4.00e-01,-8.80e-03,-2.60e-03,
163,4.00e-01,-1.12e-02,-2.60e-03,
164,4.00e-01,-1.20e-02,-1.80e-03,
165,4.00e-01,-1.12e-02,-1.60e-03,
166,4.00e-01,-1.12e-02,-1.80e-03,
167,4.00e-01,-9.60e-03,-2.40e-03,
168,4.00e-01,-1.12e-02,-2.60e-03,
169,4.00e-01,-1.12e-02,-1.80e-03,
170,4.00e-01,-1.12e-02,-2.80e-03,
171,4.00e-01,-1.12e-02,-2.40e-03,
172,4.00e-01,-1.12e-02,-2.20e-03,
173,4.00e-01,-1.12e-02,-1.80e-03,
174,4.00e-01,-1.12e-02,-2.20e-03,
175,4.00e-01,-1.12e-02,-2.20e-03,
176,4.00e-01,-1.12e-02,-2.40e-03,
177,4.00e-01,-1.20e-02,-1.60e-03,
178,4.00e-01,-1.20e-02,-2.20e-03,
179,4.00e-01,-1.20e-02,-2.20e-03,
180,4.00e-01,-1.20e-02,-3.00e-03,
181,4.00e-01,-1.20e-02,-2.40e-03,
182,4.00e-01,-1.36e-02,-1.80e-03,
183,4.00e-01,-1.36e-02,-2.20e-03,
184,4.00e-01,-1.20e-02,-2.40e-03,
185,4.00e-01,-1.20e-02,-1.80e-03,
186,4.00e-01,-1.12e-02,-2.20e-03,
187,4.00e-01,-1.20e-02,-1.80e-03,
188,4.00e-01,-1.20e-02,-2.60e-03,
189,4.00e-01,-1.12e-02,-2.40e-03,
190,4.00e-01,-1.20e-02,-1.80e-03,
191,4.00e-01,-9.60e-03,-2.40e-03,
192,4.00e-01,-1.12e-02,-3.00e-03,
193,4.00e-01,-1.20e-02,-2.20e-03,
194,4.00e-01,-1.20e-02,-1.20e-03,
195,4.00e-01,-1.12e-02,-2.20e-03,
196,4.00e-01,-1.20e-02,-2.20e-03,
197,4.00e-01,-1.20e-02,-2.20e-03,
198,4.00e-01,-1.12e-02,-2.40e-03,
199,4.00e-01,-1.44e-02,-2.60e-03,
200,4.00e-01,-1.36e-02,-2.40e-03,
201,4.00e-01,-1.20e-02,-2.80e-03,
202,4.00e-01,-1.12e-02,-2.40e-03,
203,4.00e-01,-1.20e-02,-2.40e-03,
204,3.20e-01,-1.36e-02,-1.80e-03,
205,4.00e-01,-1.36e-02,-2.20e-03,
206,4.00e-01,-1.20e-02,-2.60e-03,
207,3.20e-01,-1.12e-02,-1.80e-03,
208,3.20e-01,-1.36e-02,-1.80e-03,
209,3.20e-01,-1.20e-02,-2.60e-03,
210,3.20e-01,-1.36e-02,-2.60e-03,
211,3.20e-01,-1.12e-02,-2.80e-03,
212,3.20e-01,-1.20e-02,-2.20e-03,
213,3.20e-01,-1.36e-02,-2.40e-03,
214,3.20e-01,-1.12e-02,-2.60e-03,
215,3.20e-01,-1.20e-02,-1.80e-03,
216,3.20e-01,-1.12e-02,-2.20e-03,
217,3.20e-01,-1.36e-02,-2.60e-03,
218,3.20e-01,-1.36e-02,-2.20e-03,
219,3.20e-01,-1.12e-02,-2.20e-03,
220,3.20e-01,-1.12e-02,-2.60e-03,
221,3.20e-01,-1.44e-02,-2.20e-03,
222,3.20e-01,-1.44e-02,-2.80e-03,
223,3.20e-01,-1.12e-02,-2.60e-03,
224,3.20e-01,-1.20e-02,-2.40e-03,
225,3.20e-01,-1.20e-02,-2.60e-03,
226,3.20e-01,-1.44e-02,-3.00e-03,
227,3.20e-01,-1.36e-02,-2.20e-03,
228,3.20e-01,-1.36e-02,-3.20e-03,
229,3.20e-01,-1.36e-02,-2.20e-03,
230,3.20e-01,-1.20e-02,-2.80e-03,
231,3.20e-01,-1.36e-02,-3.60e-03,
232,3.20e-01,-1.20e-02,-2.80e-03,
233,3.20e-01,-1.12e-02,-2.80e-03,
234,3.20e-01,-1.36e-02,-2.80e-03,
235,3.20e-01,-1.36e-02,-2.40e-03,
236,3.20e-01,-1.36e-02,-2.80e-03,
237,3.20e-01,-1.12e-02,-2.40e-03,
238,3.20e-01,-1.36e-02,-2.60e-03,
239,3.20e-01,-1.36e-02,-2.60e-03,
240,3.20e-01,-1.44e-02,-2.40e-03,
241,3.20e-01,-1.20e-02,-2.40e-03,
242,3.20e-01,-1.12e-02,-3.00e-03,
243,3.20e-01,-1.44e-02,-2.40e-03,
244,3.20e-01,-1.20e-02,-2.60e-03,
245,3.20e-01,-1.36e-02,-2.20e-03,
246,3.20e-01,-1.36e-02,-2.40e-03,
247,3.20e-01,-1.20e-02,-2.40e-03,
248,3.20e-01,-1.44e-02,-2.40e-03,
249,3.20e-01,-1.12e-02,-2.60e-03,
250,3.20e-01,-1.36e-02,-2.60e-03,
251,3.20e-01,-1.36e-02,-2.20e-03,
252,3.20e-01,-1.20e-02,-2.60e-03,
253,3.20e-01,-1.44e-02,-2.20e-03,
254,3.20e-01,-1.12e-02,-2.60e-03,
255,3.20e-01,-1.36e-02,-2.20e-03,
256,3.20e-01,-1.60e-02,-2.20e-03,
257,3.20e-01,-1.44e-02,-3.00e-03,
258,3.20e-01,-1.44e-02,-2.40e-03,
259,3.20e-01,-1.20e-02,-2.80e-03,
260,3.20e-01,-1.44e-02,-2.60e-03,
261,3.20e-01,-1.60e-02,-2.80e-03,
262,3.20e-01,-1.36e-02,-3.60e-03,
263,3.20e-01,-1.44e-02,-2.60e-03,
264,3.20e-01,-1.36e-02,-2.40e-03,
265,3.20e-01,-1.44e-02,-3.00e-03,
266,3.20e-01,-1.60e-02,-2.40e-03,
267,3.20e-01,-1.20e-02,-3.00e-03,
268,3.20e-01,-1.44e-02,-2.60e-03,
269,3.20e-01,-1.60e-02,-2.80e-03,
270,3.20e-01,-1.36e-02,-2.80e-03,
271,3.20e-01,-1.36e-02,-2.60e-03,
272,3.20e-01,-1.12e-02,-2.80e-03,
273,3.20e-01,-1.44e-02,-3.20e-03,
274,3.20e-01,-1.44e-02,-2.40e-03,
275,3.20e-01,-1.20e-02,-2.80e-03,
276,3.20e-01,-1.36e-02,-2.40e-03,
277,3.20e-01,-1.36e-02,-2.80e-03,
278,3.20e-01,-1.36e-02,-2.80e-03,
279,3.20e-01,-1.60e-02,-2.20e-03,
280,3.20e-01,-1.20e-02,-2.20e-03,
281,3.20e-01,-1.44e-02,-3.00e-03,
282,3.20e-01,-1.60e-02,-2.60e-03,
283,3.20e-01,-1.20e-02,-2.60e-03,
284,3.20e-01,-1.36e-02,-2.40e-03,
285,3.20e-01,-1.36e-02,-3.00e-03,
286,3.20e-01,-1.36e-02,-3.00e-03,
287,3.20e-01,-1.60e-02,-2.40e-03,
288,1.60e-01,-1.36e-02,-2.20e-03,
289,3.20e-01,-1.20e-02,-3.00e-03,
290,3.20e-01,-1.60e-02,-3.00e-03,
291,3.20e-01,-1.60e-02,-2.60e-03,
292,1.60e-01,-1.44e-02,-2.80e-03,
293,1.60e-01,-1.36e-02,-2.80e-03,
294,3.20e-01,-1.44e-02,-2.80e-03,
295,3.20e-01,-1.36e-02,-3.00e-03,
296,1.60e-01,-1.36e-02,-3.00e-03,
297,1.60e-01,-1.20e-02,-2.80e-03,
298,1.60e-01,-1.44e-02,-3.00e-03,
299,1.60e-01,-1.44e-02,-2.40e-03,
300,1.60e-01,-1.44e-02,-2.80e-03,
301,1.60e-01,-1.36e-02,-2.80e-03,
302,1.60e-01,-1.36e-02,-2.60e-03,
303,1.60e-01,-1.44e-02,-2.60e-03,
304,1.60e-01,-1.60e-02,-2.60e-03,
305,1.60e-01,-1.36e-02,-3.00e-03,
306,1.60e-01,-1.36e-02,-3.00e-03,
307,1.60e-01,-1.36e-02,-2.60e-03,
308,1.60e-01,-1.44e-02,-3.20e-03,
309,1.60e-01,-1.36e-02,-2.80e-03,
310,1.60e-01,-1.20e-02,-3.00e-03,
311,1.60e-01,-1.60e-02,-2.40e-03,
312,1.60e-01,-1.44e-02,-2.40e-03,
313,1.60e-01,-1.60e-02,-3.00e-03,
314,1.60e-01,-1.36e-02,-3.00e-03,
315,1.60e-01,-1.20e-02,-2.60e-03,
316,1.60e-01,-1.60e-02,-2.60e-03,
317,1.60e-01,-1.44e-02,-3.00e-03,
318,1.60e-01,-1.44e-02,-3.60e-03,
319,1.60e-01,-1.36e-02,-2.20e-03,
320,1.60e-01,-1.44e-02,-2.80e-03,
321,1.60e-01,-1.60e-02,-2.60e-03,
322,1.60e-01,-1.44e-02,-2.80e-03,
323,1.60e-01,-1.44e-02,-2.80e-03,
324,1.60e-01,-1.60e-02,-2.60e-03,
325,1.60e-01,-1.60e-02,-3.00e-03,
326,1.60e-01,-1.60e-02,-3.20e-03,
327,1.60e-01,-1.44e-02,-2.40e-03,
328,1.60e-01,-1.44e-02,-3.00e-03,
329,1.60e-01,-1.60e-02,-3.00e-03,
330,1.60e-01,-1.60e-02,-2.80e-03,
331,1.60e-01,-1.60e-02,-2.40e-03,
332,1.60e-01,-1.44e-02,-2.40e-03,
333,1.60e-01,-1.60e-02,-2.60e-03,
334,1.60e-01,-1.68e-02,-3.20e-03,
335,1.60e-01,-1.60e-02,-2.80e-03,
336,1.60e-01,-1.60e-02,-3.00e-03,
337,1.60e-01,-1.60e-02,-3.00e-03,
338,1.60e-01,-1.68e-02,-2.60e-03,
339,1.60e-01,-1.60e-02,-3.00e-03,
340,1.60e-01,-1.36e-02,-3.00e-03,
341,1.60e-01,-1.44e-02,-2.60e-03,
342,1.60e-01,-1.68e-02,-3.00e-03,
343,1.60e-01,-1.60e-02,-2.60e-03,
344,1.60e-01,-1.60e-02,-3.00e-03,
345,1.60e-01,-1.44e-02,-3.20e-03,
346,1.60e-01,-1.36e-02,-3.00e-03,
347,1.60e-01,-1.60e-02,-2.80e-03,
348,1.60e-01,-1.36e-02,-3.20e-03,
349,1.60e-01,-1.44e-02,-3.20e-03,
350,1.60e-01,-1.60e-02,-2.60e-03,
351,1.60e-01,-1.44e-02,-2.60e-03,
352,1.60e-01,-1.60e-02,-2.60e-03,
353,1.60e-01,-1.68e-02,-2.60e-03,
354,1.60e-01,-1.36e-02,-3.00e-03,
355,1.60e-01,-1.44e-02,-3.20e-03,
356,1.60e-01,-1.60e-02,-3.00e-03,
357,1.60e-01,-1.44e-02,-3.60e-03,
358,1.60e-01,-1.60e-02,-3.60e-03,
359,1.60e-01,-1.44e-02,-2.80e-03,
360,1.60e-01,-1.44e-02,-3.00e-03,
361,1.60e-01,-1.44e-02,-3.80e-03,
362,1.60e-01,-1.60e-02,-2.40e-03,
363,1.60e-01,-1.68e-02,-2.20e-03,
364,1.60e-01,-1.60e-02,-3.00e-03,
365,1.60e-01,-1.68e-02,-3.00e-03,
366,1.60e-01,-1.60e-02,-3.20e-03,
367,1.60e-01,-1.44e-02,-3.60e-03,
368,1.60e-01,-1.60e-02,-3.00e-03,
369,1.60e-01,-1.44e-02,-3.60e-03,
370,1.60e-01,-1.60e-02,-3.60e-03,
371,1.60e-01,-1.60e-02,-2.80e-03,
372,1.60e-01,-1.44e-02,-3.20e-03,
373,1.60e-01,-1.44e-02,-3.00e-03,
374,1.60e-01,-1.68e-02,-2.60e-03,
375,1.60e-01,-1.68e-02,-3.00e-03,
376,8.00e-02,-1.44e-02,-3.80e-03,
377,8.00e-02,-1.68e-02,-3.00e-03,
378,1.60e-01,-1.68e-02,-3.20e-03,
379,1.60e-01,-1.60e-02,-3.20e-03,
380,8.00e-02,-1.84e-02,-3.60e-03,
381,8.00e-02,-1.60e-02,-3.60e-03,
382,8.00e-02,-1.68e-02,-2.60e-03,
383,8.00e-02,-1.68e-02,-2.80e-03,
384,8.00e-02,-1.84e-02,-3.20e-03,
385,8.00e-02,-1.68e-02,-3.00e-03,
386,8.00e-02,-1.68e-02,-2.80e-03,
387,8.00e-02,-1.60e-02,-4.00e-03,
388,8.00e-02,-1.60e-02,-3.60e-03,
389,8.00e-02,-1.68e-02,-3.20e-03,
390,8.00e-02,-1.60e-02,-3.00e-03,
391,8.00e-02,-1.68e-02,-3.00e-03,
392,8.00e-02,-1.44e-02,-3.60e-03,
393,8.00e-02,-1.60e-02,-3.20e-03,
394,8.00e-02,-1.68e-02,-2.60e-03,
395,8.00e-02,-1.44e-02,-3.60e-03,
396,8.00e-02,-1.60e-02,-3.20e-03,
397,8.00e-02,-1.84e-02,-3.60e-03,
398,8.00e-02,-1.68e-02,-3.60e-03,
399,8.00e-02,-1.60e-02,-3.60e-03,
400,8.00e-02,-1.60e-02,-3.00e-03,
401,8.00e-02,-1.60e-02,-3.00e-03,
402,8.00e-02,-1.92e-02,-3.00e-03,
403,8.00e-02,-1.60e-02,-3.60e-03,
404,8.00e-02,-1.68e-02,-2.40e-03,
405,8.00e-02,-1.84e-02,-2.60e-03,
406,8.00e-02,-1.84e-02,-3.00e-03,
407,8.00e-02,-1.68e-02,-3.60e-03,
408,8.00e-02,-1.60e-02,-3.20e-03,
409,8.00e-02,-1.84e-02,-2.80e-03,
410,8.00e-02,-1.84e-02,-3.20e-03,
411,8.00e-02,-1.84e-02,-3.80e-03,
412,8.00e-02,-1.68e-02,-2.60e-03,
413,8.00e-02,-1.68e-02,-3.00e-03,
414,8.00e-02,-1.68e-02,-3.00e-03,
415,8.00e-02,-1.68e-02,-3.60e-03,
416,8.00e-02,-1.68e-02,-3.20e-03,
417,8.00e-02,-1.92e-02,-3.00e-03,
418,8.00e-02,-1.60e-02,-3.60e-03,
419,8.00e-02,-1.68e-02,-3.00e-03,
420,8.00e-02,-1.60e-02,-3.20e-03,
421,8.00e-02,-1.68e-02,-3.60e-03,
422,8.00e-02,-1.60e-02,-3.00e-03,
423,8.00e-02,-1.68e-02,-2.60e-03,
424,8.00e-02,-1.84e-02,-2.80e-03,
425,8.00e-02,-1.92e-02,-3.60e-03,
426,8.00e-02,-1.68e-02,-3.80e-03,
427,8.00e-02,-1.68e-02,-2.60e-03,
428,8.00e-02,-1.68e-02,-3.80e-03,
429,8.00e-02,-1.92e-02,-3.60e-03,
430,8.00e-02,-1.68e-02,-3.80e-03,
431,8.00e-02,-1.60e-02,-3.60e-03,
432,8.00e-02,-1.68e-02,-3.20e-03,
433,8.00e-02,-1.68e-02,-3.20e-03,
434,8.00e-02,-1.84e-02,-3.20e-03,
435,8.00e-02,-1.60e-02,-3.00e-03,
436,8.00e-02,-1.84e-02,-3.60e-03,
437,8.00e-02,-1.84e-02,-3.00e-03,
438,8.00e-02,-1.84e-02,-3.60e-03,
439,8.00e-02,-1.92e-02,-3.00e-03,
440,8.00e-02,-1.68e-02,-3.80e-03,
441,8.00e-02,-1.60e-02,-3.20e-03,
442,8.00e-02,-1.84e-02,-3.20e-03,
443,8.00e-02,-1.92e-02,-2.80e-03,
444,8.00e-02,-2.08e-02,-3.20e-03,
445,8.00e-02,-1.68e-02,-3.00e-03,
446,8.00e-02,-1.92e-02,-3.00e-03,
447,8.00e-02,-1.92e-02,-3.20e-03,
448,8.00e-02,-1.92e-02,-4.00e-03,
449,8.00e-02,-1.84e-02,-3.20e-03,
450,8.00e-02,-1.84e-02,-3.80e-03,
451,8.00e-02,-1.68e-02,-3.80e-03,
452,8.00e-02,-1.68e-02,-3.60e-03,
453,8.00e-02,-1.60e-02,-3.60e-03,
454,8.00e-02,-1.60e-02,-3.00e-03,
455,8.00e-02,-1.84e-02,-3.00e-03,
456,8.00e-02,-1.68e-02,-3.60e-03,
457,8.00e-02,-1.68e-02,-3.60e-03,
458,8.00e-02,-1.68e-02,-3.00e-03,
459,8.00e-02,-1.84e-02,-3.20e-03,
460,8.00e-02,-1.68e-02,-3.20e-03,
461,8.00e-02,-1.92e-02,-3.60e-03,
462,-8.00e-02,-1.68e-02,-3.60e-03,
463,8.00e-02,-1.84e-02,-3.20e-03,
464,8.00e-02,-1.92e-02,-2.80e-03,
465,8.00e-02,-1.92e-02,-3.20e-03,
466,8.00e-02,-2.08e-02,-3.60e-03,
467,-8.00e-02,-1.60e-02,-3.60e-03,
468,-8.00e-02,-1.84e-02,-3.00e-03,
469,8.00e-02,-2.08e-02,-3.00e-03,
470,8.00e-02,-1.84e-02,-3.60e-03,
471,-8.00e-02,-1.92e-02,-3.60e-03,
472,-8.00e-02,-1.68e-02,-3.60e-03,
473,-8.00e-02,-1.92e-02,-3.60e-03,
474,-8.00e-02,-1.84e-02,-3.20e-03,
475,-8.00e-02,-1.68e-02,-3.60e-03,
476,-8.00e-02,-1.92e-02,-2.80e-03,
477,-8.00e-02,-1.84e-02,-3.20e-03,
478,-8.00e-02,-1.84e-02,-3.80e-03,
479,-8.00e-02,-2.08e-02,-2.80e-03,
480,-8.00e-02,-1.84e-02,-3.20e-03,
481,-8.00e-02,-1.68e-02,-3.60e-03,
482,-8.00e-02,-1.84e-02,-3.60e-03,
483,-8.00e-02,-1.92e-02,-3.20e-03,
484,-8.00e-02,-1.84e-02,-3.80e-03,
485,-8.00e-02,-1.84e-02,-3.00e-03,
486,-8.00e-02,-1.68e-02,-3.60e-03,
487,-8.00e-02,-1.84e-02,-3.60e-03,
488,-8.00e-02,-1.92e-02,-3.80e-03,
489,-8.00e-02,-1.60e-02,-3.60e-03,
490,-8.00e-02,-1.84e-02,-3.00e-03,
491,-8.00e-02,-1.92e-02,-3.20e-03,
492,-8.00e-02,-1.68e-02,-4.20e-03,
493,-8.00e-02,-1.68e-02,-3.60e-03,
494,-8.00e-02,-1.84e-02,-3.60e-03,
495,-8.00e-02,-1.84e-02,-3.80e-03,
496,-8.00e-02,-1.92e-02,-3.80e-03,
497,-8.00e-02,-1.84e-02,-3.80e-03,
498,-8.00e-02,-2.16e-02,-4.00e-03,
499,-8.00e-02,-1.92e-02,-3.20e-03,
500,-8.00e-02,-1.68e-02,-3.80e-03,
501,-8.00e-02,-1.92e-02,-3.00e-03,
502,-8.00e-02,-1.92e-02,-3.80e-03,
503,-8.00e-02,-1.84e-02,-4.40e-03,
504,-8.00e-02,-1.84e-02,-3.60e-03,
505,-8.00e-02,-1.84e-02,-3.20e-03,
506,-8.00e-02,-1.92e-02,-3.80e-03,
507,-8.00e-02,-1.92e-02,-3.80e-03,
508,-8.00e-02,-1.84e-02,-3.80e-03,
509,-8.00e-02,-1.92e-02,-3.20e-03,
510,-8.00e-02,-1.68e-02,-4.00e-03,
511,-8.00e-02,-2.08e-02,-4.00e-03,
512,-8.00e-02,-2.16e-02,-3.60e-03,
513,-8.00e-02,-1.92e-02,-3.80e-03,
514,-8.00e-02,-1.84e-02,-4.00e-03,
515,-8.00e-02,-1.92e-02,-3.60e-03,
516,-8.00e-02,-1.92e-02,-3.60e-03,
517,-8.00e-02,-2.16e-02,-3.20e-03,
518,-8.00e-02,-1.92e-02,-3.60e-03,
519,-8.00e-02,-1.92e-02,-3.60e-03,
520,-8.00e-02,-2.08e-02,-3.60e-03,
521,-8.00e-02,-2.08e-02,-3.80e-03,
522,-8.00e-02,-1.92e-02,-4.00e-03,
523,-8.00e-02,-1.92e-02,-3.60e-03,
524,-8.00e-02,-1.92e-02,-3.60e-03,
525,-8.00e-02,-1.92e-02,-4.40e-03,
526,-8.00e-02,-2.16e-02,-3.60e-03,
527,-8.00e-02,-2.08e-02,-3.60e-03,
528,-8.00e-02,-1.92e-02,-3.80e-03,
529,-8.00e-02,-2.08e-02,-3.80e-03,
530,-8.00e-02,-2.08e-02,-3.80e-03,
531,-8.00e-02,-1.92e-02,-4.00e-03,
532,-8.00e-02,-1.92e-02,-3.20e-03,
533,-8.00e-02,-2.08e-02,-4.40e-03,
534,-8.00e-02,-1.92e-02,-3.80e-03,
535,-8.00e-02,-1.92e-02,-4.00e-03,
536,-8.00e-02,-1.68e-02,-4.20e-03,
537,-8.00e-02,-2.08e-02,-3.20e-03,
538,-8.00e-02,-1.92e-02,-3.60e-03,
539,-8.00e-02,-2.08e-02,-3.60e-03,
540,-8.00e-02,-1.92e-02,-3.60e-03,
541,-8.00e-02,-2.08e-02,-3.60e-03,
542,-8.00e-02,-1.92e-02,-3.00e-03,
543,-8.00e-02,-2.08e-02,-3.80e-03,
544,-8.00e-02,-1.92e-02,-4.20e-03,
545,-8.00e-02,-2.08e-02,-3.80e-03,
546,-8.00e-02,-1.92e-02,-3.80e-03,
547,-8.00e-02,-2.16e-02,-4.20e-03,
548,-1.60e-01,-2.16e-02,-3.80e-03,
549,-1.60e-01,-2.08e-02,-3.80e-03,
550,-1.60e-01,-1.92e-02,-3.60e-03,
551,-1.60e-01,-2.16e-02,-3.80e-03,
552,-1.60e-01,-2.16e-02,-4.00e-03,
553,-1.60e-01,-1.92e-02,-4.00e-03,
554,-1.60e-01,-2.16e-02,-3.80e-03,
555,-1.60e-01,-1.92e-02,-4.40e-03,
556,-1.60e-01,-1.92e-02,-4.40e-03,
557,-1.60e-01,-1.92e-02,-3.60e-03,
558,-1.60e-01,-1.84e-02,-4.20e-03,
559,-1.60e-01,-1.92e-02,-4.20e-03,
560,-1.60e-01,-1.92e-02,-3.60e-03,
561,-1.60e-01,-2.08e-02,-3.80e-03,
562,-1.60e-01,-2.32e-02,-3.60e-03,
563,-1.60e-01,-2.16e-02,-3.60e-03,
564,-1.60e-01,-2.08e-02,-3.80e-03,
565,-1.60e-01,-2.16e-02,-4.00e-03,
566,-1.60e-01,-2.08e-02,-4.20e-03,
567,-1.60e-01,-2.08e-02,-3.80e-03,
568,-1.60e-01,-2.32e-02,-3.60e-03,
569,-1.60e-01,-2.16e-02,-4.20e-03,
570,-1.60e-01,-2.16e-02,-3.60e-03,
571,-1.60e-01,-1.92e-02,-3.60e-03,
572,-1.60e-01,-1.92e-02,-3.20e-03,
573,-1.60e-01,-2.32e-02,-3.80e-03,
574,-1.60e-01,-2.08e-02,-4.20e-03,
575,-1.60e-01,-2.08e-02,-3.80e-03,
576,-1.60e-01,-2.08e-02,-4.20e-03,
577,-1.60e-01,-1.92e-02,-4.20e-03,
578,-1.60e-01,-2.32e-02,-3.80e-03,
579,-1.60e-01,-2.16e-02,-4.20e-03,
580,-1.60e-01,-2.16e-02,-3.80e-03,
581,-1.60e-01,-2.16e-02,-4.00e-03,
582,-1.60e-01,-2.16e-02,-4.20e-03,
583,-1.60e-01,-2.40e-02,-3.60e-03,
584,-1.60e-01,-1.92e-02,-4.40e-03,
