data/vertical/measurement7.csv

X,CH1,CH2,Start,Increment,
Sequence,Volt,Volt,-1.156000e-02,8.000000e-07
0,6.40e-01,1.60e-02,
1,6.40e-01,1.60e-02,
2,6.40e-01,1.60e-02,
3,6.40e-01,1.52e-02,
4,6.40e-01,1.36e-02,
5,6.40e-01,1.60e-02,
6,6.40e-01,1.76e-02,
7,6.40e-01,1.52e-02,
8,6.40e-01,1.60e-02,
9,6.40e-01,1.52e-02,
10,6.40e-01,1.60e-02,
11,6.40e-01,1.76e-02,
12,6.40e-01,1.60e-02,
13,6.40e-01,1.28e-02,
14,6.40e-01,1.52e-02,
15,6.40e-01,1.52e-02,
16,6.40e-01,1.28e-02,
17,6.40e-01,1.28e-02,
18,6.40e-01,1.52e-02,
19,6.40e-01,1.60e-02,
20,6.40e-01,1.36e-02,
21,6.40e-01,1.60e-02,
22,6.40e-01,1.52e-02,
23,6.40e-01,1.60e-02,
24,6.40e-01,1.52e-02,
25,6.40e-01,1.60e-02,
26,6.40e-01,1.60e-02,
27,6.40e-01,1.52e-02,
28,6.40e-01,1.36e-02,
29,6.40e-01,1.28e-02,
30,6.40e-01,1.52e-02,
31,6.40e-01,1.60e-02,
32,6.40e-01,1.52e-02,
33,6.40e-01,1.36e-02,
34,6.40e-01,1.60e-02,
35,6.40e-01,1.36e-02,
36,6.40e-01,1.36e-02,
37,6.40e-01,1.36e-02,
38,6.40e-01,1.52e-02,
39,6.40e-01,1.36e-02,
40,6.40e-01,1.52e-02,
41,6.40e-01,1.52e-02,
42,6.40e-01,1.28e-02,
43,6.40e-01,1.36e-02,
44,6.40e-01,1.52e-02,
45,6.40e-01,1.52e-02,
46,6.40e-01,1.36e-02,
47,6.40e-01,1.36e-02,
48,6.40e-01,1.36e-02,
49,6.40e-01,1.52e-02,
50,6.40e-01,1.36e-02,
51,6.40e-01,1.52e-02,
52,6.40e-01,1.52e-02,
53,6.40e-01,1.60e-02,
54,6.40e-01,1.36e-02,
55,6.40e-01,1.36e-02,
56,6.40e-01,1.52e-02,
57,6.40e-01,1.52e-02,
58,6.40e-01,1.52e-02,
59,5.60e-01,1.36e-02,
60,6.40e-01,1.36e-02,
61,6.40e-01,1.28e-02,
62,5.60e-01,1.28e-02,
63,6.40e-01,1.28e-02,
64,5.60e-01,1.36e-02,
65,5.60e-01,1.36e-02,
66,5.60e-01,1.36e-02,
67,5.60e-01,1.36e-02,
68,5.60e-01,1.36e-02,
69,5.60e-01,1.28e-02,
70,5.60e-01,1.36e-02,
71,5.60e-01,1.52e-02,
72,5.60e-01,1.28e-02,
73,5.60e-01,1.52e-02,
74,5.60e-01,1.12e-02,
75,5.60e-01,1.28e-02,
76,5.60e-01,1.36e-02,
77,5.60e-01,1.28e-02,
78,5.60e-01,1.36e-02,
79,5.60e-01,1.28e-02,
80,5.60e-01,1.36e-02,
81,5.60e-01,1.28e-02,
82,5.60e-01,1.28e-02,
83,5.60e-01,1.28e-02,
84,5.60e-01,1.36e-02,
85,5.60e-01,1.28e-02,
86,5.60e-01,1.28e-02,
87,5.60e-01,1.04e-02,
88,5.60e-01,1.12e-02,
89,5.60e-01,1.28e-02,
90,5.60e-01,1.12e-02,
91,5.60e-01,1.12e-02,
92,5.60e-01,1.12e-02,
93,5.60e-01,1.36e-02,
94,5.60e-01,1.12e-02,
95,5.60e-01,1.12e-02,
96,5.60e-01,1.28e-02,
97,5.60e-01,1.28e-02,
98,5.60e-01,1.28e-02,
99,5.60e-01,1.04e-02,
100,5.60e-01,1.04e-02,
101,5.60e-01,8.80e-03,
102,5.60e-01,1.12e-02,
103,5.60e-01,1.12e-02,
104,5.60e-01,1.12e-02,
105,5.60e-01,1.28e-02,
106,5.60e-01,1.28e-02,
107,5.60e-01,1.12e-02,
108,5.60e-01,1.04e-02,
109,5.60e-01,1.28e-02,
110,5.60e-01,1.12e-02,
111,5.60e-01,1.28e-02,
112,5.60e-01,1.12e-02,
113,5.60e-01,1.12e-02,
114,5.60e-01,1.12e-02,
115,5.60e-01,1.12e-02,
116,5.60e-01,1.28e-02,
117,5.60e-01,1.12e-02,
118,5.60e-01,1.28e-02,
119,5.60e-01,1.04e-02,
120,5.60e-01,1.04e-02,
121,5.60e-01,1.04e-02,
122,5.60e-01,1.04e-02,
123,5.60e-01,1.12e-02,
124,5.60e-01,1.12e-02,
125,5.60e-01,1.12e-02,
126,5.60e-01,8.80e-03,
127,5.60e-01,1.28e-02,
128,5.60e-01,1.04e-02,
129,5.60e-01,1.04e-02,
130,5.60e-01,1.04e-02,
131,5.60e-01,1.12e-02,
132,5.60e-01,1.04e-02,
133,5.60e-01,8.80e-03,
134,5.60e-01,1.04e-02,
135,5.60e-01,1.04e-02,
136,5.60e-01,1.28e-02,
137,5.60e-01,1.04e-02,
138,5.60e-01,1.12e-02,
139,5.60e-01,1.04e-02,
140,5.60e-01,1.04e-02,
141,5.60e-01,8.80e-03,
142,5.60e-01,1.04e-02,
143,5.60e-01,1.12e-02,
144,4.00e-01,1.04e-02,
145,5.60e-01,8.80e-03,
146,5.60e-01,8.00e-03,
147,5.60e-01,1.04e-02,
148,5.60e-01,1.04e-02,
149,5.60e-01,8.80e-03,
150,5.60e-01,1.12e-02,
151,4.00e-01,8.80e-03,
152,5.60e-01,8.80e-03,
153,5.60e-01,8.00e-03,
154,4.00e-01,8.00e-03,
155,4.00e-01,8.00e-03,
156,4.00e-01,1.04e-02,
157,4.00e-01,8.80e-03,
158,4.00e-01,8.00e-03,
159,4.00e-01,8.80e-03,
160,4.00e-01,8.80e-03,
161,4.00e-01,8.80e-03,
162,4.00e-01,8.80e-03,
163,4.00e-01,8.80e-03,
164,4.00e-01,8.80e-03,
165,4.00e-01,6.40e-03,
166,4.00e-01,8.00e-03,
167,4.00e-01,8.00e-03,
168,4.00e-01,8.80e-03,
169,4.00e-01,8.80e-03,
170,4.00e-01,8.80e-03,
171,4.00e-01,8.80e-03,
172,4.00e-01,8.80e-03,
173,4.00e-01,8.80e-03,
174,4.00e-01,8.00e-03,
175,4.00e-01,8.80e-03,
176,4.00e-01,8.80e-03,
177,4.00e-01,8.00e-03,
178,4.00e-01,8.00e-03,
179,4.00e-01,6.40e-03,
180,4.00e-01,8.00e-03,
181,4.00e-01,8.00e-03,
182,4.00e-01,8.80e-03,
183,4.00e-01,8.80e-03,
184,4.00e-01,6.40e-03,
185,4.00e-01,8.80e-03,
186,4.00e-01,6.40e-03,
187,4.00e-01,6.40e-03,
188,4.00e-01,8.00e-03,
189,4.00e-01,1.04e-02,
190,4.00e-01,8.80e-03,
191,4.00e-01,8.00e-03,
192,4.00e-01,8.00e-03,
193,4.00e-01,8.00e-03,
194,4.00e-01,1.04e-02,
195,4.00e-01,8.00e-03,
196,4.00e-01,8.00e-03,
197,4.00e-01,8.80e-03,
198,4.00e-01,8.80e-03,
199,4.00e-01,8.00e-03,
200,4.00e-01,6.40e-03,
201,4.00e-01,8.00e-03,
202,4.00e-01,8.80e-03,
203,4.00e-01,6.40e-03,
204,4.00e-01,6.40e-03,
205,4.00e-01,5.60e-03,
206,4.00e-01,8.00e-03,
207,4.00e-01,8.00e-03,
208,4.00e-01,8.00e-03,
209,4.00e-01,6.40e-03,
210,4.00e-01,6.40e-03,
211,4.00e-01,8.00e-03,
212,4.00e-01,4.00e-03,
213,4.00e-01,6.40e-03,
214,4.00e-01,6.40e-03,
215,4.00e-01,8.00e-03,
216,4.00e-01,8.00e-03,
217,4.00e-01,5.60e-03,
218,4.00e-01,8.00e-03,
219,4.00e-01,6.40e-03,
220,4.00e-01,8.00e-03,
221,4.00e-01,8.00e-03,
222,4.00e-01,6.40e-03,
223,4.00e-01,8.00e-03,
224,4.00e-01,6.40e-03,
225,4.00e-01,6.40e-03,
226,4.00e-01,6.40e-03,
227,4.00e-01,8.80e-03,
228,4.00e-01,8.00e-03,
229,4.00e-01,8.00e-03,
230,3.20e-01,6.40e-03,
231,4.00e-01,6.40e-03,
232,4.00e-01,8.00e-03,
233,3.20e-01,6.40e-03,
234,3.20e-01,5.60e-03,
235,3.20e-01,6.40e-03,
236,3.20e-01,6.40e-03,
237,3.20e-01,6.40e-03,
238,3.20e-01,4.00e-03,
239,3.20e-01,8.00e-03,
240,3.20e-01,8.00e-03,
241,3.20e-01,6.40e-03,
242,3.20e-01,8.00e-03,
243,3.20e-01,6.40e-03,
244,3.20e-01,6.40e-03,
245,3.20e-01,6.40e-03,
246,3.20e-01,6.40e-03,
247,3.20e-01,5.60e-03,
248,3.20e-01,6.40e-03,
249,3.20e-01,5.60e-03,
250,3.20e-01,4.00e-03,
251,3.20e-01,6.40e-03,
252,3.20e-01,6.40e-03,
253,3.20e-01,8.00e-03,
254,3.20e-01,5.60e-03,
255,3.20e-01,6.40e-03,
256,3.20e-01,5.60e-03,
257,3.20e-01,5.60e-03,
258,3.20e-01,5.60e-03,
259,3.20e-01,4.00e-03,
260,3.20e-01,5.60e-03,
261,3.20e-01,4.00e-03,
262,3.20e-01,4.00e-03,
263,3.20e-01,3.20e-03,
264,3.20e-01,6.40e-03,
265,3.20e-01,4.00e-03,
266,3.20e-01,5.60e-03,
267,3.20e-01,5.60e-03,
268,3.20e-01,5.60e-03,
269,3.20e-01,4.00e-03,
270,3.20e-01,3.20e-03,
271,3.20e-01,3.20e-03,
272,3.20e-01,3.20e-03,
273,3.20e-01,6.40e-03,
274,3.20e-01,4.00e-03,
275,3.20e-01,4.00e-03,
276,3.20e-01,4.00e-03,
277,3.20e-01,5.60e-03,
278,3.20e-01,5.60e-03,
279,3.20e-01,4.00e-03,
280,3.20e-01,6.40e-03,
281,3.20e-01,5.60e-03,
282,3.20e-01,5.60e-03,
283,3.20e-01,1.60e-03,
284,3.20e-01,4.00e-03,
285,3.20e-01,5.60e-03,
286,3.20e-01,6.40e-03,
287,3.20e-01,4.00e-03,
288,3.20e-01,3.20e-03,
289,3.20e-01,5.60e-03,
290,3.20e-01,5.60e-03,
291,3.20e-01,4.00e-03,
292,3.20e-01,3.20e-03,
293,3.20e-01,4.00e-03,
294,3.20e-01,4.00e-03,
295,3.20e-01,3.20e-03,
296,3.20e-01,1.60e-03,
297,3.20e-01,1.60e-03,
298,3.20e-01,5.60e-03,
299,3.20e-01,4.00e-03,
300,3.20e-01,3.20e-03,
301,3.20e-01,1.60e-03,
302,3.20e-01,4.00e-03,
303,3.20e-01,3.20e-03,
304,3.20e-01,1.60e-03,
305,3.20e-01,1.60e-03,
306,3.20e-01,1.60e-03,
307,3.20e-01,4.00e-03,
308,3.20e-01,8.00e-04,
309,3.20e-01,8.00e-04,
310,3.20e-01,1.60e-03,
311,3.20e-01,4.00e-03,
312,3.20e-01,1.60e-03,
313,3.20e-01,1.60e-03,
314,3.20e-01,3.20e-03,
315,3.20e-01,3.20e-03,
316,3.20e-01,3.20e-03,
317,3.20e-01,1.60e-03,
318,3.20e-01,1.60e-03,
319,1.60e-01,3.20e-03,
320,1.60e-01,3.20e-03,
321,1.60e-01,-8.00e-04,
322,1.60e-01,8.00e-04,
323,3.20e-01,8.00e-04,
324,3.20e-01,1.60e-03,
325,1.60e-01,1.60e-03,
326,1.60e-01,8.00e-04,
327,1.60e-01,1.60e-03,
328,1.60e-01,1.60e-03,
329,1.60e-01,1.60e-03,
330,1.60e-01,8.00e-04,
331,1.60e-01,1.60e-03,
332,1.60e-01,8.00e-04,
333,1.60e-01,1.60e-03,
334,1.60e-01,8.00e-04,
335,1.60e-01,8.00e-04,
336,1.60e-01,1.60e-03,
337,1.60e-01,1.60e-03,
338,1.60e-01,4.00e-03,
339,1.60e-01,3.20e-03,
340,1.60e-01,1.60e-03,
341,1.60e-01,8.00e-04,
342,1.60e-01,1.60e-03,
343,1.60e-01,8.00e-04,
344,1.60e-01,1.60e-03,
345,1.60e-01,8.00e-04,
346,1.60e-01,8.00e-04,
347,1.60e-01,8.00e-04,
348,1.60e-01,1.60e-03,
349,1.60e-01,8.00e-04,
350,1.60e-01,8.00e-04,
351,1.60e-01,3.20e-03,
352,1.60e-01,1.60e-03,
353,1.60e-01,1.60e-03,
354,1.60e-01,-1.60e-03,
355,1.60e-01,8.00e-04,
356,1.60e-01,8.00e-04,
357,1.60e-01,1.60e-03,
358,1.60e-01,8.00e-04,
359,1.60e-01,-8.00e-04,
360,1.60e-01,1.60e-03,
361,1.60e-01,8.00e-04,
362,1.60e-01,1.60e-03,
363,1.60e-01,1.60e-03,
364,1.60e-01,3.20e-03,
365,1.60e-01,8.00e-04,
366,1.60e-01,8.00e-04,
367,1.60e-01,-8.00e-04,
368,1.60e-01,8.00e-04,
369,1.60e-01,1.60e-03,
370,1.60e-01,1.60e-03,
371,1.60e-01,8.00e-04,
372,1.60e-01,-8.00e-04,
373,1.60e-01,1.60e-03,
374,1.60e-01,-8.00e-04,
375,1.60e-01,-8.00e-04,
376,1.60e-01,8.00e-04,
377,1.60e-01,1.60e-03,
378,1.60e-01,-8.00e-04,
379,1.60e-01,-8.00e-04,
380,1.60e-01,-1.60e-03,
381,1.60e-01,8.00e-04,
382,1.60e-01,8.00e-04,
383,1.60e-01,-8.00e-04,
384,1.60e-01,-8.00e-04,
385,1.60e-01,-8.00e-04,
386,1.60e-01,8.00e-04,
387,1.60e-01,-2.40e-03,
388,1.60e-01,-1.60e-03,
389,1.60e-01,-8.00e-04,
390,1.60e-01,1.60e-03,
391,1.60e-01,8.00e-04,
392,1.60e-01,8.00e-04,
393,1.60e-01,-8.00e-04,
394,1.60e-01,8.00e-04,
395,1.60e-01,1.60e-03,
396,1.60e-01,-8.00e-04,
397,1.60e-01,8.00e-04,
398,1.60e-01,-8.00e-04,
399,1.60e-01,-8.00e-04,
400,1.60e-01,-1.60e-03,
401,8.00e-02,-1.60e-03,
402,1.60e-01,-1.60e-03,
403,8.00e-02,-8.00e-04,
404,1.60e-01,-1.60e-03,
405,1.60e-01,-1.60e-03,
406,8.00e-02,-1.60e-03,
407,8.00e-02,-1.60e-03,
408,8.00e-02,-8.00e-04,
409,8.00e-02,-1.60e-03,
410,8.00e-02,8.00e-04,
411,8.00e-02,-1.60e-03,
412,8.00e-02,-1.60e-03,
413,8.00e-02,-1.60e-03,
414,8.00e-02,-8.00e-04,
415,8.00e-02,-1.60e-03,
416,8.00e-02,-8.00e-04,
417,8.00e-02,-1.60e-03,
418,8.00e-02,-1.60e-03,
419,8.00e-02,-1.60e-03,
420,8.00e-02,-4.00e-03,
421,8.00e-02,-1.60e-03,
422,8.00e-02,-8.00e-04,
423,8.00e-02,-8.00e-04,
424,8.00e-02,-1.60e-03,
425,8.00e-02,-1.60e-03,
426,8.00e-02,-2.40e-03,
427,8.00e-02,-1.60e-03,
428,8.00e-02,-1.60e-03,
429,8.00e-02,-2.40e-03,
430,8.00e-02,-1.60e-03,
431,8.00e-02,-2.40e-03,
432,8.00e-02,-2.40e-03,
433,8.00e-02,-4.80e-03,
434,8.00e-02,-2.40e-03,
435,8.00e-02,-1.60e-03,
436,8.00e-02,-4.00e-03,
437,8.00e-02,-4.00e-03,
438,8.00e-02,-4.00e-03,
439,8.00e-02,-4.00e-03,
440,8.00e-02,-2.40e-03,
441,8.00e-02,-2.40e-03,
442,8.00e-02,-4.00e-03,
443,8.00e-02,-2.40e-03,
444,8.00e-02,-4.00e-03,
445,8.00e-02,-4.00e-03,
446,8.00e-02,-4.80e-03,
447,8.00e-02,-2.40e-03,
448,8.00e-02,-1.60e-03,
449,8.00e-02,-4.00e-03,
450,8.00e-02,-4.00e-03,
451,8.00e-02,-4.80e-03,
452,8.00e-02,-2.40e-03,
453,8.00e-02,-2.40e-03,
454,8.00e-02,-2.40e-03,
455,8.00e-02,-4.00e-03,
456,8.00e-02,-1.60e-03,
457,8.00e-02,-4.00e-03,
458,8.00e-02,-4.00e-03,
459,8.00e-02,-4.80e-03,
460,8.00e-02,-4.00e-03,
461,8.00e-02,-1.60e-03,
462,8.00e-02,-4.00e-03,
463,8.00e-02,-4.80e-03,
464,8.00e-02,-6.40e-03,
465,8.00e-02,-4.00e-03,
466,8.00e-02,-4.00e-03,
467,8.00e-02,-4.80e-03,
468,8.00e-02,-4.00e-03,
469,8.00e-02,-2.40e-03,
470,8.00e-02,-4.80e-03,
471,8.00e-02,-6.40e-03,
472,8.00e-02,-4.80e-03,
473,8.00e-02,-4.80e-03,
474,8.00e-02,-2.40e-03,
475,8.00e-02,-4.80e-03,
476,8.00e-02,-4.00e-03,
477,8.00e-02,-4.00e-03,
478,8.00e-02,-4.00e-03,
479,8.00e-02,-4.00e-03,
480,8.00e-02,-4.00e-03,
481,8.00e-02,-2.40e-03,
482,8.00e-02,-4.00e-03,
483,8.00e-02,-4.80e-03,
484,8.00e-02,-6.40e-03,
485,8.00e-02,-4.80e-03,
486,8.00e-02,-4.00e-03,
487,-8.00e-02,-2.40e-03,
488,8.00e-02,-4.80e-03,
489,8.00e-02,-4.80e-03,
490,-8.00e-02,-4.00e-03,
491,-8.00e-02,-6.40e-03,
492,-8.00e-02,-4.80e-03,
493,-8.00e-02,-4.80e-03,
494,-8.00e-02,-4.80e-03,
495,-8.00e-02,-4.80e-03,
496,-8.00e-02,-6.40e-03,
497,-8.00e-02,-6.40e-03,
498,-8.00e-02,-4.80e-03,
499,-8.00e-02,-4.00e-03,
500,-8.00e-02,-4.80e-03,
501,-8.00e-02,-4.80e-03,
502,-8.00e-02,-4.80e-03,
503,-8.00e-02,-4.80e-03,
504,-8.00e-02,-7.20e-03,
505,-8.00e-02,-4.80e-03,
506,-8.00e-02,-6.40e-03,
507,-8.00e-02,-4.80e-03,
508,-8.00e-02,-4.80e-03,
509,-8.00e-02,-6.40e-03,
510,-8.00e-02,-4.80e-03,
511,-8.00e-02,-6.40e-03,
512,-8.00e-02,-4.80e-03,
513,-8.00e-02,-6.40e-03,
514,-8.00e-02,-4.00e-03,
515,-8.00e-02,-6.40e-03,
516,-8.00e-02,-6.40e-03,
517,-8.00e-02,-6.40e-03,
518,-8.00e-02,-4.80e-03,
519,-8.00e-02,-4.80e-03,
520,-8.00e-02,-6.40e-03,
521,-8.00e-02,-4.80e-03,
522,-8.00e-02,-6.40e-03,
523,-8.00e-02,-4.00e-03,
524,-8.00e-02,-8.80e-03,
525,-8.00e-02,-7.20e-03,
526,-8.00e-02,-6.40e-03,
527,-8.00e-02,-6.40e-03,
528,-8.00e-02,-7.20e-03,
529,-8.00e-02,-8.80e-03,
530,-8.00e-02,-7.20e-03,
531,-8.00e-02,-6.40e-03,
532,-8.00e-02,-4.80e-03,
533,-8.00e-02,-7.20e-03,
534,-8.00e-02,-6.40e-03,
535,-8.00e-02,-6.40e-03,
536,-8.00e-02,-7.20e-03,
537,-8.00e-02,-8.80e-03,
538,-8.00e-02,-7.20e-03,
539,-8.00e-02,-4.80e-03,
540,-8.00e-02,-6.40e-03,
541,-8.00e-02,-7.20e-03,
542,-8.00e-02,-8.80e-03,
543,-8.00e-02,-6.40e-03,
544,-8.00e-02,-6.40e-03,
545,-8.00e-02,-6.40e-03,
546,-8.00e-02,-7.20e-03,
547,-8.00e-02,-8.80e-03,
548,-8.00e-02,-7.20e-03,
549,-8.00e-02,-8.80e-03,
550,-8.00e-02,-9.60e-03,
551,-8.00e-02,-7.20e-03,
552,-8.00e-02,-7.20e-03,
553,-8.00e-02,-7.20e-03,
554,-8.00e-02,-8.80e-03,
555,-8.00e-02,-8.80e-03,
556,-8.00e-02,-7.20e-03,
557,-8.00e-02,-8.80e-03,
558,-8.00e-02,-7.20e-03,
559,-8.00e-02,-8.80e-03,
560,-8.00e-02,-7.20e-03,
561,-8.00e-02,-8.80e-03,
562,-8.00e-02,-9.60e-03,
563,-8.00e-02,-7.20e-03,
564,-8.00e-02,-7.20e-03,
565,-8.00e-02,-7.20e-03,
566,-8.00e-02,-7.20e-03,
567,-8.00e-02,-9.60e-03,
568,-8.00e-02,-9.60e-03,
569,-8.00e-02,-8.80e-03,
570,-8.00e-02,-7.20e-03,
571,-8.00e-02,-8.80e-03,
572,-8.00e-02,-8.80e-03,
573,-8.00e-02,-7.20e-03,
574,-1.60e-01,-9.60e-03,
575,-8.00e-02,-9.60e-03,
576,-1.60e-01,-8.80e-03,
577,-8.00e-02,-8.80e-03,
578,-1.60e-01,-7.20e-03,
579,-1.60e-01,-9.60e-03,
580,-8.00e-02,-9.60e-03,
581,-1.60e-01,-9.60e-03,
582,-1.60e-01,-9.60e-03,
583,-1.60e-01,-9.60e-03,
584,-1.60e-01,-8.80e-03,
585,-1.60e-01,-8.80e-03,
586,-1.60e-01,-8.80e-03,
587,-1.60e-01,-8.80e-03,
588,-1.60e-01,-9.60e-03,
589,-1.60e-01,-8.80e-03,
590,-1.60e-01,-8.80e-03,
591,-1.60e-01,-9.60e-03,
592,-1.60e-01,-7.20e-03,
593,-1.60e-01,-8.80e-03,
594,-1.60e-01,-9.60e-03,
595,-1.60e-01,-9.60e-03,
596,-1.60e-01,-9.60e-03,
597,-1.60e-01,-7.20e-03,
598,-1.60e-01,-8.80e-03,
599,-1.60e-01,-8.80e-03,
600,-1.60e-01,-9.60e-03,
601,-1.60e-01,-9.60e-03,
602,-1.60e-01,-8.80e-03,
603,-1.60e-01,-8.80e-03,
604,-1.60e-01,-8.80e-03,
605,-1.60e-01,-8.80e-03,
606,-1.60e-01,-8.80e-03,
607,-1.60e-01,-9.60e-03,
608,-1.60e-01,-1.12e-02,
609,-1.60e-01,-9.60e-03,
610,-1.60e-01,-9.60e-03,
611,-1.60e-01,-9.60e-03,
612,-1.60e-01,-1.12e-02,
613,-1.60e-01,-1.20e-02,
614,-1.60e-01,-1.12e-02,
615,-1.60e-01,-1.12e-02,
616,-1.60e-01,-9.60e-03,
617,-1.60e-01,-1.20e-02,
618,-1.60e-01,-8.80e-03,
619,-1.60e-01,-8.80e-03,
620,-1.60e-01,-9.60e-03,
621,-1.60e-01,-1.12e-02,
622,-1.60e-01,-9.60e-03,
623,-1.60e-01,-7.20e-03,
624,-1.60e-01,-8.80e-03,
625,-1.60e-01,-1.12e-02,
626,-1.60e-01,-1.12e-02,
627,-1.60e-01,-9.60e-03,
628,-1.60e-01,-9.60e-03,
629,-1.60e-01,-9.60e-03,
630,-1.60e-01,-9.60e-03,
631,-1.60e-01,-8.80e-03,
632,-1.60e-01,-8.80e-03,
633,-1.60e-01,-1.20e-02,
634,-1.60e-01,-1.12e-02,
635,-1.60e-01,-9.60e-03,
636,-1.60e-01,-9.60e-03,
637,-1.60e-01,-1.12e-02,
638,-1.60e-01,-1.12e-02,
639,-1.60e-01,-9.60e-03,
640,-1.60e-01,-1.12e-02,
641,-1.60e-01,-1.12e-02,
642,-1.60e-01,-1.12e-02,
643,-1.60e-01,-8.80e-03,
644,-1.60e-01,-9.60e-03,
645,-1.60e-01,-9.60e-03,
646,-1.60e-01,-1.20e-02,
647,-1.60e-01,-9.60e-03,
648,-1.60e-01,-9.60e-03,
649,-1.60e-01,-9.60e-03,
650,-1.60e-01,-9.60e-03,
651,-1.60e-01,-1.20e-02,
652,-1.60e-01,-1.12e-02,
653,-1.60e-01,-1.20e-02,
654,-1.60e-01,-1.12e-02,
655,-1.60e-01,-1.12e-02,
656,-3.20e-01,-9.60e-03,
657,-3.20e-01,-1.12e-02,
658,-3.20e-01,-1.20e-02,
659,-3.20e-01,-1.36e-02,
660,-3.20e-01,-1.36e-02,
661,-3.20e-01,-1.12e-02,
662,-3.20e-01,-1.20e-02,
663,-3.20e-01,-1.20e-02,
664,-3.20e-01,-1.20e-02,
665,-3.20e-01,-1.12e-02,
666,-3.20e-01,-1.20e-02,
667,-3.20e-01,-1.36e-02,
668,-3.20e-01,-1.12e-02,
669,-3.20e-01,-1.20e-02,
670,-3.20e-01,-1.20e-02,
671,-3.20e-01,-1.36e-02,
672,-3.20e-01,-1.44e-02,
673,-3.20e-01,-1.36e-02,
674,-3.20e-01,-1.36e-02,
675,-3.20e-01,-1.36e-02,
676,-3.20e-01,-1.36e-02,
677,-3.20e-01,-1.12e-02,
678,-3.20e-01,-1.36e-02,
679,-3.20e-01,-1.44e-02,
680,-3.20e-01,-1.36e-02,
681,-3.20e-01,-1.20e-02,
682,-3.20e-01,-1.20e-02,
683,-3.20e-01,-1.44e-02,
684,-3.20e-01,-1.36e-02,
685,-3.20e-01,-1.36e-02,
686,-3.20e-01,-1.36e-02,
687,-3.20e-01,-1.44e-02,
688,-3.20e-01,-1.44e-02,
689,-3.20e-01,-1.12e-02,
690,-3.20e-01,-1.36e-02,
691,-3.20e-01,-1.36e-02,
692,-3.20e-01,-1.44e-02,
693,-3.20e-01,-1.20e-02,
694,-3.20e-01,-1.20e-02,
695,-3.20e-01,-1.20e-02,
696,-3.20e-01,-1.44e-02,
697,-3.20e-01,-1.44e-02,
698,-3.20e-01,-1.20e-02,
699,-3.20e-01,-1.44e-02,
700,-3.20e-01,-1.44e-02,
701,-3.20e-01,-1.36e-02,
702,-3.20e-01,-1.12e-02,
703,-3.20e-01,-1.20e-02,
704,-3.20e-01,-1.36e-02,
705,-3.20e-01,-1.44e-02,
706,-3.20e-01,-1.36e-02,
707,-3.20e-01,-1.12e-02,
708,-3.20e-01,-1.44e-02,
709,-3.20e-01,-1.36e-02,
710,-3.20e-01,-1.36e-02,
711,-3.20e-01,-1.36e-02,
712,-3.20e-01,-1.36e-02,
713,-3.20e-01,-1.44e-02,
714,-3.20e-01,-1.20e-02,
715,-3.20e-01,-1.36e-02,
716,-3.20e-01,-1.20e-02,
717,-3.20e-01,-1.44e-02,
718,-3.20e-01,-1.36e-02,
719,-3.20e-01,-1.36e-02,
720,-3.20e-01,-1.36e-02,
721,-3.20e-01,-1.36e-02,
722,-3.20e-01,-1.36e-02,
723,-3.20e-01,-1.44e-02,
724,-3.20e-01,-1.60e-02,
725,-3.20e-01,-1.44e-02,
726,-3.20e-01,-1.60e-02,
727,-3.20e-01,-1.36e-02,
728,-3.20e-01,-1.44e-02,
729,-3.20e-01,-1.60e-02,
730,-3.20e-01,-1.60e-02,
731,-3.20e-01,-1.44e-02,
732,-3.20e-01,-1.36e-02,
733,-3.20e-01,-1.44e-02,
734,-3.20e-01,-1.36e-02,
735,-3.20e-01,-1.36e-02,
736,-3.20e-01,-1.60e-02,
737,-3.20e-01,-1.44e-02,
738,-3.20e-01,-1.60e-02,
739,-3.20e-01,-1.44e-02,
740,-3.20e-01,-1.44e-02,
741,-3.20e-01,-1.44e-02,
742,-4.00e-01,-1.68e-02,
743,-3.20e-01,-1.68e-02,
744,-3.20e-01,-1.44e-02,
745,-4.00e-01,-1.68e-02,
746,-4.00e-01,-1.44e-02,
747,-4.00e-01,-1.44e-02,
748,-4.00e-01,-1.44e-02,
749,-4.00e-01,-1.44e-02,
750,-4.00e-01,-1.60e-02,
751,-4.00e-01,-1.68e-02,
752,-4.00e-01,-1.60e-02,
753,-4.00e-01,-1.60e-02,
754,-4.00e-01,-1.84e-02,
755,-4.00e-01,-1.60e-02,
756,-4.00e-01,-1.68e-02,
757,-4.00e-01,-1.60e-02,
758,-4.00e-01,-1.60e-02,
759,-4.00e-01,-1.60e-02,
760,-4.00e-01,-1.36e-02,
761,-4.00e-01,-1.44e-02,
762,-4.00e-01,-1.44e-02,
763,-4.00e-01,-1.68e-02,
764,-4.00e-01,-1.60e-02,
765,-4.00e-01,-1.60e-02,
766,-4.00e-01,-1.68e-02,
767,-4.00e-01,-1.68e-02,
768,-4.00e-01,-1.60e-02,
769,-4.00e-01,-1.60e-02,
770,-4.00e-01,-1.92e-02,
771,-4.00e-01,-1.84e-02,
772,-4.00e-01,-1.68e-02,
773,-4.00e-01,-1.44e-02,
774,-4.00e-01,-1.68e-02,
775,-4.00e-01,-1.92e-02,
776,-4.00e-01,-1.84e-02,
777,-4.00e-01,-1.68e-02,
778,-4.00e-01,-1.60e-02,
779,-4.00e-01,-1.68e-02,
780,-4.00e-01,-1.60e-02,
781,-4.00e-01,-1.60e-02,
782,-4.00e-01,-1.60e-02,
783,-4.00e-01,-1.84e-02,
784,-4.00e-01,-1.68e-02,
785,-4.00e-01,-1.60e-02,
786,-4.00e-01,-1.68e-02,
787,-4.00e-01,-1.60e-02,
788,-4.00e-01,-1.68e-02,
789,-4.00e-01,-1.68e-02,
790,-4.00e-01,-1.84e-02,
791,-4.00e-01,-1.84e-02,
792,-4.00e-01,-1.60e-02,
793,-4.00e-01,-1.60e-02,
794,-4.00e-01,-1.68e-02,
795,-4.00e-01,-1.84e-02,
796,-4.00e-01,-1.92e-02,
797,-4.00e-01,-1.60e-02,
798,-4.00e-01,-1.68e-02,
799,-4.00e-01,-1.84e-02,
800,-4.00e-01,-1.68e-02,
801,-4.00e-01,-1.60e-02,
802,-4.00e-01,-1.68e-02,
803,-4.00e-01,-1.68e-02,
804,-4.00e-01,-1.84e-02,
805,-4.00e-01,-1.68e-02,
806,-4.00e-01,-1.60e-02,
807,-4.00e-01,-1.92e-02,
808,-4.00e-01,-2.08e-02,
809,-4.00e-01,-1.92e-02,
810,-4.00e-01,-1.84e-02,
811,-4.00e-01,-1.68e-02,
812,-4.00e-01,-1.84e-02,
813,-4.00e-01,-1.68e-02,
814,-4.00e-01,-1.68e-02,
815,-4.00e-01,-1.68e-02,
816,-4.00e-01,-1.84e-02,
817,-4.00e-01,-1.92e-02,
818,-4.00e-01,-1.68e-02,
819,-4.00e-01,-1.84e-02,
820,-4.00e-01,-1.92e-02,
821,-4.00e-01,-1.92e-02,
822,-4.00e-01,-1.92e-02,
823,-4.00e-01,-1.84e-02,
824,-4.00e-01,-1.84e-02,
825,-5.60e-01,-1.84e-02,
826,-4.00e-01,-1.68e-02,
827,-5.60e-01,-1.68e-02,
828,-4.00e-01,-1.84e-02,
829,-5.60e-01,-1.92e-02,
830,-4.00e-01,-1.84e-02,
831,-5.60e-01,-1.68e-02,
832,-5.60e-01,-1.68e-02,
833,-5.60e-01,-1.92e-02,
834,-5.60e-01,-1.92e-02,
835,-5.60e-01,-1.68e-02,
