data/horizontal/measurement12.csv

X,CH1,CH2,CH4,Start,Increment,
Sequence,Volt,Volt,Volt,-2.956000e-02,2.000000e-06
0,-1.60e-01,1.52e-02,-2.20e-03,
1,-1.60e-01,1.28e-02,-1.60e-03,
2,-1.60e-01,1.52e-02,-2.60e-03,
3,-1.60e-01,1.12e-02,-2.80e-03,
4,-8.00e-02,1.60e-02,-2.60e-03,
5,-8.00e-02,1.28e-02,-2.20e-03,
6,-8.00e-02,1.52e-02,-3.00e-03,
7,-8.00e-02,1.36e-02,-2.60e-03,
8,-8.00e-02,1.52e-02,-4.00e-03,
9,-8.00e-02,1.36e-02,-2.40e-03,
10,-8.00e-02,1.52e-02,-3.00e-03,
11,-8.00e-02,1.12e-02,-2.40e-03,
12,-8.00e-02,1.52e-02,-2.80e-03,
13,-8.00e-02,1.52e-02,-3.20e-03,
14,-8.00e-02,1.36e-02,-1.60e-03,
15,-8.00e-02,1.52e-02,-2.80e-03,
16,-8.00e-02,1.28e-02,-1.40e-03,
17,-8.00e-02,1.60e-02,-1.80e-03,
18,-8.00e-02,1.28e-02,-2.20e-03,
19,-8.00e-02,1.28e-02,-1.80e-03,
20,-8.00e-02,1.36e-02,-3.60e-03,
21,-8.00e-02,1.52e-02,-2.40e-03,
22,-8.00e-02,1.52e-02,-2.80e-03,
23,8.00e-02,1.52e-02,-3.00e-03,
24,8.00e-02,1.36e-02,-2.80e-03,
25,8.00e-02,1.52e-02,-1.80e-03,
26,8.00e-02,1.52e-02,-3.00e-03,
27,8.00e-02,1.52e-02,-2.60e-03,
28,8.00e-02,1.52e-02,-2.80e-03,
29,8.00e-02,1.36e-02,-1.60e-03,
30,8.00e-02,1.76e-02,-2.20e-03,
31,8.00e-02,1.52e-02,-2.20e-03,
32,8.00e-02,1.52e-02,-1.20e-03,
33,8.00e-02,1.52e-02,-2.20e-03,
34,8.00e-02,1.36e-02,-2.00e-04,
35,8.00e-02,1.60e-02,-2.60e-03,
36,8.00e-02,1.52e-02,-1.60e-03,
37,8.00e-02,1.52e-02,-1.80e-03,
38,8.00e-02,1.52e-02,-2.20e-03,
39,8.00e-02,1.36e-02,-2.20e-03,
40,1.60e-01,1.52e-02,-3.60e-03,
41,1.60e-01,1.36e-02,-2.60e-03,
42,1.60e-01,1.60e-02,-2.20e-03,
43,1.60e-01,1.52e-02,-1.40e-03,
44,1.60e-01,1.60e-02,-2.20e-03,
45,1.60e-01,1.52e-02,-1.20e-03,
46,1.60e-01,1.52e-02,-1.40e-03,
47,1.60e-01,1.60e-02,-4.00e-04,
48,1.60e-01,1.60e-02,-1.80e-03,
49,1.60e-01,1.52e-02,-1.60e-03,
50,1.60e-01,1.60e-02,-1.40e-03,
51,1.60e-01,1.60e-02,-6.00e-04,
52,1.60e-01,1.60e-02,-1.40e-03,
53,1.60e-01,1.52e-02,-1.60e-03,
54,1.60e-01,1.52e-02,-2.20e-03,
55,1.60e-01,1.52e-02,-1.40e-03,
56,1.60e-01,1.60e-02,-1.60e-03,
57,3.20e-01,1.60e-02,-1.80e-03,
58,3.20e-01,1.52e-02,-2.40e-03,
59,3.20e-01,1.60e-02,-2.60e-03,
60,3.20e-01,1.60e-02,-1.00e-03,
61,3.20e-01,1.60e-02,-2.20e-03,
62,3.20e-01,1.60e-02,-1.40e-03,
63,3.20e-01,1.52e-02,-1.80e-03,
64,3.20e-01,1.76e-02,-1.80e-03,
65,3.20e-01,1.60e-02,-1.40e-03,
66,3.20e-01,1.60e-02,-2.20e-03,
67,3.20e-01,1.84e-02,-1.80e-03,
68,3.20e-01,1.60e-02,-1.20e-03,
69,3.20e-01,1.76e-02,-1.00e-03,
70,3.20e-01,1.60e-02,-1.80e-03,
71,3.20e-01,1.60e-02,-1.80e-03,
72,3.20e-01,1.84e-02,-6.00e-04,
73,3.20e-01,1.60e-02,-1.00e-03,
74,3.20e-01,1.76e-02,-4.00e-04,
75,3.20e-01,1.60e-02,-2.40e-03,
76,3.20e-01,1.52e-02,-1.20e-03,
77,4.00e-01,1.76e-02,-6.00e-04,
78,4.00e-01,1.84e-02,-1.20e-03,
79,4.00e-01,1.84e-02,-4.00e-04,
80,4.00e-01,1.60e-02,-1.40e-03,
81,4.00e-01,1.76e-02,-2.00e-04,
82,4.00e-01,1.76e-02,-4.00e-04,
83,4.00e-01,1.60e-02,-1.00e-03,
84,4.00e-01,1.60e-02,-1.80e-03,
85,4.00e-01,1.76e-02,-1.80e-03,
86,4.00e-01,1.84e-02,-1.40e-03,
87,4.00e-01,1.76e-02,-1.40e-03,
88,4.00e-01,1.76e-02,-2.20e-03,
89,4.00e-01,1.76e-02,-1.60e-03,
90,4.00e-01,1.76e-02,-1.40e-03,
91,4.00e-01,1.84e-02,-6.00e-04,
92,4.00e-01,1.76e-02,-1.00e-03,
93,5.60e-01,1.84e-02,-1.20e-03,
94,5.60e-01,1.84e-02,-4.00e-04,
95,5.60e-01,1.76e-02,-4.00e-04,
96,5.60e-01,1.76e-02,-4.00e-04,
97,5.60e-01,1.76e-02,-1.20e-03,
98,5.60e-01,1.76e-02,-4.00e-04,
99,5.60e-01,1.84e-02,-1.00e-03,
100,5.60e-01,1.84e-02,-6.00e-04,
101,5.60e-01,1.76e-02,-1.00e-03,
102,5.60e-01,1.76e-02,-1.80e-03,
103,5.60e-01,1.60e-02,-4.00e-04,
104,5.60e-01,1.76e-02,-1.60e-03,
105,5.60e-01,1.84e-02,-1.40e-03,
106,5.60e-01,1.84e-02,-1.00e-03,
107,5.60e-01,1.84e-02,-1.00e-03,
108,5.60e-01,1.84e-02,-2.00e-04,
109,5.60e-01,1.76e-02,-4.00e-04,
110,5.60e-01,1.60e-02,-6.00e-04,
111,5.60e-01,1.84e-02,-6.00e-04,
112,6.40e-01,1.84e-02,-2.00e-04,
113,6.40e-01,1.84e-02,-4.00e-04,
114,6.40e-01,1.84e-02,-4.00e-04,
115,6.40e-01,1.76e-02,-6.00e-04,
116,6.40e-01,1.76e-02,-1.40e-03,
117,6.40e-01,1.84e-02,2.00e-04,
118,6.40e-01,1.76e-02,-4.00e-04,
119,6.40e-01,2.00e-02,-1.00e-03,
120,6.40e-01,1.84e-02,-4.00e-04,
121,6.40e-01,1.84e-02,-1.00e-03,
122,6.40e-01,1.76e-02,-2.00e-04,
123,6.40e-01,1.76e-02,-6.00e-04,
124,6.40e-01,1.76e-02,-4.00e-04,
125,6.40e-01,1.84e-02,-1.40e-03,
126,6.40e-01,1.84e-02,-6.00e-04,
127,6.40e-01,1.76e-02,-2.00e-04,
128,6.40e-01,2.08e-02,2.00e-04,
129,6.40e-01,1.60e-02,0.00e+00,
130,8.00e-01,1.60e-02,-4.00e-04,
131,8.00e-01,1.84e-02,-6.00e-04,
132,8.00e-01,2.00e-02,8.00e-04,
133,8.00e-01,2.00e-02,-4.00e-04,
134,8.00e-01,1.84e-02,-2.00e-04,
135,8.00e-01,1.84e-02,0.00e+00,
136,8.00e-01,1.84e-02,0.00e+00,
137,8.00e-01,2.00e-02,8.00e-04,
138,8.00e-01,1.84e-02,-4.00e-04,
139,8.00e-01,1.84e-02,8.00e-04,
140,8.00e-01,2.08e-02,-4.00e-04,
141,8.00e-01,1.76e-02,4.00e-04,
142,8.00e-01,2.00e-02,2.00e-04,
143,8.00e-01,1.76e-02,-2.00e-04,
144,8.00e-01,2.00e-02,8.00e-04,
145,8.00e-01,1.84e-02,8.00e-04,
146,8.00e-01,2.00e-02,-4.00e-04,
147,8.00e-01,1.84e-02,-2.00e-04,
148,8.80e-01,1.76e-02,-2.00e-04,
149,8.80e-01,1.84e-02,0.00e+00,
150,8.80e-01,2.24e-02,-4.00e-04,
151,8.80e-01,1.76e-02,-2.00e-04,
152,8.80e-01,2.08e-02,0.00e+00,
153,8.80e-01,1.84e-02,-4.00e-04,
154,8.80e-01,1.84e-02,1.00e-03,
155,8.80e-01,2.08e-02,-4.00e-04,
156,8.80e-01,2.00e-02,2.00e-04,
157,8.80e-01,2.00e-02,2.00e-04,
158,8.80e-01,2.08e-02,-4.00e-04,
159,8.80e-01,2.00e-02,1.00e-03,
160,8.80e-01,1.76e-02,-6.00e-04,
161,8.80e-01,2.00e-02,0.00e+00,
162,8.80e-01,2.00e-02,-1.20e-03,
163,8.80e-01,2.08e-02,0.00e+00,
164,8.80e-01,2.00e-02,0.00e+00,
165,8.80e-01,2.00e-02,-2.00e-04,
166,1.04e+00,2.00e-02,8.00e-04,
167,1.04e+00,2.00e-02,-6.00e-04,
168,1.04e+00,2.08e-02,4.00e-04,
169,1.04e+00,2.00e-02,8.00e-04,
170,1.04e+00,2.00e-02,2.00e-04,
171,1.04e+00,2.08e-02,8.00e-04,
172,1.04e+00,2.00e-02,-4.00e-04,
173,1.04e+00,1.84e-02,1.20e-03,
174,1.04e+00,2.08e-02,8.00e-04,
175,1.04e+00,2.24e-02,8.00e-04,
176,1.04e+00,1.84e-02,1.00e-03,
177,1.04e+00,2.08e-02,4.00e-04,
178,1.04e+00,2.00e-02,8.00e-04,
179,1.04e+00,2.00e-02,1.00e-03,
180,1.04e+00,2.08e-02,-4.00e-04,
181,1.04e+00,1.84e-02,2.00e-04,
182,1.04e+00,2.00e-02,-2.00e-04,
183,1.04e+00,2.00e-02,8.00e-04,
184,1.12e+00,2.00e-02,-4.00e-04,
185,1.12e+00,2.00e-02,4.00e-04,
186,1.12e+00,2.00e-02,8.00e-04,
187,1.12e+00,2.08e-02,1.20e-03,
188,1.12e+00,2.08e-02,8.00e-04,
189,1.12e+00,1.84e-02,2.00e-04,
190,1.12e+00,2.08e-02,2.00e-04,
191,1.12e+00,2.00e-02,8.00e-04,
192,1.12e+00,2.00e-02,2.00e-04,
193,1.12e+00,2.08e-02,0.00e+00,
194,1.12e+00,1.84e-02,2.00e-04,
195,1.12e+00,2.24e-02,8.00e-04,
196,1.12e+00,2.00e-02,8.00e-04,
197,1.12e+00,2.08e-02,1.20e-03,
198,1.12e+00,2.08e-02,4.00e-04,
199,1.12e+00,2.24e-02,8.00e-04,
200,1.12e+00,2.24e-02,1.20e-03,
201,1.12e+00,1.84e-02,8.00e-04,
202,1.12e+00,2.24e-02,8.00e-04,
203,1.12e+00,2.08e-02,2.00e-04,
204,1.28e+00,2.00e-02,1.20e-03,
205,1.28e+00,2.08e-02,4.00e-04,
206,1.28e+00,2.08e-02,1.20e-03,
207,1.28e+00,2.08e-02,1.20e-03,
208,1.28e+00,2.08e-02,1.40e-03,
209,1.28e+00,2.08e-02,1.00e-03,
210,1.28e+00,2.08e-02,1.60e-03,
211,1.28e+00,2.08e-02,2.00e-03,
212,1.28e+00,2.24e-02,8.00e-04,
213,1.28e+00,2.00e-02,2.00e-04,
214,1.28e+00,2.08e-02,2.00e-04,
215,1.28e+00,2.00e-02,1.60e-03,
216,1.28e+00,2.24e-02,4.00e-04,
217,1.28e+00,2.08e-02,1.60e-03,
218,1.28e+00,2.24e-02,1.60e-03,
219,1.28e+00,2.24e-02,1.60e-03,
220,1.28e+00,2.08e-02,2.40e-03,
221,1.28e+00,2.00e-02,2.00e-03,
222,1.36e+00,2.32e-02,1.20e-03,
223,1.36e+00,2.00e-02,2.20e-03,
224,1.36e+00,2.24e-02,1.20e-03,
225,1.36e+00,2.24e-02,1.20e-03,
226,1.36e+00,2.00e-02,2.20e-03,
227,1.36e+00,2.48e-02,1.20e-03,
228,1.36e+00,2.00e-02,2.20e-03,
229,1.36e+00,2.24e-02,1.20e-03,
230,1.36e+00,2.00e-02,2.20e-03,
231,1.36e+00,2.32e-02,1.20e-03,
232,1.36e+00,2.24e-02,1.20e-03,
233,1.36e+00,2.00e-02,1.40e-03,
234,1.36e+00,2.48e-02,1.00e-03,
235,1.36e+00,2.08e-02,1.00e-03,
236,1.36e+00,2.24e-02,1.20e-03,
237,1.36e+00,2.08e-02,1.20e-03,
238,1.36e+00,2.00e-02,1.60e-03,
239,1.36e+00,2.56e-02,1.00e-03,
240,1.52e+00,2.08e-02,1.60e-03,
241,1.36e+00,2.24e-02,1.60e-03,
242,1.52e+00,2.24e-02,1.20e-03,
243,1.52e+00,2.08e-02,2.00e-03,
244,1.52e+00,2.32e-02,1.60e-03,
245,1.52e+00,2.08e-02,1.60e-03,
246,1.52e+00,2.56e-02,2.00e-03,
247,1.52e+00,2.00e-02,2.20e-03,
248,1.52e+00,2.08e-02,2.40e-03,
249,1.52e+00,2.24e-02,2.20e-03,
250,1.52e+00,2.08e-02,2.00e-03,
251,1.52e+00,2.56e-02,1.60e-03,
252,1.52e+00,2.24e-02,1.60e-03,
253,1.52e+00,2.00e-02,2.00e-03,
254,1.52e+00,2.48e-02,1.60e-03,
255,1.52e+00,2.48e-02,1.20e-03,
256,1.52e+00,2.32e-02,1.40e-03,
257,1.52e+00,2.24e-02,2.80e-03,
258,1.52e+00,2.24e-02,2.20e-03,
259,1.52e+00,2.32e-02,2.00e-03,
260,1.60e+00,2.24e-02,2.20e-03,
261,1.60e+00,2.32e-02,2.40e-03,
262,1.60e+00,2.32e-02,2.80e-03,
263,1.60e+00,2.48e-02,2.20e-03,
264,1.60e+00,2.24e-02,2.40e-03,
265,1.60e+00,2.32e-02,1.60e-03,
266,1.60e+00,2.24e-02,2.40e-03,
267,1.60e+00,2.24e-02,2.40e-03,
268,1.60e+00,2.48e-02,1.20e-03,
269,1.60e+00,2.32e-02,2.40e-03,
270,1.60e+00,2.24e-02,1.60e-03,
271,1.60e+00,2.24e-02,2.00e-03,
272,1.60e+00,2.32e-02,2.00e-03,
273,1.60e+00,2.48e-02,1.60e-03,
274,1.60e+00,2.24e-02,2.40e-03,
275,1.60e+00,2.56e-02,1.40e-03,
276,1.60e+00,2.24e-02,2.60e-03,
277,1.60e+00,2.32e-02,2.60e-03,
278,1.60e+00,2.56e-02,2.80e-03,
279,1.76e+00,2.48e-02,2.60e-03,
280,1.76e+00,2.32e-02,2.20e-03,
281,1.76e+00,2.48e-02,2.60e-03,
282,1.76e+00,2.56e-02,3.40e-03,
283,1.76e+00,2.24e-02,2.40e-03,
284,1.76e+00,2.56e-02,1.40e-03,
285,1.76e+00,2.56e-02,2.20e-03,
286,1.76e+00,2.32e-02,2.40e-03,
287,1.76e+00,2.48e-02,2.00e-03,
288,1.76e+00,2.24e-02,2.40e-03,
289,1.76e+00,2.72e-02,2.40e-03,
290,1.76e+00,2.72e-02,2.20e-03,
291,1.76e+00,2.32e-02,2.40e-03,
292,1.76e+00,2.48e-02,2.60e-03,
293,1.76e+00,2.32e-02,3.40e-03,
294,1.76e+00,2.56e-02,2.40e-03,
295,1.76e+00,2.24e-02,2.60e-03,
296,1.76e+00,2.56e-02,2.60e-03,
297,1.76e+00,2.56e-02,3.60e-03,
298,1.76e+00,2.32e-02,2.60e-03,
299,1.84e+00,2.48e-02,2.80e-03,
300,1.84e+00,2.32e-02,3.40e-03,
301,1.84e+00,2.72e-02,1.60e-03,
302,1.84e+00,2.48e-02,3.20e-03,
303,1.84e+00,2.48e-02,2.20e-03,
304,1.84e+00,2.56e-02,2.00e-03,
305,1.84e+00,2.48e-02,2.40e-03,
306,1.84e+00,2.56e-02,2.00e-03,
307,1.84e+00,2.56e-02,2.80e-03,
308,1.84e+00,2.48e-02,3.80e-03,
309,1.84e+00,2.56e-02,2.80e-03,
310,1.84e+00,2.48e-02,2.80e-03,
311,1.84e+00,2.48e-02,2.80e-03,
312,1.84e+00,2.56e-02,2.40e-03,
313,1.84e+00,2.72e-02,2.80e-03,
314,1.84e+00,2.56e-02,3.40e-03,
315,1.84e+00,2.48e-02,2.80e-03,
316,1.84e+00,2.48e-02,2.80e-03,
317,1.84e+00,2.48e-02,2.80e-03,
318,1.84e+00,2.56e-02,1.60e-03,
319,1.84e+00,2.32e-02,2.80e-03,
320,2.00e+00,2.56e-02,2.40e-03,
321,2.00e+00,2.72e-02,2.80e-03,
322,2.00e+00,2.32e-02,2.80e-03,
323,2.00e+00,2.56e-02,2.40e-03,
324,2.00e+00,2.56e-02,3.80e-03,
325,2.00e+00,2.48e-02,4.20e-03,
326,2.00e+00,2.48e-02,3.80e-03,
327,2.00e+00,2.48e-02,2.80e-03,
328,2.00e+00,2.48e-02,3.20e-03,
329,2.00e+00,2.72e-02,2.60e-03,
330,2.00e+00,2.48e-02,2.60e-03,
331,2.00e+00,2.56e-02,3.40e-03,
332,2.00e+00,2.48e-02,3.60e-03,
333,2.00e+00,2.72e-02,2.80e-03,
334,2.00e+00,2.72e-02,2.60e-03,
335,2.00e+00,2.56e-02,2.40e-03,
336,2.00e+00,2.72e-02,3.40e-03,
337,2.00e+00,2.32e-02,3.60e-03,
338,2.00e+00,2.56e-02,3.20e-03,
339,2.00e+00,2.56e-02,2.60e-03,
340,2.08e+00,2.56e-02,3.40e-03,
341,2.08e+00,2.72e-02,3.20e-03,
342,2.08e+00,2.56e-02,3.40e-03,
343,2.08e+00,2.56e-02,3.80e-03,
344,2.08e+00,2.72e-02,2.80e-03,
345,2.08e+00,2.56e-02,4.20e-03,
346,2.08e+00,2.56e-02,3.40e-03,
347,2.08e+00,2.56e-02,4.00e-03,
348,2.08e+00,2.48e-02,3.80e-03,
349,2.08e+00,2.72e-02,2.80e-03,
350,2.08e+00,2.48e-02,3.60e-03,
351,2.08e+00,2.72e-02,3.40e-03,
352,2.08e+00,2.72e-02,4.00e-03,
353,2.08e+00,2.48e-02,4.60e-03,
354,2.08e+00,2.56e-02,4.00e-03,
355,2.08e+00,2.48e-02,3.80e-03,
356,2.08e+00,2.80e-02,2.80e-03,
357,2.08e+00,2.72e-02,4.00e-03,
358,2.08e+00,2.56e-02,4.00e-03,
359,2.08e+00,2.56e-02,4.60e-03,
360,2.24e+00,2.48e-02,3.60e-03,
361,2.24e+00,2.56e-02,3.20e-03,
362,2.24e+00,2.80e-02,2.60e-03,
363,2.24e+00,2.72e-02,3.40e-03,
364,2.24e+00,2.56e-02,4.20e-03,
365,2.24e+00,2.72e-02,3.40e-03,
366,2.24e+00,2.56e-02,3.80e-03,
367,2.24e+00,2.48e-02,3.20e-03,
368,2.24e+00,2.72e-02,3.60e-03,
369,2.24e+00,2.72e-02,2.80e-03,
370,2.24e+00,2.48e-02,3.20e-03,
371,2.24e+00,2.56e-02,4.80e-03,
372,2.24e+00,2.72e-02,3.40e-03,
373,2.24e+00,2.72e-02,3.60e-03,
374,2.24e+00,2.48e-02,3.40e-03,
375,2.24e+00,2.72e-02,3.20e-03,
376,2.24e+00,2.72e-02,3.80e-03,
377,2.24e+00,2.48e-02,4.60e-03,
378,2.24e+00,2.72e-02,3.40e-03,
379,2.24e+00,2.72e-02,3.20e-03,
380,2.24e+00,2.72e-02,4.20e-03,
381,2.24e+00,2.72e-02,3.60e-03,
382,2.24e+00,2.56e-02,4.80e-03,
383,2.32e+00,2.72e-02,4.20e-03,
384,2.32e+00,2.80e-02,4.00e-03,
385,2.32e+00,2.72e-02,4.00e-03,
386,2.32e+00,2.56e-02,3.80e-03,
387,2.32e+00,2.72e-02,4.60e-03,
388,2.32e+00,2.56e-02,5.00e-03,
389,2.32e+00,2.72e-02,4.00e-03,
390,2.32e+00,2.56e-02,4.60e-03,
391,2.32e+00,2.80e-02,3.60e-03,
392,2.32e+00,2.72e-02,4.20e-03,
393,2.32e+00,2.48e-02,6.00e-03,
394,2.32e+00,2.72e-02,4.00e-03,
395,2.32e+00,2.72e-02,4.60e-03,
396,2.32e+00,2.72e-02,4.20e-03,
397,2.32e+00,2.72e-02,4.00e-03,
398,2.32e+00,2.56e-02,4.60e-03,
399,2.32e+00,2.48e-02,5.00e-03,
400,2.32e+00,3.04e-02,3.80e-03,
401,2.32e+00,2.56e-02,4.00e-03,
402,2.32e+00,2.48e-02,4.60e-03,
403,2.48e+00,2.80e-02,3.80e-03,
404,2.48e+00,2.72e-02,4.20e-03,
405,2.48e+00,2.48e-02,5.20e-03,
406,2.48e+00,2.80e-02,3.20e-03,
407,2.48e+00,2.80e-02,3.60e-03,
408,2.48e+00,2.72e-02,4.60e-03,
409,2.48e+00,2.72e-02,4.80e-03,
410,2.48e+00,2.72e-02,3.60e-03,
411,2.48e+00,2.72e-02,4.00e-03,
412,2.48e+00,2.56e-02,4.60e-03,
413,2.48e+00,2.72e-02,4.80e-03,
414,2.48e+00,2.72e-02,5.00e-03,
415,2.48e+00,2.72e-02,5.00e-03,
416,2.48e+00,2.56e-02,5.40e-03,
417,2.48e+00,2.80e-02,4.20e-03,
418,2.48e+00,2.56e-02,4.20e-03,
419,2.48e+00,2.56e-02,5.40e-03,
420,2.48e+00,2.72e-02,5.00e-03,
421,2.48e+00,2.80e-02,4.00e-03,
422,2.48e+00,2.72e-02,4.00e-03,
423,2.48e+00,2.56e-02,4.60e-03,
424,2.48e+00,2.80e-02,3.80e-03,
425,2.48e+00,2.56e-02,4.80e-03,
426,2.48e+00,2.72e-02,4.20e-03,
427,2.48e+00,2.72e-02,4.00e-03,
428,2.56e+00,2.80e-02,4.60e-03,
429,2.56e+00,2.48e-02,5.00e-03,
430,2.56e+00,2.72e-02,5.20e-03,
431,2.56e+00,2.80e-02,4.80e-03,
432,2.56e+00,2.56e-02,5.40e-03,
433,2.56e+00,2.56e-02,4.20e-03,
434,2.56e+00,2.72e-02,5.00e-03,
435,2.56e+00,2.56e-02,5.40e-03,
436,2.56e+00,2.72e-02,4.20e-03,
437,2.56e+00,2.96e-02,4.60e-03,
438,2.56e+00,2.56e-02,4.20e-03,
439,2.56e+00,2.72e-02,4.80e-03,
440,2.56e+00,2.80e-02,4.60e-03,
441,2.56e+00,2.56e-02,5.00e-03,
442,2.56e+00,2.72e-02,3.80e-03,
443,2.56e+00,2.72e-02,4.60e-03,
444,2.56e+00,2.96e-02,5.40e-03,
445,2.56e+00,2.72e-02,4.60e-03,
446,2.56e+00,2.72e-02,4.60e-03,
447,2.56e+00,2.72e-02,4.60e-03,
448,2.56e+00,2.80e-02,4.00e-03,
449,2.72e+00,2.72e-02,5.40e-03,
450,2.72e+00,2.80e-02,4.00e-03,
451,2.72e+00,2.72e-02,5.00e-03,
452,2.72e+00,2.96e-02,4.80e-03,
453,2.72e+00,2.48e-02,5.00e-03,
454,2.72e+00,2.80e-02,4.20e-03,
455,2.72e+00,2.72e-02,5.00e-03,
456,2.72e+00,2.72e-02,4.60e-03,
457,2.72e+00,2.72e-02,4.80e-03,
458,2.72e+00,2.72e-02,4.80e-03,
459,2.72e+00,2.72e-02,5.80e-03,
460,2.72e+00,2.72e-02,5.00e-03,
461,2.72e+00,2.80e-02,5.00e-03,
462,2.72e+00,2.72e-02,6.00e-03,
463,2.72e+00,2.56e-02,5.80e-03,
464,2.72e+00,2.96e-02,5.00e-03,
465,2.72e+00,2.48e-02,5.40e-03,
466,2.72e+00,2.80e-02,5.00e-03,
467,2.72e+00,2.80e-02,6.40e-03,
468,2.72e+00,2.80e-02,5.00e-03,
469,2.72e+00,2.72e-02,5.20e-03,
470,2.72e+00,2.72e-02,5.40e-03,
471,2.72e+00,2.72e-02,4.60e-03,
472,2.72e+00,2.80e-02,5.80e-03,
473,2.72e+00,2.56e-02,4.80e-03,
474,2.80e+00,2.80e-02,4.00e-03,
475,2.72e+00,2.72e-02,6.00e-03,
476,2.80e+00,3.04e-02,4.60e-03,
477,2.80e+00,2.56e-02,5.80e-03,
478,2.80e+00,2.72e-02,4.00e-03,
479,2.80e+00,2.56e-02,5.00e-03,
480,2.80e+00,2.96e-02,5.40e-03,
481,2.80e+00,2.80e-02,5.20e-03,
482,2.80e+00,2.72e-02,6.20e-03,
483,2.80e+00,2.80e-02,4.80e-03,
484,2.80e+00,2.80e-02,6.20e-03,
485,2.80e+00,2.72e-02,6.20e-03,
486,2.80e+00,2.72e-02,5.40e-03,
487,2.80e+00,3.04e-02,5.00e-03,
488,2.80e+00,2.80e-02,5.20e-03,
489,2.80e+00,3.04e-02,6.20e-03,
490,2.80e+00,2.72e-02,5.20e-03,
491,2.80e+00,2.96e-02,4.60e-03,
492,2.80e+00,2.72e-02,4.80e-03,
493,2.80e+00,2.72e-02,4.80e-03,
494,2.80e+00,2.80e-02,6.00e-03,
495,2.80e+00,2.80e-02,4.60e-03,
496,2.80e+00,2.80e-02,5.40e-03,
497,2.80e+00,2.96e-02,4.80e-03,
498,2.80e+00,2.96e-02,5.20e-03,
499,2.80e+00,2.72e-02,5.80e-03,
500,2.80e+00,2.96e-02,5.40e-03,
501,2.96e+00,2.80e-02,4.80e-03,
502,2.96e+00,2.80e-02,4.80e-03,
503,2.96e+00,3.04e-02,6.00e-03,
504,2.96e+00,2.56e-02,6.00e-03,
505,2.96e+00,2.80e-02,5.20e-03,
506,2.96e+00,2.80e-02,4.80e-03,
507,2.96e+00,2.96e-02,6.00e-03,
508,2.96e+00,2.96e-02,6.00e-03,
509,2.96e+00,2.80e-02,5.80e-03,
510,2.96e+00,2.56e-02,5.40e-03,
511,2.96e+00,2.96e-02,5.20e-03,
512,2.96e+00,2.96e-02,6.20e-03,
513,2.96e+00,2.80e-02,5.40e-03,
514,2.96e+00,2.80e-02,6.00e-03,
515,2.96e+00,2.80e-02,5.20e-03,
516,2.96e+00,2.72e-02,6.00e-03,
517,2.96e+00,2.80e-02,6.20e-03,
518,2.96e+00,2.72e-02,6.00e-03,
519,2.96e+00,2.96e-02,5.40e-03,
520,2.96e+00,2.72e-02,5.40e-03,
521,2.96e+00,2.80e-02,6.40e-03,
522,2.96e+00,2.96e-02,6.00e-03,
523,2.96e+00,2.80e-02,5.80e-03,
524,2.96e+00,2.72e-02,5.00e-03,
525,2.96e+00,2.80e-02,5.80e-03,
526,2.96e+00,2.80e-02,5.40e-03,
527,2.96e+00,2.80e-02,6.00e-03,
528,3.04e+00,2.96e-02,4.60e-03,
529,3.04e+00,2.80e-02,6.00e-03,
530,3.04e+00,2.80e-02,5.40e-03,
531,3.04e+00,2.72e-02,6.40e-03,
532,3.04e+00,2.96e-02,5.00e-03,
533,3.04e+00,2.72e-02,5.20e-03,
534,3.04e+00,2.96e-02,5.80e-03,
535,3.04e+00,2.96e-02,6.00e-03,
536,3.04e+00,2.72e-02,5.40e-03,
537,3.04e+00,2.96e-02,5.00e-03,
538,3.04e+00,2.80e-02,5.80e-03,
539,3.04e+00,2.72e-02,6.40e-03,
540,3.04e+00,2.80e-02,5.20e-03,
541,3.04e+00,2.72e-02,5.20e-03,
542,3.04e+00,2.96e-02,6.20e-03,
543,3.04e+00,2.96e-02,6.20e-03,
544,3.04e+00,2.72e-02,6.60e-03,
545,3.04e+00,2.80e-02,4.60e-03,
546,3.04e+00,2.72e-02,6.00e-03,
547,3.04e+00,2.80e-02,6.20e-03,
548,3.04e+00,2.80e-02,6.60e-03,
549,3.04e+00,2.80e-02,5.00e-03,
550,3.04e+00,2.96e-02,6.00e-03,
551,3.04e+00,2.96e-02,5.40e-03,
552,3.04e+00,2.80e-02,6.60e-03,
553,3.04e+00,2.80e-02,5.40e-03,
554,3.04e+00,2.96e-02,5.40e-03,
555,3.04e+00,2.80e-02,6.20e-03,
556,3.20e+00,2.80e-02,6.00e-03,
557,3.20e+00,2.96e-02,5.40e-03,
558,3.20e+00,2.80e-02,5.40e-03,
559,3.20e+00,2.80e-02,6.60e-03,
560,3.20e+00,2.72e-02,5.40e-03,
561,3.20e+00,2.80e-02,5.40e-03,
562,3.20e+00,2.56e-02,6.20e-03,
563,3.20e+00,3.04e-02,6.20e-03,
564,3.20e+00,2.80e-02,6.20e-03,
565,3.20e+00,2.80e-02,5.40e-03,
566,3.20e+00,2.80e-02,6.40e-03,
567,3.20e+00,2.80e-02,6.00e-03,
568,3.20e+00,2.80e-02,6.00e-03,
569,3.20e+00,2.72e-02,5.20e-03,
570,3.20e+00,2.72e-02,6.60e-03,
571,3.20e+00,2.80e-02,6.40e-03,
572,3.20e+00,2.80e-02,5.80e-03,
573,3.20e+00,2.80e-02,6.20e-03,
574,3.20e+00,2.80e-02,6.00e-03,
575,3.20e+00,2.96e-02,6.20e-03,
576,3.20e+00,2.72e-02,6.60e-03,
577,3.20e+00,2.80e-02,6.20e-03,
578,3.20e+00,2.80e-02,6.20e-03,
579,3.20e+00,2.80e-02,5.40e-03,
580,3.20e+00,2.72e-02,6.60e-03,
581,3.20e+00,3.04e-02,5.80e-03,
582,3.20e+00,2.72e-02,6.80e-03,
583,3.20e+00,2.96e-02,5.20e-03,
584,3.20e+00,2.96e-02,6.20e-03,
585,3.28e+00,2.72e-02,6.80e-03,
586,3.20e+00,2.56e-02,6.20e-03,
587,3.20e+00,2.80e-02,5.80e-03,
588,3.20e+00,2.96e-02,5.40e-03,
589,3.28e+00,2.72e-02,6.60e-03,
590,3.28e+00,2.96e-02,6.20e-03,
591,3.28e+00,2.80e-02,5.40e-03,
592,3.28e+00,2.72e-02,6.00e-03,
593,3.28e+00,2.72e-02,6.80e-03,
594,3.28e+00,2.80e-02,5.80e-03,
595,3.28e+00,2.80e-02,7.40e-03,
596,3.28e+00,2.72e-02,6.20e-03,
597,3.28e+00,2.96e-02,6.00e-03,
598,3.28e+00,3.04e-02,7.40e-03,
599,3.28e+00,2.80e-02,7.60e-03,
600,3.28e+00,2.80e-02,7.20e-03,
601,3.28e+00,2.80e-02,6.40e-03,
602,3.28e+00,2.56e-02,6.80e-03,
603,3.28e+00,3.04e-02,7.60e-03,
604,3.28e+00,2.72e-02,7.20e-03,
605,3.28e+00,2.72e-02,6.60e-03,
606,3.28e+00,2.96e-02,7.40e-03,
607,3.28e+00,2.96e-02,6.40e-03,
608,3.28e+00,2.80e-02,7.40e-03,
609,3.28e+00,2.80e-02,7.60e-03,
610,3.28e+00,2.72e-02,7.60e-03,
611,3.28e+00,2.80e-02,6.20e-03,
612,3.28e+00,2.80e-02,6.60e-03,
613,3.28e+00,2.80e-02,8.40e-03,
614,3.28e+00,2.80e-02,6.80e-03,
615,3.28e+00,3.04e-02,7.20e-03,
616,3.28e+00,2.72e-02,6.20e-03,
617,3.28e+00,2.96e-02,6.40e-03,
618,3.28e+00,2.80e-02,6.60e-03,
619,3.28e+00,2.72e-02,7.60e-03,
