data/calibration/measurement6.csv

X,CH1,CH2,Start,Increment,,Max,Min,Amp
Sequence,Volt,Volt,-0.0115600000,0.0000010000,,0.047200,-0.0516,0.049399999999999999
0,1.040000,-0.008000,,,,,,
1,1.040000,-0.008000,,,,,,
2,1.040000,-0.006000,,,,,,
3,1.040000,-0.007200,,,,,,
4,1.040000,-0.007200,,,,,,
5,1.040000,-0.008000,,,,,,
6,1.040000,-0.009200,,,,,,
7,1.040000,-0.006800,,,,,,
8,1.040000,-0.006000,,,,,,
9,1.040000,-0.007200,,,,,,
10,1.040000,-0.007200,,,,,,
11,1.040000,-0.006800,,,,,,
12,1.040000,-0.007200,,,,,,
13,1.040000,-0.007200,,,,,,
14,1.040000,-0.009200,,,,,,
15,1.040000,-0.005600,,,,,,
16,1.040000,-0.006000,,,,,,
17,1.040000,-0.009200,,,,,,
18,1.040000,-0.007200,,,,,,
19,1.040000,-0.007200,,,,,,
20,1.040000,-0.008000,,,,,,
21,1.040000,-0.008000,,,,,,
22,1.040000,-0.007200,,,,,,
23,1.040000,-0.006800,,,,,,
24,1.040000,-0.007200,,,,,,
25,1.040000,-0.009600,,,,,,
26,1.040000,-0.008400,,,,,,
27,1.040000,-0.008400,,,,,,
28,1.040000,-0.008400,,,,,,
29,1.040000,-0.007200,,,,,,
30,1.040000,-0.008400,,,,,,
31,1.040000,-0.008000,,,,,,
32,1.040000,-0.007200,,,,,,
33,1.040000,-0.007200,,,,,,
34,1.040000,-0.007200,,,,,,
35,0.880000,-0.006800,,,,,,
36,1.040000,-0.005600,,,,,,
37,1.040000,-0.008000,,,,,,
38,1.040000,-0.008400,,,,,,
39,1.040000,-0.007200,,,,,,
40,0.880000,-0.007200,,,,,,
41,0.880000,-0.008000,,,,,,
42,0.880000,-0.006800,,,,,,
43,0.880000,-0.009200,,,,,,
44,0.880000,-0.006000,,,,,,
45,0.880000,-0.008400,,,,,,
46,0.880000,-0.009600,,,,,,
47,0.880000,-0.006000,,,,,,
48,0.880000,-0.006800,,,,,,
49,0.880000,-0.008000,,,,,,
50,0.880000,-0.008400,,,,,,
51,0.880000,-0.008400,,,,,,
52,0.880000,-0.009600,,,,,,
53,0.880000,-0.009200,,,,,,
54,0.880000,-0.009200,,,,,,
55,0.880000,-0.007200,,,,,,
56,0.880000,-0.008000,,,,,,
57,0.880000,-0.008400,,,,,,
58,0.880000,-0.007200,,,,,,
59,0.880000,-0.008400,,,,,,
60,0.880000,-0.006000,,,,,,
61,0.880000,-0.005600,,,,,,
62,0.880000,-0.006000,,,,,,
63,0.880000,-0.008000,,,,,,
64,0.880000,-0.007200,,,,,,
65,0.880000,-0.007200,,,,,,
66,0.880000,-0.008000,,,,,,
67,0.880000,-0.008000,,,,,,
68,0.880000,-0.006000,,,,,,
69,0.880000,-0.005600,,,,,,
70,0.880000,-0.006800,,,,,,
71,0.880000,-0.007200,,,,,,
72,0.880000,-0.007200,,,,,,
73,0.880000,-0.005600,,,,,,
74,0.880000,-0.005600,,,,,,
75,0.880000,-0.009200,,,,,,
76,0.880000,-0.006000,,,,,,
77,0.880000,-0.007200,,,,,,
78,0.880000,-0.009200,,,,,,
79,0.880000,-0.009200,,,,,,
80,0.880000,-0.008400,,,,,,
81,0.880000,-0.008000,,,,,,
82,0.880000,-0.007200,,,,,,
83,0.880000,-0.009600,,,,,,
84,0.880000,-0.009600,,,,,,
85,0.880000,-0.006800,,,,,,
86,0.880000,-0.008400,,,,,,
87,0.880000,-0.007200,,,,,,
88,0.880000,-0.009200,,,,,,
89,0.880000,-0.008400,,,,,,
90,0.880000,-0.008400,,,,,,
91,0.880000,-0.010400,,,,,,
92,0.880000,-0.008400,,,,,,
93,0.880000,-0.008000,,,,,,
94,0.880000,-0.008000,,,,,,
95,0.880000,-0.008400,,,,,,
96,0.880000,-0.008000,,,,,,
97,0.880000,-0.009600,,,,,,
98,0.880000,-0.009200,,,,,,
99,0.880000,-0.009600,,,,,,
100,0.880000,-0.008400,,,,,,
101,0.800000,-0.009600,,,,,,
102,0.800000,-0.009600,,,,,,
103,0.800000,-0.010400,,,,,,
104,0.800000,-0.012000,,,,,,
105,0.800000,-0.010800,,,,,,
106,0.800000,-0.010400,,,,,,
107,0.800000,-0.010400,,,,,,
108,0.800000,-0.009600,,,,,,
109,0.800000,-0.009200,,,,,,
110,0.800000,-0.011600,,,,,,
111,0.800000,-0.009600,,,,,,
112,0.800000,-0.010400,,,,,,
113,0.800000,-0.010400,,,,,,
114,0.800000,-0.009200,,,,,,
115,0.800000,-0.010400,,,,,,
116,0.800000,-0.009600,,,,,,
117,0.800000,-0.011600,,,,,,
118,0.800000,-0.010400,,,,,,
119,0.800000,-0.008400,,,,,,
120,0.800000,-0.008000,,,,,,
121,0.800000,-0.009200,,,,,,
122,0.800000,-0.008400,,,,,,
123,0.800000,-0.008000,,,,,,
124,0.800000,-0.008000,,,,,,
125,0.800000,-0.006800,,,,,,
126,0.800000,-0.007200,,,,,,
127,0.800000,-0.006000,,,,,,
128,0.800000,-0.008400,,,,,,
129,0.800000,-0.008400,,,,,,
130,0.800000,-0.009200,,,,,,
131,0.800000,-0.009600,,,,,,
132,0.800000,-0.008400,,,,,,
133,0.800000,-0.008000,,,,,,
134,0.800000,-0.008400,,,,,,
135,0.800000,-0.009600,,,,,,
136,0.800000,-0.009200,,,,,,
137,0.800000,-0.008400,,,,,,
138,0.800000,-0.008000,,,,,,
139,0.800000,-0.010400,,,,,,
140,0.800000,-0.008400,,,,,,
141,0.800000,-0.008400,,,,,,
142,0.800000,-0.011600,,,,,,
143,0.800000,-0.009600,,,,,,
144,0.800000,-0.009600,,,,,,
145,0.800000,-0.008400,,,,,,
146,0.800000,-0.008400,,,,,,
147,0.800000,-0.008400,,,,,,
148,0.800000,-0.009200,,,,,,
149,0.800000,-0.009200,,,,,,
150,0.800000,-0.009200,,,,,,
151,0.800000,-0.009200,,,,,,
152,0.800000,-0.008400,,,,,,
153,0.800000,-0.009200,,,,,,
154,0.800000,-0.009200,,,,,,
155,0.800000,-0.010800,,,,,,
156,0.800000,-0.010400,,,,,,
157,0.800000,-0.011600,,,,,,
158,0.640000,-0.010400,,,,,,
159,0.800000,-0.009600,,,,,,
160,0.640000,-0.010400,,,,,,
161,0.640000,-0.010400,,,,,,
162,0.640000,-0.011600,,,,,,
163,0.640000,-0.010400,,,,,,
164,0.640000,-0.010400,,,,,,
165,0.640000,-0.011600,,,,,,
166,0.640000,-0.012800,,,,,,
167,0.640000,-0.010400,,,,,,
168,0.640000,-0.013200,,,,,,
169,0.640000,-0.013200,,,,,,
170,0.640000,-0.011600,,,,,,
171,0.640000,-0.010400,,,,,,
172,0.640000,-0.008400,,,,,,
173,0.640000,-0.010800,,,,,,
174,0.640000,-0.010800,,,,,,
175,0.640000,-0.010400,,,,,,
176,0.640000,-0.010400,,,,,,
177,0.640000,-0.009600,,,,,,
178,0.640000,-0.010800,,,,,,
179,0.640000,-0.009600,,,,,,
180,0.640000,-0.008400,,,,,,
181,0.640000,-0.011600,,,,,,
182,0.640000,-0.012800,,,,,,
183,0.640000,-0.010800,,,,,,
184,0.640000,-0.010800,,,,,,
185,0.640000,-0.008400,,,,,,
186,0.640000,-0.011600,,,,,,
187,0.640000,-0.011600,,,,,,
188,0.640000,-0.009200,,,,,,
189,0.640000,-0.011600,,,,,,
190,0.640000,-0.010800,,,,,,
191,0.640000,-0.012000,,,,,,
192,0.640000,-0.011600,,,,,,
193,0.640000,-0.012000,,,,,,
194,0.640000,-0.014000,,,,,,
195,0.640000,-0.015600,,,,,,
196,0.640000,-0.012800,,,,,,
197,0.640000,-0.011600,,,,,,
198,0.640000,-0.012800,,,,,,
199,0.640000,-0.012000,,,,,,
200,0.640000,-0.014000,,,,,,
201,0.640000,-0.012000,,,,,,
202,0.640000,-0.012800,,,,,,
203,0.640000,-0.012000,,,,,,
204,0.640000,-0.013200,,,,,,
205,0.640000,-0.014000,,,,,,
206,0.640000,-0.012000,,,,,,
207,0.640000,-0.014400,,,,,,
208,0.640000,-0.014400,,,,,,
209,0.640000,-0.012000,,,,,,
210,0.640000,-0.011600,,,,,,
211,0.640000,-0.013200,,,,,,
212,0.640000,-0.010800,,,,,,
213,0.640000,-0.014000,,,,,,
214,0.640000,-0.014000,,,,,,
215,0.560000,-0.014000,,,,,,
216,0.640000,-0.014400,,,,,,
217,0.560000,-0.012800,,,,,,
218,0.560000,-0.015200,,,,,,
219,0.560000,-0.015200,,,,,,
220,0.560000,-0.014400,,,,,,
221,0.560000,-0.013200,,,,,,
222,0.560000,-0.014400,,,,,,
223,0.560000,-0.014400,,,,,,
224,0.560000,-0.013200,,,,,,
225,0.560000,-0.014000,,,,,,
226,0.560000,-0.014400,,,,,,
227,0.560000,-0.016400,,,,,,
228,0.560000,-0.015600,,,,,,
229,0.560000,-0.014400,,,,,,
230,0.560000,-0.014000,,,,,,
231,0.560000,-0.016800,,,,,,
232,0.560000,-0.016400,,,,,,
233,0.560000,-0.014400,,,,,,
234,0.560000,-0.015200,,,,,,
235,0.560000,-0.014400,,,,,,
236,0.560000,-0.014400,,,,,,
237,0.560000,-0.013200,,,,,,
238,0.560000,-0.012800,,,,,,
239,0.560000,-0.014000,,,,,,
240,0.560000,-0.015200,,,,,,
241,0.560000,-0.013200,,,,,,
242,0.560000,-0.011600,,,,,,
243,0.560000,-0.013200,,,,,,
244,0.560000,-0.016400,,,,,,
245,0.560000,-0.014400,,,,,,
246,0.560000,-0.014000,,,,,,
247,0.560000,-0.015200,,,,,,
248,0.560000,-0.013200,,,,,,
249,0.560000,-0.015200,,,,,,
250,0.560000,-0.013200,,,,,,
251,0.560000,-0.013200,,,,,,
252,0.560000,-0.015600,,,,,,
253,0.560000,-0.014000,,,,,,
254,0.560000,-0.014000,,,,,,
255,0.560000,-0.013200,,,,,,
256,0.560000,-0.013200,,,,,,
257,0.560000,-0.014000,,,,,,
258,0.560000,-0.015200,,,,,,
259,0.560000,-0.013200,,,,,,
260,0.560000,-0.012800,,,,,,
261,0.560000,-0.011600,,,,,,
262,0.560000,-0.011600,,,,,,
263,0.560000,-0.013200,,,,,,
264,0.560000,-0.011600,,,,,,
265,0.560000,-0.012800,,,,,,
266,0.560000,-0.012000,,,,,,
267,0.560000,-0.014000,,,,,,
268,0.560000,-0.012800,,,,,,
269,0.560000,-0.010800,,,,,,
270,0.560000,-0.014000,,,,,,
271,0.560000,-0.013200,,,,,,
272,0.560000,-0.014000,,,,,,
273,0.560000,-0.012800,,,,,,
274,0.560000,-0.012000,,,,,,
275,0.400000,-0.013200,,,,,,
276,0.400000,-0.013200,,,,,,
277,0.400000,-0.014400,,,,,,
278,0.400000,-0.014400,,,,,,
279,0.400000,-0.016800,,,,,,
280,0.400000,-0.014400,,,,,,
281,0.400000,-0.014000,,,,,,
282,0.400000,-0.015600,,,,,,
283,0.400000,-0.016800,,,,,,
284,0.400000,-0.014400,,,,,,
285,0.400000,-0.016400,,,,,,
286,0.400000,-0.014400,,,,,,
287,0.400000,-0.014400,,,,,,
288,0.400000,-0.014400,,,,,,
289,0.400000,-0.014000,,,,,,
290,0.400000,-0.016800,,,,,,
291,0.400000,-0.014000,,,,,,
292,0.400000,-0.013200,,,,,,
293,0.400000,-0.014000,,,,,,
294,0.400000,-0.015200,,,,,,
295,0.400000,-0.014000,,,,,,
296,0.400000,-0.012800,,,,,,
297,0.400000,-0.015200,,,,,,
298,0.400000,-0.014400,,,,,,
299,0.400000,-0.014000,,,,,,
300,0.400000,-0.012000,,,,,,
301,0.400000,-0.013200,,,,,,
302,0.400000,-0.015600,,,,,,
303,0.400000,-0.016400,,,,,,
304,0.400000,-0.014400,,,,,,
305,0.400000,-0.016400,,,,,,
306,0.400000,-0.016800,,,,,,
307,0.400000,-0.016800,,,,,,
308,0.400000,-0.016400,,,,,,
309,0.400000,-0.015600,,,,,,
310,0.400000,-0.018000,,,,,,
311,0.400000,-0.016400,,,,,,
312,0.400000,-0.017600,,,,,,
313,0.400000,-0.014000,,,,,,
314,0.400000,-0.015200,,,,,,
315,0.400000,-0.018800,,,,,,
316,0.400000,-0.016800,,,,,,
317,0.400000,-0.015200,,,,,,
318,0.400000,-0.014400,,,,,,
319,0.400000,-0.016400,,,,,,
320,0.400000,-0.017600,,,,,,
321,0.400000,-0.016800,,,,,,
322,0.400000,-0.015600,,,,,,
323,0.400000,-0.016800,,,,,,
324,0.400000,-0.016400,,,,,,
325,0.400000,-0.016400,,,,,,
326,0.400000,-0.015200,,,,,,
327,0.400000,-0.016400,,,,,,
328,0.400000,-0.017600,,,,,,
329,0.320000,-0.016800,,,,,,
330,0.400000,-0.017600,,,,,,
331,0.400000,-0.015200,,,,,,
332,0.320000,-0.016800,,,,,,
333,0.320000,-0.018000,,,,,,
334,0.320000,-0.016800,,,,,,
335,0.320000,-0.017600,,,,,,
336,0.320000,-0.016800,,,,,,
337,0.320000,-0.017600,,,,,,
338,0.320000,-0.017600,,,,,,
339,0.320000,-0.016800,,,,,,
340,0.320000,-0.017600,,,,,,
341,0.320000,-0.020000,,,,,,
342,0.320000,-0.018800,,,,,,
343,0.320000,-0.018800,,,,,,
344,0.320000,-0.016800,,,,,,
345,0.320000,-0.018000,,,,,,
346,0.320000,-0.016800,,,,,,
347,0.320000,-0.015600,,,,,,
348,0.320000,-0.018800,,,,,,
349,0.320000,-0.015600,,,,,,
350,0.320000,-0.015600,,,,,,
351,0.320000,-0.015200,,,,,,
352,0.320000,-0.016400,,,,,,
353,0.320000,-0.018000,,,,,,
354,0.320000,-0.016800,,,,,,
355,0.320000,-0.016400,,,,,,
356,0.320000,-0.018000,,,,,,
357,0.320000,-0.017600,,,,,,
358,0.320000,-0.016800,,,,,,
359,0.320000,-0.017600,,,,,,
360,0.320000,-0.018000,,,,,,
361,0.320000,-0.018800,,,,,,
362,0.320000,-0.018000,,,,,,
363,0.320000,-0.020000,,,,,,
364,0.320000,-0.016800,,,,,,
365,0.320000,-0.019200,,,,,,
366,0.320000,-0.020400,,,,,,
367,0.320000,-0.020400,,,,,,
368,0.320000,-0.020400,,,,,,
369,0.320000,-0.019200,,,,,,
370,0.320000,-0.020000,,,,,,
371,0.320000,-0.019200,,,,,,
372,0.320000,-0.020000,,,,,,
373,0.320000,-0.019200,,,,,,
374,0.320000,-0.020000,,,,,,
375,0.320000,-0.019200,,,,,,
376,0.320000,-0.018000,,,,,,
377,0.320000,-0.018800,,,,,,
378,0.320000,-0.021200,,,,,,
379,0.320000,-0.020000,,,,,,
380,0.320000,-0.020400,,,,,,
381,0.320000,-0.021200,,,,,,
382,0.320000,-0.020400,,,,,,
383,0.320000,-0.021200,,,,,,
384,0.320000,-0.020000,,,,,,
385,0.320000,-0.021600,,,,,,
386,0.320000,-0.021600,,,,,,
387,0.320000,-0.022400,,,,,,
388,0.320000,-0.020400,,,,,,
389,0.160000,-0.018800,,,,,,
390,0.160000,-0.021600,,,,,,
391,0.160000,-0.021600,,,,,,
392,0.160000,-0.021600,,,,,,
393,0.160000,-0.021600,,,,,,
394,0.160000,-0.021600,,,,,,
395,0.160000,-0.022400,,,,,,
396,0.160000,-0.021600,,,,,,
397,0.160000,-0.020400,,,,,,
398,0.160000,-0.021600,,,,,,
399,0.160000,-0.023600,,,,,,
400,0.160000,-0.021200,,,,,,
401,0.160000,-0.020000,,,,,,
402,0.160000,-0.020000,,,,,,
403,0.160000,-0.022400,,,,,,
404,0.160000,-0.021200,,,,,,
405,0.160000,-0.022400,,,,,,
406,0.160000,-0.021600,,,,,,
407,0.160000,-0.020400,,,,,,
408,0.160000,-0.021600,,,,,,
409,0.160000,-0.020000,,,,,,
410,0.160000,-0.021600,,,,,,
411,0.160000,-0.021200,,,,,,
412,0.160000,-0.020000,,,,,,
413,0.160000,-0.021600,,,,,,
414,0.160000,-0.021200,,,,,,
415,0.160000,-0.020000,,,,,,
416,0.160000,-0.021600,,,,,,
417,0.160000,-0.022800,,,,,,
418,0.160000,-0.022400,,,,,,
419,0.160000,-0.021600,,,,,,
420,0.160000,-0.020400,,,,,,
421,0.160000,-0.022400,,,,,,
422,0.160000,-0.021200,,,,,,
423,0.160000,-0.021600,,,,,,
424,0.160000,-0.021600,,,,,,
425,0.160000,-0.024000,,,,,,
426,0.160000,-0.021600,,,,,,
427,0.160000,-0.020400,,,,,,
428,0.160000,-0.023600,,,,,,
429,0.160000,-0.022800,,,,,,
430,0.160000,-0.022800,,,,,,
431,0.160000,-0.023600,,,,,,
432,0.160000,-0.022400,,,,,,
433,0.160000,-0.021600,,,,,,
434,0.160000,-0.021600,,,,,,
435,0.160000,-0.021600,,,,,,
436,0.160000,-0.021200,,,,,,
437,0.160000,-0.021600,,,,,,
438,0.160000,-0.022400,,,,,,
439,0.160000,-0.021600,,,,,,
440,0.160000,-0.021200,,,,,,
441,0.080000,-0.021200,,,,,,
442,0.080000,-0.021600,,,,,,
443,0.080000,-0.024800,,,,,,
444,0.160000,-0.021600,,,,,,
445,0.160000,-0.022400,,,,,,
446,0.080000,-0.022800,,,,,,
447,0.080000,-0.022800,,,,,,
448,0.080000,-0.023600,,,,,,
449,0.080000,-0.022400,,,,,,
450,0.080000,-0.024000,,,,,,
451,0.080000,-0.023600,,,,,,
452,0.080000,-0.022400,,,,,,
453,0.080000,-0.022400,,,,,,
454,0.080000,-0.023600,,,,,,
455,0.080000,-0.024800,,,,,,
456,0.080000,-0.023600,,,,,,
457,0.080000,-0.022400,,,,,,
458,0.080000,-0.024000,,,,,,
459,0.080000,-0.022400,,,,,,
460,0.080000,-0.022400,,,,,,
461,0.080000,-0.023600,,,,,,
462,0.080000,-0.021600,,,,,,
463,0.080000,-0.024000,,,,,,
464,0.080000,-0.023600,,,,,,
465,0.080000,-0.022400,,,,,,
466,0.080000,-0.023600,,,,,,
467,0.080000,-0.024000,,,,,,
468,0.080000,-0.025200,,,,,,
469,0.080000,-0.022800,,,,,,
470,0.080000,-0.024800,,,,,,
471,0.080000,-0.022800,,,,,,
472,0.080000,-0.022400,,,,,,
473,0.080000,-0.023600,,,,,,
474,0.080000,-0.022400,,,,,,
475,0.080000,-0.024000,,,,,,
476,0.080000,-0.023600,,,,,,
477,0.080000,-0.022800,,,,,,
478,0.080000,-0.022800,,,,,,
479,0.080000,-0.022800,,,,,,
480,0.080000,-0.024800,,,,,,
481,0.080000,-0.024800,,,,,,
482,0.080000,-0.024000,,,,,,
483,0.080000,-0.021200,,,,,,
484,0.080000,-0.023600,,,,,,
485,0.080000,-0.024000,,,,,,
486,0.080000,-0.021600,,,,,,
487,0.080000,-0.022400,,,,,,
488,0.080000,-0.024000,,,,,,
489,0.080000,-0.022400,,,,,,
490,0.080000,-0.022400,,,,,,
491,0.080000,-0.022400,,,,,,
492,0.080000,-0.024000,,,,,,
493,0.080000,-0.024800,,,,,,
494,0.080000,-0.023600,,,,,,
495,0.080000,-0.024800,,,,,,
496,-0.080000,-0.022800,,,,,,
497,-0.080000,-0.023600,,,,,,
498,0.080000,-0.021600,,,,,,
499,-0.080000,-0.024000,,,,,,
500,-0.080000,-0.025200,,,,,,
501,0.080000,-0.022400,,,,,,
502,-0.080000,-0.024000,,,,,,
503,-0.080000,-0.023600,,,,,,
504,-0.080000,-0.023600,,,,,,
505,-0.080000,-0.024000,,,,,,
506,-0.080000,-0.024000,,,,,,
507,-0.080000,-0.024800,,,,,,
508,-0.080000,-0.024800,,,,,,
509,-0.080000,-0.024000,,,,,,
510,-0.080000,-0.024000,,,,,,
511,-0.080000,-0.023600,,,,,,
512,-0.080000,-0.022800,,,,,,
513,-0.080000,-0.024000,,,,,,
514,-0.080000,-0.022800,,,,,,
515,-0.080000,-0.023600,,,,,,
516,-0.080000,-0.021600,,,,,,
517,-0.080000,-0.023600,,,,,,
518,-0.080000,-0.024000,,,,,,
519,-0.080000,-0.021600,,,,,,
520,-0.080000,-0.024800,,,,,,
521,-0.080000,-0.022800,,,,,,
522,-0.080000,-0.021600,,,,,,
523,-0.080000,-0.020000,,,,,,
524,-0.080000,-0.022400,,,,,,
525,-0.080000,-0.022800,,,,,,
526,-0.080000,-0.021600,,,,,,
527,-0.080000,-0.021200,,,,,,
528,-0.080000,-0.021600,,,,,,
529,-0.080000,-0.021600,,,,,,
530,-0.080000,-0.021200,,,,,,
531,-0.080000,-0.022800,,,,,,
532,-0.080000,-0.023600,,,,,,
533,-0.080000,-0.023600,,,,,,
534,-0.080000,-0.020400,,,,,,
535,-0.080000,-0.020400,,,,,,
536,-0.080000,-0.023600,,,,,,
537,-0.080000,-0.021200,,,,,,
538,-0.080000,-0.022400,,,,,,
539,-0.080000,-0.023600,,,,,,
540,-0.080000,-0.022800,,,,,,
541,-0.080000,-0.022800,,,,,,
542,-0.080000,-0.022400,,,,,,
543,-0.080000,-0.022800,,,,,,
544,-0.080000,-0.024000,,,,,,
545,-0.080000,-0.023600,,,,,,
546,-0.080000,-0.021600,,,,,,
547,-0.080000,-0.022800,,,,,,
548,-0.080000,-0.021200,,,,,,
549,-0.080000,-0.020400,,,,,,
550,-0.080000,-0.021200,,,,,,
551,-0.080000,-0.022400,,,,,,
552,-0.080000,-0.022800,,,,,,
553,-0.080000,-0.021200,,,,,,
554,-0.080000,-0.021200,,,,,,
555,-0.080000,-0.021200,,,,,,
556,-0.080000,-0.023600,,,,,,
557,-0.080000,-0.021600,,,,,,
558,-0.160000,-0.021200,,,,,,
559,-0.160000,-0.022400,,,,,,
560,-0.160000,-0.021200,,,,,,
561,-0.160000,-0.018800,,,,,,
562,-0.160000,-0.020400,,,,,,
563,-0.160000,-0.021600,,,,,,
564,-0.160000,-0.021600,,,,,,
565,-0.160000,-0.021600,,,,,,
566,-0.160000,-0.019200,,,,,,
567,-0.160000,-0.022400,,,,,,
568,-0.160000,-0.021600,,,,,,
569,-0.160000,-0.021600,,,,,,
570,-0.160000,-0.021200,,,,,,
571,-0.160000,-0.023600,,,,,,
572,-0.160000,-0.022400,,,,,,
573,-0.160000,-0.019200,,,,,,
574,-0.160000,-0.020400,,,,,,
575,-0.160000,-0.022400,,,,,,
576,-0.160000,-0.022400,,,,,,
577,-0.160000,-0.021600,,,,,,
578,-0.160000,-0.022800,,,,,,
579,-0.160000,-0.021200,,,,,,
580,-0.160000,-0.021600,,,,,,
581,-0.160000,-0.020400,,,,,,
582,-0.160000,-0.021600,,,,,,
583,-0.160000,-0.022400,,,,,,
584,-0.160000,-0.020400,,,,,,
585,-0.160000,-0.022400,,,,,,
586,-0.160000,-0.020400,,,,,,
587,-0.160000,-0.020000,,,,,,
588,-0.160000,-0.021200,,,,,,
589,-0.160000,-0.023600,,,,,,
590,-0.160000,-0.022800,,,,,,
591,-0.160000,-0.021600,,,,,,
592,-0.160000,-0.022400,,,,,,
593,-0.160000,-0.023600,,,,,,
594,-0.160000,-0.023600,,,,,,
595,-0.160000,-0.022400,,,,,,
596,-0.160000,-0.024800,,,,,,
597,-0.160000,-0.023600,,,,,,
598,-0.160000,-0.024000,,,,,,
599,-0.160000,-0.022800,,,,,,
600,-0.160000,-0.022400,,,,,,
601,-0.160000,-0.025200,,,,,,
602,-0.160000,-0.026000,,,,,,
603,-0.160000,-0.023600,,,,,,
604,-0.160000,-0.022800,,,,,,
605,-0.160000,-0.024800,,,,,,
606,-0.160000,-0.022800,,,,,,
607,-0.160000,-0.023600,,,,,,
608,-0.160000,-0.022800,,,,,,
609,-0.160000,-0.024000,,,,,,
610,-0.320000,-0.024800,,,,,,
611,-0.160000,-0.022400,,,,,,
612,-0.320000,-0.024000,,,,,,
613,-0.320000,-0.025200,,,,,,
614,-0.320000,-0.025200,,,,,,
615,-0.320000,-0.024800,,,,,,
616,-0.320000,-0.026000,,,,,,
617,-0.320000,-0.024800,,,,,,
618,-0.320000,-0.025200,,,,,,
619,-0.320000,-0.024000,,,,,,
620,-0.320000,-0.024800,,,,,,
621,-0.320000,-0.025200,,,,,,
622,-0.320000,-0.026000,,,,,,
623,-0.320000,-0.025200,,,,,,
624,-0.320000,-0.023600,,,,,,
625,-0.320000,-0.026000,,,,,,
626,-0.320000,-0.026000,,,,,,
627,-0.320000,-0.025200,,,,,,
628,-0.320000,-0.025200,,,,,,
629,-0.320000,-0.027200,,,,,,
630,-0.320000,-0.025200,,,,,,
631,-0.320000,-0.024800,,,,,,
632,-0.320000,-0.024800,,,,,,
633,-0.320000,-0.025200,,,,,,
634,-0.320000,-0.027200,,,,,,
635,-0.320000,-0.026000,,,,,,
636,-0.320000,-0.025200,,,,,,
637,-0.320000,-0.026000,,,,,,
638,-0.320000,-0.025200,,,,,,
639,-0.320000,-0.024000,,,,,,
640,-0.320000,-0.027200,,,,,,
641,-0.320000,-0.026400,,,,,,
642,-0.320000,-0.024800,,,,,,
643,-0.320000,-0.024800,,,,,,
644,-0.320000,-0.024800,,,,,,
645,-0.320000,-0.025200,,,,,,
646,-0.320000,-0.024000,,,,,,
647,-0.320000,-0.026000,,,,,,
648,-0.320000,-0.026000,,,,,,
649,-0.320000,-0.024800,,,,,,
650,-0.320000,-0.024800,,,,,,
651,-0.320000,-0.025200,,,,,,
652,-0.320000,-0.026000,,,,,,
653,-0.320000,-0.025200,,,,,,
654,-0.320000,-0.027200,,,,,,
655,-0.320000,-0.026000,,,,,,
656,-0.320000,-0.025200,,,,,,
657,-0.320000,-0.024800,,,,,,
658,-0.320000,-0.025200,,,,,,
659,-0.320000,-0.025200,,,,,,
660,-0.320000,-0.024800,,,,,,
661,-0.320000,-0.026000,,,,,,
662,-0.320000,-0.026000,,,,,,
663,-0.320000,-0.024000,,,,,,
664,-0.320000,-0.023600,,,,,,
665,-0.320000,-0.026000,,,,,,
666,-0.320000,-0.024000,,,,,,
667,-0.320000,-0.024800,,,,,,
668,-0.320000,-0.026400,,,,,,
669,-0.400000,-0.023600,,,,,,
670,-0.400000,-0.024000,,,,,,
671,-0.400000,-0.024000,,,,,,
672,-0.400000,-0.025200,,,,,,
673,-0.400000,-0.025200,,,,,,
674,-0.400000,-0.026000,,,,,,
675,-0.400000,-0.026000,,,,,,
676,-0.400000,-0.026400,,,,,,
677,-0.400000,-0.024800,,,,,,
678,-0.400000,-0.026400,,,,,,
679,-0.400000,-0.028400,,,,,,
680,-0.400000,-0.026000,,,,,,
681,-0.400000,-0.028400,,,,,,
